Trade,0.09114952,ETH,0.20000000,LTC,Bittrex,,,,2017-12-17 6:54:55
Trade,0.31740216,BTC,4.00000000,ETH,Bittrex,,,,2018-3-2 5:23:57
Trade,83.50158008,GAM,0.10592592,BTC,Bittrex,,,,2018-3-2 5:27:00
Trade,96.49502736,GAM,0.12462179,BTC,Bittrex,,,,2018-3-2 5:30:27
Trade,21.00000000,GAM,0.02730148,BTC,Bittrex,,,,2018-3-2 5:31:01
Trade,0.74549373,ETH,0.05796959,BTC,Bittrex,,,,2018-3-2 20:25:05
Trade,1.35589999,ETH,1.82000000,DASH,Bittrex,,,,2018-1-25 12:01:53
Trade,0.10702498,ETH,0.00498736,BTC,Bittrex,,,,2017-12-19 23:44:07
Trade,0.00462500,BTC,0.50000000,LTC,Bittrex,,,,2017-12-11 2:09:58
Trade,0.01360184,BTC,249.40741876,STORJ,Bittrex,,,,2017-12-10 6:55:01
Trade,0.00502040,BTC,0.09916090,DASH,Bittrex,,,,2017-12-9 18:42:10
Trade,1.46648045,NEO,49.87500010,USDT,Bittrex,,,,2017-12-6 22:45:45
Trade,0.33644079,BCC,0.03990000,BTC,Bittrex,,,,2017-12-6 2:06:22
Trade,3.95069845,ETC,0.00997499,BTC,Bittrex,,,,2017-12-4 4:25:20
Trade,2.24195190,ETH,0.09954213,BTC,Bittrex,,,,2017-11-29 5:21:29
Trade,1260.74317492,EDG,0.09974999,BTC,Bittrex,,,,2017-11-29 3:35:16
Trade,0.53231968,BCC,0.07465770,BTC,Bittrex,,,,2017-11-29 3:11:29
Trade,2358.15602837,MER,0.04987500,BTC,Bittrex,,,,2017-11-29 1:29:15
Trade,2888.69374696,DCT,0.20223744,BTC,Bittrex,,,,2017-11-28 23:48:17
Trade,3835.05921857,XRP,0.09974987,BTC,Bittrex,,,,2017-11-26 18:50:29
Trade,3831.86483120,XRP,0.10152958,BTC,Bittrex,,,,2017-11-26 17:01:08
Trade,100.25000720,USDT,0.01234606,BTC,Bittrex,,,,2017-11-22 1:31:51
Trade,1000.00000000,INCNT,0.02870000,BTC,Bittrex,,,,2017-11-11 18:48:24
Trade,0.39506401,BTC,2.90488245,BCC,Bittrex,,,,2018-2-19 19:40:56
Trade,0.01357655,BTC,0.09859515,BCC,Bittrex,,,,2018-2-19 19:12:23
Trade,0.85919995,ETH,4.80000000,LTC,Bittrex,,,,2018-2-8 4:09:00
Trade,0.81343493,ETH,1.18749626,DASH,Bittrex,,,,2018-2-8 3:40:53
Trade,0.57140371,ETH,0.82687796,DASH,Bittrex,,,,2018-2-8 3:35:17
Trade,14.82996630,ETH,1.11224741,BTC,Bittrex,,,,2018-1-8 8:34:25
Trade,0.00544418,ETH,0.00040559,BTC,Bittrex,,,,2018-1-8 8:33:39
Trade,7.61764649,ETH,0.56820932,BTC,Bittrex,,,,2018-1-8 8:09:06
Trade,1.11816614,BTC,55908.31005600,LMC,Bittrex,,,,2018-1-8 8:19:55
Trade,0.54599999,BTC,30000.00000000,LMC,Bittrex,,,,2018-1-8 8:05:44
Trade,1.82497820,ETH,1.61502497,DASH,Bittrex,,,,2018-1-5 19:36:53
Trade,0.45002284,ETH,1.80000000,LTC,Bittrex,,,,2018-1-5 19:22:17
Trade,0.00772040,BTC,0.40000000,LTC,Bittrex,,,,2017-12-22 2:00:21
Trade,0.01739836,BTC,0.20207181,DASH,Bittrex,,,,2017-12-22 2:00:10
Trade,0.48102325,ETH,0.34421969,DASH,Bittrex,,,,2017-12-19 23:49:15
Trade,0.16884003,ETH,0.40000000,LTC,Bittrex,,,,2017-12-19 23:48:48
Trade,0.00502185,BTC,0.07690434,DASH,Bittrex,,,,2017-12-19 23:43:21
Trade,255.32164334,STEEM,0.03366415,BTC,Bittrex,,,,2017-12-18 4:13:23
Trade,880.20697847,XEM,0.81844968,ETH,Bittrex,,,,2017-12-17 19:04:39
Trade,1.13999999,ETH,15.00000000,NEO,Bittrex,,,,2017-12-17 7:28:30
Trade,0.72719431,ETH,9.56834627,NEO,Bittrex,,,,2017-12-17 7:10:04
Trade,0.15012907,ETH,0.10008401,DASH,Bittrex,,,,2017-12-17 7:04:49
Trade,2.02162465,NEO,0.00517940,BTC,Bittrex,,,,2017-12-16 18:24:08
Trade,322.06990380,NEO,0.82482097,BTC,Bittrex,,,,2017-12-16 18:12:59
Trade,0.86792919,BTC,2799771.66650480,DOGE,Bittrex,,,,2017-12-16 17:39:59
Trade,5.18074737,ETH,0.20748926,BTC,Bittrex,,,,2017-12-16 2:00:21
Trade,11.87578900,ETH,791675.37500000,SC,Bittrex,,,,2017-12-16 1:44:43
Trade,0.30314286,ETH,0.69999998,LTC,Bittrex,,,,2017-12-16 1:34:25
Trade,0.64349004,ETH,0.49960407,DASH,Bittrex,,,,2017-12-16 1:30:26
Trade,9.06033737,NEO,0.02094749,BTC,Bittrex,,,,2017-12-13 1:47:32
Trade,0.02099969,BTC,945.08074361,XRP,Bittrex,,,,2017-12-13 1:43:36
Trade,46.88717097,ETH,1.67844659,BTC,Bittrex,,,,2017-12-12 20:19:48
Trade,0.18754884,BTC,2.06779329,BCC,Bittrex,,,,2017-12-12 20:02:04
Trade,0.39520423,BTC,1143.49772727,MTL,Bittrex,,,,2017-12-12 19:59:40
Trade,0.86331490,ETH,0.02702175,BTC,Bittrex,,,,2017-12-12 12:03:22
Trade,0.00458388,BTC,0.10076488,DASH,Bittrex,,,,2017-12-12 12:00:15
Trade,1.10423154,BTC,6495481.00000000,DOGE,Bittrex,,,,2017-12-12 13:15:23
Trade,0.00434658,BTC,0.09968545,DASH,Bittrex,,,,2017-12-11 2:09:13
Trade,88.53578438,STORJ,0.00495800,BTC,Bittrex,,,,2017-12-10 6:43:42
Trade,0.00498280,BTC,0.09965601,DASH,Bittrex,,,,2017-12-10 6:41:47
Trade,160.87163438,STORJ,0.00900880,BTC,Bittrex,,,,2017-12-10 6:38:16
Trade,0.00904457,BTC,376.54358942,SPR,Bittrex,,,,2017-12-10 4:10:24
Trade,190.07209038,SPR,0.00493251,BTC,Bittrex,,,,2017-12-9 20:41:37
Trade,186.47149904,SPR,0.00484825,BTC,Bittrex,,,,2017-12-9 20:20:49
Trade,0.00487254,BTC,0.50000000,LTC,Bittrex,,,,2017-12-9 18:53:48
Trade,10.86156388,DASH,0.52867499,BTC,Bittrex,,,,2017-12-8 17:50:50
Trade,0.52992186,BTC,1039062.50000000,XVG,Bittrex,,,,2017-12-8 17:48:32
Trade,1143.49772727,MTL,0.37709468,BTC,Bittrex,,,,2017-12-8 15:52:38
Trade,0.38013253,BTC,43901.66008425,SNGLS,Bittrex,,,,2017-12-8 15:42:44
Trade,6.23113568,ETH,0.17159220,BTC,Bittrex,,,,2017-12-7 20:21:12
Trade,0.17245882,BTC,3444.35443138,TKN,Bittrex,,,,2017-12-7 20:13:06
Trade,3.05606140,ETH,0.09417949,BTC,Bittrex,,,,2017-12-7 3:09:04
Trade,4.22129030,ETH,0.13043781,BTC,Bittrex,,,,2017-12-7 3:05:07
Trade,0.22574316,BTC,364.63121851,LSK,Bittrex,,,,2017-12-7 3:08:37
Trade,945.08074361,XRP,201.11317278,USDT,Bittrex,,,,2017-12-7 2:50:26
Trade,3.26885140,ETH,0.09962595,BTC,Bittrex,,,,2017-12-7 2:16:31
Trade,51.07014900,USDT,0.03510000,BCC,Bittrex,,,,2017-12-6 4:06:05
Trade,0.03512299,BCC,49.87499702,USDT,Bittrex,,,,2017-12-5 23:46:43
Trade,0.79725202,BCC,0.09036155,BTC,Bittrex,,,,2017-12-6 6:22:49
Trade,0.68973773,BCC,0.07979999,BTC,Bittrex,,,,2017-12-6 3:01:52
Trade,0.16420740,BCC,0.01995000,BTC,Bittrex,,,,2017-12-5 23:46:38
Trade,0.08013236,BCC,0.00997500,BTC,Bittrex,,,,2017-12-5 22:15:23
Trade,1.27190449,ETH,0.04987499,BTC,Bittrex,,,,2017-12-5 0:26:24
Trade,0.01014602,BTC,3.95069845,ETC,Bittrex,,,,2017-12-4 8:00:12
Trade,174.68808500,USDT,0.38733500,ETH,Bittrex,,,,2017-12-3 22:17:08
Trade,0.05618991,ETH,24.93750043,USDT,Bittrex,,,,2017-12-3 22:08:12
Trade,0.09736180,BTC,43660.00923932,ADT,Bittrex,,,,2017-12-5 1:52:56
Trade,0.00675881,BTC,18.49301835,SPHR,Bittrex,,,,2017-12-2 23:08:30
Trade,0.00330620,BTC,8.93644873,SPHR,Bittrex,,,,2017-12-2 22:05:05
Trade,27.42946708,SPHR,0.00997499,BTC,Bittrex,,,,2017-12-2 21:36:54
Trade,0.05194735,BTC,577.25694444,TRIG,Bittrex,,,,2017-12-2 6:15:16
Trade,1834.13682403,TKN,0.19949896,BTC,Bittrex,,,,2017-12-2 3:41:47
Trade,411.37594400,TKN,0.04987521,BTC,Bittrex,,,,2017-12-2 3:26:28
Trade,652.65558645,TKN,0.08190827,BTC,Bittrex,,,,2017-12-2 3:24:04
Trade,314.29696731,TKN,0.03990000,BTC,Bittrex,,,,2017-12-2 3:13:45
Trade,155.44647031,TKN,0.01994998,BTC,Bittrex,,,,2017-12-2 3:13:11
Trade,76.44263928,TKN,0.00997499,BTC,Bittrex,,,,2017-12-2 3:11:19
Trade,577.25694444,TRIG,0.04987499,BTC,Bittrex,,,,2017-12-2 2:36:09
Trade,0.22885480,BTC,78.91545041,OMNI,Bittrex,,,,2017-12-2 12:14:49
Trade,26.27249294,OMNI,0.07481249,BTC,Bittrex,,,,2017-12-1 23:07:49
Trade,35.34626942,OMNI,0.09975000,BTC,Bittrex,,,,2017-12-1 23:08:28
Trade,17.29668805,OMNI,0.04987499,BTC,Bittrex,,,,2017-12-1 22:42:06
Trade,0.07485023,BTC,29940.10072427,FUN,Bittrex,,,,2017-12-1 22:38:07
Trade,0.00122778,BTC,6.00000000,TKS,Bittrex,,,,2017-12-1 21:22:30
Trade,6.00000000,TKS,0.00119958,BTC,Bittrex,,,,2017-12-1 21:21:04
Trade,20357.14285714,FUN,0.04987499,BTC,Bittrex,,,,2017-12-1 22:15:27
Trade,0.02633614,BTC,10287.56006116,FUN,Bittrex,,,,2017-12-1 22:25:27
Trade,19870.51792829,FUN,0.04987498,BTC,Bittrex,,,,2017-12-1 20:19:19
Trade,0.10899758,BTC,53.91862747,XCP,Bittrex,,,,2017-12-1 1:13:17
Trade,53.91862747,XCP,0.09975000,BTC,Bittrex,,,,2017-12-1 1:05:35
Trade,0.33521987,BTC,4611.00277726,EDG,Bittrex,,,,2017-11-30 23:03:03
Trade,0.09548702,BTC,1312.53662652,EDG,Bittrex,,,,2017-11-30 21:51:16
Trade,0.09379244,BTC,76.55528097,QTUM,Bittrex,,,,2017-11-30 21:03:25
Trade,0.05522427,BTC,763.89110846,EDG,Bittrex,,,,2017-11-30 20:48:24
Trade,0.00101634,BTC,477.15890227,ADT,Bittrex,,,,2017-12-2 22:16:03
Trade,0.10025125,BTC,311.33930522,ARK,Bittrex,,,,2017-11-30 19:39:24
Trade,0.04159340,BTC,346611.71562500,RDD,Bittrex,,,,2017-12-4 6:45:01
Trade,0.04967368,BTC,59.20935478,OMG,Bittrex,,,,2017-11-29 20:01:49
Trade,44.03539563,USDT,0.00479971,BTC,Bittrex,,,,2017-11-29 19:42:00
Trade,0.00162621,BTC,14.96275821,USDT,Bittrex,,,,2017-11-29 19:35:14
Trade,0.00317350,BTC,27.92997350,USDT,Bittrex,,,,2017-11-29 19:38:34
Trade,20.54911674,USDT,0.00207854,BTC,Bittrex,,,,2017-11-29 19:21:11
Trade,0.00207784,BTC,19.95001567,USDT,Bittrex,,,,2017-11-29 19:17:56
Trade,59.20935478,OMG,0.04953099,BTC,Bittrex,,,,2017-11-29 7:05:08
Trade,44137.16814159,ADT,0.09810407,BTC,Bittrex,,,,2017-11-29 6:56:05
Trade,76.55528097,QTUM,0.09970728,BTC,Bittrex,,,,2017-11-29 6:53:12
Trade,0.00379941,BTC,581.83990395,BAY,Bittrex,,,,2017-11-29 6:33:17
Trade,2744.15405777,EDG,0.19949999,BTC,Bittrex,,,,2017-11-29 6:30:40
Trade,0.23625072,BTC,1.60829109,BCC,Bittrex,,,,2017-11-29 6:18:47
Trade,0.10117592,BTC,2.24195190,ETH,Bittrex,,,,2017-11-29 5:56:41
Trade,0.10199659,BTC,44.34653875,BLOCK,Bittrex,,,,2017-11-29 6:11:37
Trade,0.06610979,BTC,37.75049408,NMR,Bittrex,,,,2017-11-29 5:11:59
Trade,37.75049408,NMR,0.06553863,BTC,Bittrex,,,,2017-11-29 5:01:17
Trade,0.06586690,BTC,9643.76493301,BAY,Bittrex,,,,2017-11-29 4:46:45
Trade,10225.60483696,BAY,0.06585288,BTC,Bittrex,,,,2017-11-29 4:13:23
Trade,44.34653875,BLOCK,0.09975000,BTC,Bittrex,,,,2017-11-29 5:05:40
Trade,2682.53327955,EDG,0.19950000,BTC,Bittrex,,,,2017-11-29 5:37:05
Trade,0.72738001,BCC,0.09965108,BTC,Bittrex,,,,2017-11-29 3:37:03
Trade,311.33930522,ARK,0.09974999,BTC,Bittrex,,,,2017-11-29 3:39:48
Trade,0.04940131,BTC,145.29802482,ARK,Bittrex,,,,2017-11-29 2:38:38
Trade,0.10119940,BTC,297.61904762,ARK,Bittrex,,,,2017-11-29 2:37:00
Trade,0.34859140,BCC,0.04987500,BTC,Bittrex,,,,2017-11-29 2:57:07
Trade,0.05027588,BTC,2358.15602837,MER,Bittrex,,,,2017-11-29 1:30:10
Trade,297.61904762,ARK,0.09975000,BTC,Bittrex,,,,2017-11-29 2:35:45
Trade,145.29802482,ARK,0.04953064,BTC,Bittrex,,,,2017-11-29 12:56:34
Trade,0.10585205,BTC,12453.18352060,VOX,Bittrex,,,,2017-11-29 12:12:23
Trade,12453.18352060,VOX,0.09974999,BTC,Bittrex,,,,2017-11-29 12:10:50
Trade,0.22312269,BTC,2888.69374696,DCT,Bittrex,,,,2017-11-28 23:55:27
Trade,0.04899879,BTC,621.41789185,DCT,Bittrex,,,,2017-11-29 12:05:07
Trade,0.31229625,BTC,4007.90900350,DCT,Bittrex,,,,2017-11-28 23:57:34
Trade,621.41789185,DCT,0.04878130,BTC,Bittrex,,,,2017-11-28 23:40:21
Trade,2695.58167815,DCT,0.19949999,BTC,Bittrex,,,,2017-11-28 23:41:58
Trade,1312.32732535,DCT,0.09974999,BTC,Bittrex,,,,2017-11-28 23:41:57
Trade,0.09943511,BTC,276.21632099,IOC,Bittrex,,,,2017-11-28 23:30:15
Trade,0.13002640,BTC,260.41218153,PIVX,Bittrex,,,,2017-11-28 8:36:40
Trade,86.82113621,PIVX,0.04698238,BTC,Bittrex,,,,2017-11-28 8:09:01
Trade,173.59104532,PIVX,0.08682676,BTC,Bittrex,,,,2017-11-28 8:11:40
Trade,0.73097274,BTC,1245.18003676,PIVX,Bittrex,,,,2017-11-28 7:44:50
Trade,276.21632099,IOC,0.09974999,BTC,Bittrex,,,,2017-11-28 18:28:29
Trade,0.12619493,BTC,732.41407580,SWT,Bittrex,,,,2017-11-28 2:26:43
Trade,0.02064000,BTC,120.00000000,SWT,Bittrex,,,,2017-11-28 2:18:20
Trade,0.09097765,BTC,8884.53788971,PDC,Bittrex,,,,2017-11-28 2:02:33
Trade,0.05130648,BTC,135.04906467,IOC,Bittrex,,,,2017-11-28 2:03:02
Trade,8884.53788971,PDC,0.09062228,BTC,Bittrex,,,,2017-11-28 1:24:45
Trade,644.71635384,SWT,0.11221932,BTC,Bittrex,,,,2017-11-28 12:36:48
Trade,207.69772196,SWT,0.03740635,BTC,Bittrex,,,,2017-11-28 12:18:19
Trade,135.04906467,IOC,0.04987496,BTC,Bittrex,,,,2017-11-28 1:38:00
Trade,0.09944205,BTC,254.98616307,IOC,Bittrex,,,,2017-11-27 22:22:34
Trade,254.98616307,IOC,0.09584419,BTC,Bittrex,,,,2017-11-27 22:15:47
Trade,0.09632477,BTC,722.83340175,TRIG,Bittrex,,,,2017-11-27 21:55:59
Trade,722.83340175,TRIG,0.09254436,BTC,Bittrex,,,,2017-11-27 21:39:35
Trade,346611.71562500,RDD,0.04159338,BTC,Bittrex,,,,2017-11-29 6:54:28
Trade,0.04226956,BTC,1408.98549415,XEL,Bittrex,,,,2017-11-27 18:31:18
Trade,1408.98549415,XEL,0.03735220,BTC,Bittrex,,,,2017-11-27 18:13:34
Trade,0.08160234,BTC,218.30488180,DYN,Bittrex,,,,2017-11-27 18:27:05
Trade,0.02272289,BTC,60.73043374,DYN,Bittrex,,,,2017-11-27 17:52:12
Trade,0.10806791,BTC,71.80592204,QTUM,Bittrex,,,,2017-11-27 17:55:38
Trade,279.03531554,DYN,0.10200694,BTC,Bittrex,,,,2017-11-27 3:58:00
Trade,71.80592204,QTUM,0.10770960,BTC,Bittrex,,,,2017-11-27 1:44:41
Trade,0.20332682,BTC,7666.92404977,XRP,Bittrex,,,,2017-11-26 22:11:56
Trade,0.10808799,BTC,1.59550397,DASH,Bittrex,,,,2017-11-26 21:13:54
Trade,1.59550397,DASH,0.10530291,BTC,Bittrex,,,,2017-11-26 17:06:18
Trade,0.20820615,BTC,8011.01165751,AMP,Bittrex,,,,2017-11-26 13:04:53
Trade,2825.04606702,AMP,0.06638858,BTC,Bittrex,,,,2017-11-26 9:31:19
Trade,3612.95395714,AMP,0.08851737,BTC,Bittrex,,,,2017-11-26 7:22:23
Trade,1573.01163335,AMP,0.03934101,BTC,Bittrex,,,,2017-11-26 6:07:04
Trade,0.03955282,BTC,4.13793511,LTC,Bittrex,,,,2017-11-26 5:48:42
Trade,4.13793511,LTC,0.03927632,BTC,Bittrex,,,,2017-11-26 5:11:54
Trade,0.02057455,BTC,3674.02755767,VOX,Bittrex,,,,2017-11-24 1:43:24
Trade,3674.02755767,VOX,0.02020715,BTC,Bittrex,,,,2017-11-24 1:24:17
Trade,0.28909520,BTC,298.33463333,LSK,Bittrex,,,,2017-11-22 19:50:56
Trade,104.75384903,LSK,0.10475384,BTC,Bittrex,,,,2017-11-22 19:40:10
Trade,286.99170350,LSK,0.29703641,BTC,Bittrex,,,,2017-11-22 19:39:36
Trade,121.54717050,LSK,0.13302000,BTC,Bittrex,,,,2017-11-22 19:38:55
Trade,88.27433628,LSK,0.09974823,BTC,Bittrex,,,,2017-11-22 19:38:32
Trade,61.39879253,LSK,0.07030345,BTC,Bittrex,,,,2017-11-22 19:37:39
Trade,0.36326269,BTC,305.26276661,LSK,Bittrex,,,,2017-11-22 19:20:38
Trade,151.95350927,LSK,0.17170746,BTC,Bittrex,,,,2017-11-22 18:49:37
Trade,153.30925734,LSK,0.17170636,BTC,Bittrex,,,,2017-11-22 18:50:16
Trade,0.07096259,BTC,1.36466535,BTG,Bittrex,,,,2017-11-20 22:03:06
Trade,1245.18003676,PIVX,0.44093420,BTC,Bittrex,,,,2017-11-20 21:01:01
Trade,85256.41025641,LMC,0.49874999,BTC,Bittrex,,,,2017-11-20 20:04:46
Trade,0.94550657,BTC,35205.95613279,INCNT,Bittrex,,,,2017-11-20 18:07:25
Trade,0.13258540,BTC,736585.56794118,DOGE,Bittrex,,,,2017-11-22 9:14:32
Trade,736585.56794118,DOGE,0.12521954,BTC,Bittrex,,,,2017-11-18 22:51:43
Trade,112478.86279412,DOGE,0.01912140,BTC,Bittrex,,,,2017-11-18 22:49:56
Trade,0.49798413,BTC,24899.20671405,POT,Bittrex,,,,2017-11-20 22:03:33
Trade,1.00000000,ETH,0.04572196,BTC,Bittrex,,,,2017-11-15 23:54:14
Trade,0.97097178,BTC,143847.67901572,LMC,Bittrex,,,,2017-11-15 22:49:33
Trade,326.81861758,POT,0.00607555,BTC,Bittrex,,,,2017-11-15 3:47:54
Trade,24572.38809647,POT,0.46758837,BTC,Bittrex,,,,2017-11-15 3:43:13
Trade,158342.04166667,SC,0.09975547,BTC,Bittrex,,,,2017-11-15 12:03:01
Trade,633333.33333333,SC,0.39899997,BTC,Bittrex,,,,2017-11-14 23:56:29
Trade,0.97738688,BTC,14500.00000000,VRC,Bittrex,,,,2017-11-14 21:38:40
Trade,5.57440298,ETH,0.27827411,BTC,Bittrex,,,,2017-11-14 20:41:18
Trade,0.27965735,BTC,1553652.15670599,DOGE,Bittrex,,,,2017-11-14 20:38:10
Trade,11677956.49416667,DOGE,2.10203208,BTC,Bittrex,,,,2017-11-13 17:16:14
Trade,0.22621797,BTC,68.55090490,TIME,Bittrex,,,,2017-11-13 7:45:27
Trade,0.44032143,BTC,133.43073857,TIME,Bittrex,,,,2017-11-13 4:26:04
Trade,1.05412471,BTC,50679.07394112,POT,Bittrex,,,,2017-11-13 9:03:23
Trade,0.39191765,BTC,119.48710622,TIME,Bittrex,,,,2017-11-13 3:43:39
Trade,12293.79958333,DOGE,0.00221288,BTC,Bittrex,,,,2017-11-12 16:52:58
Trade,0.00222396,BTC,0.70897427,TIME,Bittrex,,,,2017-11-12 8:18:29
Trade,55.50623810,SNGLS,0.00122391,BTC,Bittrex,,,,2017-11-12 1:40:11
Trade,30968.80484328,LMC,0.20626846,BTC,Bittrex,,,,2017-11-11 19:52:29
Trade,45417.55710691,LMC,0.30066421,BTC,Bittrex,,,,2017-11-11 19:41:13
Trade,23665.50726538,LMC,0.15621807,BTC,Bittrex,,,,2017-11-11 19:38:00
Trade,15545.07441732,LMC,0.10174341,BTC,Bittrex,,,,2017-11-11 19:37:15
Trade,1168.86878017,INCNT,0.03389166,BTC,Bittrex,,,,2017-11-11 19:22:17
Trade,1849.92206843,INCNT,0.05309274,BTC,Bittrex,,,,2017-11-11 19:20:11
Trade,13105.02926939,LMC,0.08452740,BTC,Bittrex,,,,2017-11-11 19:23:46
Trade,28948.88632889,INCNT,0.81925346,BTC,Bittrex,,,,2017-11-11 19:11:01
Trade,14945.70611344,LMC,0.09550306,BTC,Bittrex,,,,2017-11-11 19:07:20
Trade,2238.27895530,INCNT,0.06334329,BTC,Bittrex,,,,2017-11-11 18:52:59
Trade,200.00000000,LMC,0.00127000,BTC,Bittrex,,,,2017-11-11 18:55:20
Trade,1571.67077941,POT,0.03206208,BTC,Bittrex,,,,2017-11-11 18:43:46
Trade,2286.23685413,POT,0.04643347,BTC,Bittrex,,,,2017-11-11 18:43:40
Trade,50.00000000,POT,0.00101600,BTC,Bittrex,,,,2017-11-11 18:42:31
Trade,20849.14331630,POT,0.42323759,BTC,Bittrex,,,,2017-11-11 18:41:42
Trade,43846.15384615,SNGLS,0.99749995,BTC,Bittrex,,,,2017-11-11 18:00:31
Trade,5541666.66666667,DOGE,0.99750000,BTC,Bittrex,,,,2017-11-11 20:24:22
Trade,315.81553398,TIME,1.02614764,BTC,Bittrex,,,,2017-11-11 16:32:22
Trade,0.35141252,TIME,0.00109640,BTC,Bittrex,,,,2017-11-11 16:32:18
Trade,6.01077746,TIME,0.01821566,BTC,Bittrex,,,,2017-11-11 16:30:20
Trade,1039062.50000000,XVG,0.99749999,BTC,Bittrex,,,,2017-11-11 16:11:30
Trade,25922.02299128,POT,0.50210956,BTC,Bittrex,,,,2017-11-11 18:05:52
Trade,14500.00000000,VRC,1.00049999,BTC,Bittrex,,,,2017-11-11 15:39:18
Trade,8.02905838,BTC,259085.46770494,XRP,Bittrex,,,,2017-11-11 6:22:18
Trade,21277.28714658,XRP,0.65321271,BTC,Bittrex,,,,2017-11-11 3:11:26
Trade,61173.57169513,XRP,1.87464397,BTC,Bittrex,,,,2017-11-11 3:11:17
Trade,176634.60886323,XRP,5.40126427,BTC,Bittrex,,,,2017-11-11 3:10:04
Trade,3.38163641,BTC,782.63384623,NEO,Bittrex,,,,2017-11-11 3:04:40
Trade,0.96352923,BTC,222.06809937,NEO,Bittrex,,,,2017-11-11 3:00:24
Trade,0.44193830,BTC,101.78009495,NEO,Bittrex,,,,2017-11-11 2:59:43
Trade,1.78492878,BTC,411.09433510,NEO,Bittrex,,,,2017-11-11 2:59:23
Trade,0.60082453,BTC,138.36933155,NEO,Bittrex,,,,2017-11-11 2:59:04
Trade,0.12355926,BTC,28.45545420,NEO,Bittrex,,,,2017-11-11 2:58:44
Trade,0.06788176,BTC,15.59883860,NEO,Bittrex,,,,2017-11-11 2:58:13
Trade,0.05829576,BTC,76.59957349,LUN,Bittrex,,,,2017-11-11 2:57:06
Trade,0.13791193,BTC,181.08579171,LUN,Bittrex,,,,2017-11-11 2:56:33
Trade,0.03505603,BTC,45.88608517,LUN,Bittrex,,,,2017-11-11 2:55:35
Trade,0.13195191,BTC,172.70989759,LUN,Bittrex,,,,2017-11-11 2:54:47
Trade,0.04303099,BTC,56.24262161,LUN,Bittrex,,,,2017-11-11 2:53:44
Trade,0.04604902,BTC,59.80386423,LUN,Bittrex,,,,2017-11-11 2:52:06
Trade,0.00090533,BTC,1.17052158,LUN,Bittrex,,,,2017-11-11 2:51:22
Trade,0.00640077,BTC,8.27026781,LUN,Bittrex,,,,2017-11-11 2:50:27
Trade,0.03487500,BTC,45.00000000,LUN,Bittrex,,,,2017-11-11 2:49:17
Trade,0.00870356,BTC,11.20409690,LUN,Bittrex,,,,2017-11-11 2:47:27
Trade,0.00296749,BTC,3.82000000,LUN,Bittrex,,,,2017-11-11 2:47:14
Trade,0.09564095,BTC,121.99568463,LUN,Bittrex,,,,2017-11-11 2:44:27
Trade,305.30526211,LUN,0.35659654,BTC,Bittrex,,,,2017-11-10 22:14:40
Trade,478.48314261,LUN,0.54032058,BTC,Bittrex,,,,2017-11-10 22:13:44
Trade,0.43254460,BTC,101.00000000,NEO,Bittrex,,,,2017-11-10 20:56:01
Trade,0.38171991,BTC,117.40565441,BLOCK,Bittrex,,,,2017-11-10 20:54:54
Trade,0.04853548,BTC,14.93227175,BLOCK,Bittrex,,,,2017-11-10 20:53:06
Trade,0.02992498,BTC,9.20696990,BLOCK,Bittrex,,,,2017-11-10 20:52:40
Trade,0.01146348,BTC,3.47391078,BLOCK,Bittrex,,,,2017-11-10 20:52:16
Trade,145.01880684,BLOCK,0.58007232,BTC,Bittrex,,,,2017-11-10 18:19:39
Trade,0.58298287,BTC,12.95517497,ETH,Bittrex,,,,2017-11-10 18:06:57
Trade,12.71135836,ETH,0.56565542,BTC,Bittrex,,,,2017-11-10 17:33:24
Trade,0.24381661,ETH,0.01094282,BTC,Bittrex,,,,2017-11-10 17:19:45
Trade,0.32727257,BTC,91.32690549,BLOCK,Bittrex,,,,2017-11-10 15:21:05
Trade,0.25221676,BTC,70.25536669,BLOCK,Bittrex,,,,2017-11-10 15:20:06
Trade,110.13680769,BLOCK,0.42622944,BTC,Bittrex,,,,2017-11-10 1:10:11
Trade,51.44546449,BLOCK,0.20599484,BTC,Bittrex,,,,2017-11-9 21:04:05
Trade,0.20702740,BTC,59.16133714,BLOCK,Bittrex,,,,2017-11-9 4:31:45
Trade,57.10709357,BLOCK,0.19872068,BTC,Bittrex,,,,2017-11-8 19:36:41
Trade,1.39187448,BLOCK,0.00478804,BTC,Bittrex,,,,2017-11-8 19:35:41
Trade,0.66236909,BLOCK,0.00229564,BTC,Bittrex,,,,2017-11-8 19:34:03
Trade,0.20640470,BTC,49.23136643,NEO,Bittrex,,,,2017-11-8 19:18:41
Trade,1567.38907291,NEO,7.01410288,BTC,Bittrex,,,,2017-11-8 18:24:11
Trade,282.89229352,NEO,1.24972479,BTC,Bittrex,,,,2017-11-8 18:23:17
Trade,0.12152997,BTC,1.50000000,BCC,Bittrex,,,,2017-10-29 18:07:56
Trade,0.13994362,BTC,14.77648255,LTC,Bittrex,,,,2017-10-28 1:58:22
Trade,0.00211579,BTC,0.22329145,LTC,Bittrex,,,,2017-10-28 1:54:13
Trade,0.05071285,BTC,1.00033844,ETH,Bittrex,,,,2017-10-28 1:49:13
Trade,0.37792519,BTC,71.00000000,NEO,Bittrex,,,,2017-10-25 3:57:20
Trade,0.16253257,BTC,110.00440000,DMD,Bittrex,,,,2017-10-25 5:01:22
Trade,2.33386388,BTC,230.77859692,LTC,Bittrex,,,,2017-10-24 23:30:14
Trade,3.07252852,BTC,57.11030362,ETH,Bittrex,,,,2017-10-24 23:36:21
Trade,0.00008801,BTC,0.47551803,USDT,Bittrex,,,,2017-10-18 19:40:51
Trade,11.50000000,DMD,0.01474047,BTC,Bittrex,,,,2017-10-18 19:14:22
Trade,0.05312670,DMD,0.00006639,BTC,Bittrex,,,,2017-10-18 19:12:31
Trade,2.92668095,DMD,0.00365088,BTC,Bittrex,,,,2017-10-18 19:05:30
Trade,95.52877254,DMD,0.11750516,BTC,Bittrex,,,,2017-10-18 18:46:59
Trade,0.13673922,BTC,743.04862157,USDT,Bittrex,,,,2017-10-18 18:25:32
Trade,5.59170698,USDT,0.18884522,NEO,Bittrex,,,,2017-10-18 18:13:42
Trade,139.73638551,USDT,0.62670000,ZEC,Bittrex,,,,2017-10-18 18:20:39
Trade,601.92299973,USDT,1.99642786,ETH,Bittrex,,,,2017-10-18 18:09:01
Trade,225.41116352,LTC,2.99884979,BTC,Bittrex,,,,2017-9-22 21:01:59
Trade,0.46156488,BTC,9255.36202700,XRP,Bittrex,,,,2017-9-2 22:45:43
Trade,121.21384522,NEO,16.30309431,ETH,Bittrex,,,,2017-8-20 16:46:05
Trade,0.07427425,BTC,1.09226886,DASH,Bittrex,,,,2017-11-24 10:35:05
Trade,1.09226886,DASH,0.07197925,BTC,Bittrex,,,,2017-11-24 8:15:04