Deposit,5.0,ETH,,,,,Bittrex,,,2018-02-28 19:35:16
Deposit,3.0034776,BCC,,,,,Bittrex,,,2018-02-09 00:29:30
Deposit,0.0995734,DASH,,,,,Bittrex,,,2018-02-08 15:25:08
Deposit,0.2,LTC,,,,,Bittrex,,,2018-02-07 15:36:11
Deposit,0.10163371,DASH,,,,,Bittrex,,,2018-02-07 13:38:51
Deposit,0.09914695,DASH,,,,,Bittrex,,,2018-02-06 13:58:11
Deposit,0.2,LTC,,,,,Bittrex,,,2018-02-05 22:20:44
Deposit,0.10180892,DASH,,,,,Bittrex,,,2018-02-05 18:55:52
Deposit,0.10190537,DASH,,,,,Bittrex,,,2018-02-04 15:00:03
Deposit,0.2,LTC,,,,,Bittrex,,,2018-02-04 07:30:56
Deposit,0.09912035,DASH,,,,,Bittrex,,,2018-02-03 12:29:55
Deposit,0.09934096,DASH,,,,,Bittrex,,,2018-02-02 18:46:04
Deposit,0.2,LTC,,,,,Bittrex,,,2018-02-02 16:28:30
Deposit,0.09952923,DASH,,,,,Bittrex,,,2018-02-01 22:53:50
Deposit,0.2,LTC,,,,,Bittrex,,,2018-02-01 01:22:31
Deposit,0.10106572,DASH,,,,,Bittrex,,,2018-02-01 00:08:43
Deposit,0.10152128,DASH,,,,,Bittrex,,,2018-01-30 19:22:03
Deposit,0.2,LTC,,,,,Bittrex,,,2018-01-30 12:38:55
Deposit,0.09975492,DASH,,,,,Bittrex,,,2018-01-29 21:49:01
Deposit,0.2,LTC,,,,,Bittrex,,,2018-01-28 23:24:56
Deposit,0.09917707,DASH,,,,,Bittrex,,,2018-01-28 21:44:37
Deposit,0.10022657,DASH,,,,,Bittrex,,,2018-01-28 03:43:05
Deposit,0.2,LTC,,,,,Bittrex,,,2018-01-27 12:20:56
Deposit,0.10131977,DASH,,,,,Bittrex,,,2018-01-27 08:24:49
Deposit,0.09952701,DASH,,,,,Bittrex,,,2018-01-26 16:16:10
Deposit,0.2,LTC,,,,,Bittrex,,,2018-01-26 01:19:03
Deposit,0.10160821,DASH,,,,,Bittrex,,,2018-01-25 19:42:26
Deposit,0.10177088,DASH,,,,,Bittrex,,,2018-01-24 18:41:34
Deposit,0.2,LTC,,,,,Bittrex,,,2018-01-24 15:18:55
Deposit,0.10487797,DASH,,,,,Bittrex,,,2018-01-24 05:41:32
Deposit,0.1021689,DASH,,,,,Bittrex,,,2018-01-23 11:54:57
Deposit,0.2,LTC,,,,,Bittrex,,,2018-01-23 04:28:12
Deposit,0.10171343,DASH,,,,,Bittrex,,,2018-01-22 12:33:35
Deposit,0.2,LTC,,,,,Bittrex,,,2018-01-21 17:24:14
Deposit,0.10452098,DASH,,,,,Bittrex,,,2018-01-21 14:53:46
Deposit,0.09944065,DASH,,,,,Bittrex,,,2018-01-20 21:41:32
Deposit,0.2,LTC,,,,,Bittrex,,,2018-01-20 07:22:07
Deposit,0.10023309,DASH,,,,,Bittrex,,,2018-01-20 03:51:04
Deposit,0.09925325,DASH,,,,,Bittrex,,,2018-01-19 07:32:02
Deposit,0.2,LTC,,,,,Bittrex,,,2018-01-18 21:14:34
Deposit,0.10093065,DASH,,,,,Bittrex,,,2018-01-18 15:02:57
Deposit,0.09993066,DASH,,,,,Bittrex,,,2018-01-17 22:04:41
Deposit,0.2,LTC,,,,,Bittrex,,,2018-01-17 12:23:25
Deposit,0.10460771,DASH,,,,,Bittrex,,,2018-01-17 01:00:37
Deposit,0.2,LTC,,,,,Bittrex,,,2018-01-16 03:18:46
Deposit,0.1010711,DASH,,,,,Bittrex,,,2018-01-16 00:09:01
Deposit,0.10047861,DASH,,,,,Bittrex,,,2018-01-15 03:06:35
Deposit,0.2,LTC,,,,,Bittrex,,,2018-01-14 18:27:01
Deposit,0.1012896,DASH,,,,,Bittrex,,,2018-01-14 06:11:12
Deposit,0.1022517,DASH,,,,,Bittrex,,,2018-01-13 17:39:14
Deposit,0.2,LTC,,,,,Bittrex,,,2018-01-13 09:19:54
Deposit,0.10137742,DASH,,,,,Bittrex,,,2018-01-12 19:05:24
Deposit,0.2,LTC,,,,,Bittrex,,,2018-01-12 00:27:13
Deposit,0.10095687,DASH,,,,,Bittrex,,,2018-01-11 22:22:01
Deposit,0.09966354,DASH,,,,,Bittrex,,,2018-01-11 01:20:02
Deposit,0.2,LTC,,,,,Bittrex,,,2018-01-10 15:28:28
Deposit,0.09985614,DASH,,,,,Bittrex,,,2018-01-10 04:49:16
Deposit,0.10121703,DASH,,,,,Bittrex,,,2018-01-09 08:49:56
Deposit,0.2,LTC,,,,,Bittrex,,,2018-01-09 04:34:03
Deposit,0.0998151,DASH,,,,,Bittrex,,,2018-01-08 14:34:06
Deposit,85808.310056,LMC,,,,,Bittrex,,,2018-01-08 07:48:53
Deposit,100.0,LMC,,,,,Bittrex,,,2018-01-08 07:48:53
Deposit,0.2,LTC,,,,,Bittrex,,,2018-01-07 18:20:18
Deposit,0.09948496,DASH,,,,,Bittrex,,,2018-01-07 16:47:58
Deposit,0.10077794,DASH,,,,,Bittrex,,,2018-01-06 12:48:23
Deposit,0.2,LTC,,,,,Bittrex,,,2018-01-06 07:23:10
Deposit,0.10027804,DASH,,,,,Bittrex,,,2018-01-04 23:46:59
Deposit,0.2,LTC,,,,,Bittrex,,,2018-01-04 19:27:56
Deposit,0.10198449,DASH,,,,,Bittrex,,,2018-01-04 11:51:46
Deposit,0.10309823,DASH,,,,,Bittrex,,,2018-01-03 20:12:44
Deposit,0.2,LTC,,,,,Bittrex,,,2018-01-03 07:20:39
Deposit,0.1025518,DASH,,,,,Bittrex,,,2018-01-02 23:55:39
Deposit,0.09945717,DASH,,,,,Bittrex,,,2018-01-02 07:03:35
Deposit,0.2,LTC,,,,,Bittrex,,,2018-01-01 19:20:37
Deposit,0.10166433,DASH,,,,,Bittrex,,,2018-01-01 07:05:46
Deposit,0.10148245,DASH,,,,,Bittrex,,,2017-12-31 09:42:58
Deposit,0.2,LTC,,,,,Bittrex,,,2017-12-31 08:28:28
Deposit,0.101143,DASH,,,,,Bittrex,,,2017-12-30 14:21:16
Deposit,0.2,LTC,,,,,Bittrex,,,2017-12-29 20:20:11
Deposit,0.09911372,DASH,,,,,Bittrex,,,2017-12-29 12:53:43
Deposit,0.10080194,DASH,,,,,Bittrex,,,2017-12-28 12:31:50
Deposit,0.2,LTC,,,,,Bittrex,,,2017-12-28 10:30:12
Deposit,0.10164407,DASH,,,,,Bittrex,,,2017-12-27 10:45:02
Deposit,0.2,LTC,,,,,Bittrex,,,2017-12-27 00:21:25
Deposit,0.10117789,DASH,,,,,Bittrex,,,2017-12-26 11:37:32
Deposit,0.2,LTC,,,,,Bittrex,,,2017-12-25 14:24:48
Deposit,0.10214535,DASH,,,,,Bittrex,,,2017-12-25 08:29:22
Deposit,0.09974636,DASH,,,,,Bittrex,,,2017-12-24 08:51:35
Deposit,0.2,LTC,,,,,Bittrex,,,2017-12-24 05:19:06
Deposit,0.09933945,DASH,,,,,Bittrex,,,2017-12-23 09:28:03
Deposit,0.2,LTC,,,,,Bittrex,,,2017-12-22 21:32:37
Deposit,0.09939668,DASH,,,,,Bittrex,,,2017-12-22 13:57:51
Deposit,0.10219657,DASH,,,,,Bittrex,,,2017-12-21 17:02:58
Deposit,0.2,LTC,,,,,Bittrex,,,2017-12-21 12:17:02
Deposit,0.09987524,DASH,,,,,Bittrex,,,2017-12-20 10:00:18
Deposit,0.2,LTC,,,,,Bittrex,,,2017-12-20 02:25:55
Deposit,0.10195846,DASH,,,,,Bittrex,,,2017-12-19 16:47:22
Deposit,0.10161558,DASH,,,,,Bittrex,,,2017-12-18 23:07:14
Deposit,0.2,LTC,,,,,Bittrex,,,2017-12-18 17:21:49
Deposit,0.10184138,DASH,,,,,Bittrex,,,2017-12-18 02:02:13
Deposit,0.82409475,ETH,,,,,Bittrex,,,2017-12-17 19:02:45
Deposit,0.2,LTC,,,,,Bittrex,,,2017-12-17 10:17:34
Deposit,0.11570861,DASH,,,,,Bittrex,,,2017-12-17 08:01:36
Deposit,15.0,NEO,,,,,Bittrex,,,2017-12-17 07:24:58
Deposit,9.0,NEO,,,,,Bittrex,,,2017-12-17 07:08:17
Deposit,2799771.6665048,DOGE,,,,,Bittrex,,,2017-12-16 17:39:44
Deposit,0.10008401,DASH,,,,,Bittrex,,,2017-12-16 12:43:03
Deposit,0.2,LTC,,,,,Bittrex,,,2017-12-16 04:14:23
Deposit,15.24366224,ETH,,,,,Bittrex,,,2017-12-16 02:15:35
Deposit,13.7286461,ETH,,,,,Bittrex,,,2017-12-16 02:15:35
Deposit,0.09988669,DASH,,,,,Bittrex,,,2017-12-15 20:51:58
Deposit,13.74289383,ETH,,,,,Bittrex,,,2017-12-15 01:17:47
Deposit,0.09968165,DASH,,,,,Bittrex,,,2017-12-15 00:18:40
Deposit,0.2,LTC,,,,,Bittrex,,,2017-12-14 22:32:41
Deposit,0.10052791,DASH,,,,,Bittrex,,,2017-12-14 06:52:42
Deposit,0.5,LTC,,,,,Bittrex,,,2017-12-13 17:22:31
Deposit,0.1003095,DASH,,,,,Bittrex,,,2017-12-13 11:17:37
Deposit,0.09919832,DASH,,,,,Bittrex,,,2017-12-12 14:01:06
Deposit,0.10076488,DASH,,,,,Bittrex,,,2017-12-11 19:11:40
Deposit,0.5,LTC,,,,,Bittrex,,,2017-12-10 23:19:59
Deposit,0.09968545,DASH,,,,,Bittrex,,,2017-12-10 21:11:10
Deposit,0.09965601,DASH,,,,,Bittrex,,,2017-12-10 00:29:31
Deposit,6495481.0,DOGE,,,,,Bittrex,,,2017-12-10 00:06:16
Deposit,0.0991609,DASH,,,,,Bittrex,,,2017-12-09 07:48:17
Deposit,0.5,LTC,,,,,Bittrex,,,2017-12-08 17:16:09
Deposit,0.09949158,DASH,,,,,Bittrex,,,2017-12-08 15:09:42
Deposit,0.10160142,DASH,,,,,Bittrex,,,2017-12-07 20:16:34
Deposit,0.2081939,BTC,,,,,Bittrex,,,2017-12-07 10:49:22
Deposit,0.09987502,BTC,,,,,Bittrex,,,2017-12-07 01:14:36
Deposit,0.33114509,ETH,,,,,Bittrex,,,2017-12-02 18:34:07
Deposit,0.10374877,BTC,,,,,Bittrex,,,2017-11-25 19:04:16
Deposit,0.14470258,BTC,,,,,Bittrex,,,2017-11-18 20:47:49
Deposit,1700.0,NEO,,,,,Bittrex,,,2017-11-11 02:45:03
Deposit,101.0,NEO,,,,,Bittrex,,,2017-11-10 20:53:04
Deposit,0.42729639,BTC,,,,,Bittrex,,,2017-11-09 21:05:35
Deposit,14.999774,LTC,,,,,Bittrex,,,2017-10-28 01:16:31
Deposit,1.00033844,ETH,,,,,Bittrex,,,2017-10-28 01:09:31
Deposit,1.5,BCC,,,,,Bittrex,,,2017-10-27 21:17:27
Deposit,71.0,NEO,,,,,Bittrex,,,2017-10-25 03:50:15
Deposit,110.0044,DMD,,,,,Bittrex,,,2017-10-25 01:28:51
Deposit,0.72768122,BTC,,,,,Bittrex,,,2017-10-24 23:07:38
Deposit,2.99604368,ETH,,,,,Bittrex,,,2017-10-24 23:01:40
Deposit,0.4999,BTC,,,,,Bittrex,,,2017-10-24 23:09:40
Deposit,29.99876343,ETH,,,,,Bittrex,,,2017-10-24 22:52:33
Deposit,24.11549651,ETH,,,,,Bittrex,,,2017-10-24 22:47:57
Deposit,1.0,BTC,,,,,Bittrex,,,2017-10-14 02:22:54
Deposit,0.16833657,BTC,,,,,Bittrex,,,2017-09-22 20:41:09
Deposit,5.3674334,LTC,,,,,Bittrex,,,2017-09-22 20:32:24
Deposit,2.55438142,BTC,,,,,Bittrex,,,2017-09-22 20:32:56
Deposit,0.01538691,BTC,,,,,Bittrex,,,2017-09-15 11:50:53
Deposit,0.0125,ZEC,,,,,Bittrex,,,2017-09-14 20:48:35
Deposit,0.0126,ZEC,,,,,Bittrex,,,2017-09-14 12:29:24
Deposit,0.013,ZEC,,,,,Bittrex,,,2017-09-14 08:12:11
Deposit,0.011,ZEC,,,,,Bittrex,,,2017-09-14 00:43:05
Deposit,0.0127,ZEC,,,,,Bittrex,,,2017-09-13 19:59:59
Deposit,0.0124,ZEC,,,,,Bittrex,,,2017-09-13 15:52:13
Deposit,0.0123,ZEC,,,,,Bittrex,,,2017-09-13 12:48:51
Deposit,0.0105,ZEC,,,,,Bittrex,,,2017-09-13 07:17:57
Deposit,0.0122,ZEC,,,,,Bittrex,,,2017-09-13 01:55:33
Deposit,0.0114,ZEC,,,,,Bittrex,,,2017-09-12 22:32:43
Deposit,0.0126,ZEC,,,,,Bittrex,,,2017-09-12 19:11:59
Deposit,0.0146,ZEC,,,,,Bittrex,,,2017-09-12 14:33:28
Deposit,0.0111,ZEC,,,,,Bittrex,,,2017-09-12 12:09:23
Deposit,0.0116,ZEC,,,,,Bittrex,,,2017-09-12 08:59:44
Deposit,0.01,ZEC,,,,,Bittrex,,,2017-09-12 05:17:48
Deposit,0.0104,ZEC,,,,,Bittrex,,,2017-09-12 00:54:23
Deposit,0.03094179,BTC,,,,,Bittrex,,,2017-09-08 11:23:57
Deposit,0.99601481,ETH,,,,,Bittrex,,,2017-09-07 09:48:10
Deposit,0.05580063,BTC,,,,,Bittrex,,,2017-09-02 14:29:22
Deposit,0.059329,BTC,,,,,Bittrex,,,2017-08-25 19:55:58
Deposit,1.00030665,ETH,,,,,Bittrex,,,2017-08-24 05:16:19
Deposit,9255.362027,XRP,,,,,Bittrex,,,2017-08-20 20:26:22
Deposit,16.2477751,ETH,,,,,Bittrex,,,2017-08-20 05:03:06
Deposit,0.09618334,ETH,,,,,Bittrex,,,2017-08-20 04:22:41
Deposit,0.0259003,BTC,,,,,Bittrex,,,2017-08-19 00:21:04
Deposit,0.011,ZEC,,,,,Bittrex,,,2017-08-14 20:12:30
Deposit,0.0152,ZEC,,,,,Bittrex,,,2017-08-14 17:51:18
Deposit,0.0159,ZEC,,,,,Bittrex,,,2017-08-14 13:47:03
Deposit,0.0124,ZEC,,,,,Bittrex,,,2017-08-14 11:30:45
Deposit,0.0184,ZEC,,,,,Bittrex,,,2017-08-14 08:43:29
Deposit,0.0119,ZEC,,,,,Bittrex,,,2017-08-14 05:08:05
Deposit,0.0115,ZEC,,,,,Bittrex,,,2017-08-14 01:03:49
Deposit,0.0118,ZEC,,,,,Bittrex,,,2017-08-13 22:40:00
Deposit,0.0148,ZEC,,,,,Bittrex,,,2017-08-13 20:36:21
Deposit,0.0118,ZEC,,,,,Bittrex,,,2017-08-13 18:14:02
Deposit,0.0179,ZEC,,,,,Bittrex,,,2017-08-13 14:36:22
Deposit,0.0141,ZEC,,,,,Bittrex,,,2017-08-13 08:48:59
Deposit,0.0116,ZEC,,,,,Bittrex,,,2017-08-13 06:40:20
Deposit,0.0118,ZEC,,,,,Bittrex,,,2017-08-13 03:12:07
Deposit,0.0115,ZEC,,,,,Bittrex,,,2017-08-13 01:49:08
Deposit,0.012,ZEC,,,,,Bittrex,,,2017-08-12 23:32:41
Deposit,0.0119,ZEC,,,,,Bittrex,,,2017-08-12 20:13:58
Deposit,0.0115,ZEC,,,,,Bittrex,,,2017-08-12 17:52:07
Deposit,0.0117,ZEC,,,,,Bittrex,,,2017-08-12 13:21:50
Deposit,0.0118,ZEC,,,,,Bittrex,,,2017-08-12 08:38:36
Deposit,0.0119,ZEC,,,,,Bittrex,,,2017-08-12 07:17:33
Deposit,0.015,ZEC,,,,,Bittrex,,,2017-08-12 04:52:08
Deposit,0.0126,ZEC,,,,,Bittrex,,,2017-08-12 03:49:04
Deposit,0.0108,ZEC,,,,,Bittrex,,,2017-08-12 00:25:11
Deposit,0.0181,ZEC,,,,,Bittrex,,,2017-08-11 21:58:01
Deposit,0.0101,ZEC,,,,,Bittrex,,,2017-08-11 19:15:35
Deposit,0.013,ZEC,,,,,Bittrex,,,2017-08-11 15:53:46
Deposit,0.0131,ZEC,,,,,Bittrex,,,2017-08-11 14:20:17
Deposit,0.0204,ZEC,,,,,Bittrex,,,2017-08-11 11:18:14
Deposit,0.0133,ZEC,,,,,Bittrex,,,2017-08-11 10:09:26
Deposit,0.0121,ZEC,,,,,Bittrex,,,2017-08-11 06:17:34
Deposit,0.0103,ZEC,,,,,Bittrex,,,2017-08-11 04:13:35
Deposit,0.0146,ZEC,,,,,Bittrex,,,2017-08-11 02:01:47
Withdrawal,,,1.0,ETH,,,Bittrex,,,2018-03-02 20:34:08
Withdrawal,,,200.0,GAM,,,Bittrex,,,2018-03-02 05:32:04
Withdrawal,,,0.5,ETH,,,Bittrex,,,2018-03-01 22:35:21
Withdrawal,,,0.40662608,BTC,,,Bittrex,,,2018-02-19 19:42:24
Withdrawal,,,5.59093879,ETH,,,Bittrex,,,2018-02-08 05:24:44
Withdrawal,,,17.43605697,ETH,,,Bittrex,,,2018-01-08 19:35:41
Withdrawal,,,5.005,ETH,,,Bittrex,,,2018-01-08 08:18:53
Withdrawal,,,0.25731358,ETH,,,Bittrex,,,2018-01-07 05:25:15
Withdrawal,,,245.31164334,STEEM,,,Bittrex,,,2018-01-01 19:59:38
Withdrawal,,,9.99,STEEM,,,Bittrex,,,2018-01-01 19:02:08
Withdrawal,,,876.20697847,XEM,,,Bittrex,,,2018-01-01 06:02:41
Withdrawal,,,0.75686257,ETH,,,Bittrex,,,2017-12-20 00:00:28
Withdrawal,,,2.10120173,ETH,,,Bittrex,,,2017-12-17 07:42:46
Withdrawal,,,324.0,NEO,,,Bittrex,,,2017-12-16 18:30:30
Withdrawal,,,46.9414216,ETH,,,Bittrex,,,2017-12-16 02:28:58
Withdrawal,,,13.74089383,ETH,,,Bittrex,,,2017-12-15 03:45:41
Withdrawal,,,10.0,NEO,,,Bittrex,,,2017-12-13 01:54:14
Withdrawal,,,46.88517097,ETH,,,Bittrex,,,2017-12-12 20:22:59
Withdrawal,,,0.8613149,ETH,,,Bittrex,,,2017-12-12 00:07:37
Withdrawal,,,85256.21025641,LMC,,,Bittrex,,,2017-12-10 23:45:49
Withdrawal,,,11.06065688,DASH,,,Bittrex,,,2017-12-08 17:51:57
Withdrawal,,,6.22913568,ETH,,,Bittrex,,,2017-12-07 20:23:11
Withdrawal,,,4999998.0,DOGE,,,Bittrex,,,2017-12-07 06:01:56
Withdrawal,,,5235181.6665048,DOGE,,,Bittrex,,,2017-12-07 05:57:32
Withdrawal,,,7.2753517,ETH,,,Bittrex,,,2017-12-07 03:10:06
Withdrawal,,,4.53875589,ETH,,,Bittrex,,,2017-12-07 02:37:07
Withdrawal,,,0.499,BTC,,,Bittrex,,,2017-11-30 22:53:07
Withdrawal,,,0.92180322,BTC,,,Bittrex,,,2017-11-16 01:47:59
Withdrawal,,,0.998,ETH,,,Bittrex,,,2017-11-15 23:55:21
Withdrawal,,,5555558.0,DOGE,,,Bittrex,,,2017-11-14 21:21:41
Withdrawal,,,5.57240298,ETH,,,Bittrex,,,2017-11-14 20:46:55
Withdrawal,,,1800.0,NEO,,,Bittrex,,,2017-11-08 19:10:38
Withdrawal,,,1.0,NEO,,,Bittrex,,,2017-11-08 19:06:37
Withdrawal,,,0.059,BTC,,,Bittrex,,,2017-10-28 02:17:28
Withdrawal,,,0.19182775,BTC,,,Bittrex,,,2017-10-28 02:10:18
Withdrawal,,,0.299,BTC,,,Bittrex,,,2017-10-25 04:11:20
Withdrawal,,,105.00658019,DMD,,,Bittrex,,,2017-10-18 19:18:06
Withdrawal,,,4.998,DMD,,,Bittrex,,,2017-10-18 19:16:28
Withdrawal,,,121.0,NEO,,,Bittrex,,,2017-08-20 17:59:19
Trade,0.74549373,BTC,0.05796959,ETH,,,Bittrex,,,2018-03-02 20:25:05
Trade,21.0,BTC,0.02730148,GAM,,,Bittrex,,,2018-03-02 05:31:01
Trade,117.0,BTC,0.12462179,GAM,,,Bittrex,,,2018-03-02 05:28:23
Trade,201.0,BTC,0.10592592,GAM,,,Bittrex,,,2018-03-02 05:24:58
Trade,0.31740216,ETH,4.0,BTC,,,Bittrex,,,2018-03-02 05:23:57