"Type","Buy","Cur.","Sell","Cur.","Fee","Cur.","Exchange","Group","Comment","Date"
"Deposit","1025.27180000","AURA","","","","","ETH Transaction","","","2018-03-20 16:14:29"
"Deposit","800.00000000","nCash","","","","","ETH Transaction","","","2018-03-09 15:39:16"
"Deposit","5.00000000","BPTN","","","","","ETH Transaction","","","2018-03-03 10:21:03"
"Trade","0.74549373","ETH","0.05811451","BTC","0.00014492","BTC","Bittrex","","","2018-03-02 15:25:05"
"Trade","21.00000000","GAM","0.02736972","BTC","0.00006824","BTC","Bittrex","","","2018-03-02 00:31:01"
"Trade","96.49502736","GAM","0.12493333","BTC","0.00031154","BTC","Bittrex","","","2018-03-02 00:30:27"
"Trade","83.50158008","GAM","0.10619073","BTC","0.00026481","BTC","Bittrex","","","2018-03-02 00:27:00"
"Trade","0.31660866","BTC","4.00000000","ETH","0.00079350","BTC","Bittrex","","","2018-03-02 00:23:57"
"Withdrawal","","","0.40000000","ETH","","","ETH Transaction","","Stolen","2018-03-01 17:04:47"
"Withdrawal","","","0.10000000","ETH","","","ETH Transaction","","Stolen","2018-03-01 16:58:12"
"Deposit","32039.82300000","PBL","","","","","ETH Transaction","","Transfer","2018-03-01 13:40:39"
"Withdrawal","","","14.44106247","ETH","","","Binance","","","2018-02-28 19:27:24"
"Trade","0.12307680","ETH","4.00000000","GVT","0.00012320","ETH","Binance","","","2018-02-28 19:24:57"
"Trade","0.31199969","ETH","10.14000000","GVT","0.00031231","ETH","Binance","","","2018-02-28 19:24:57"
"Trade","0.12430757","ETH","4.04000000","GVT","0.00012443","ETH","Binance","","","2018-02-28 19:24:57"
"Trade","0.12030757","ETH","3.91000000","GVT","0.00012043","ETH","Binance","","","2018-02-28 19:24:57"
"Trade","0.31199969","ETH","10.14000000","GVT","0.00031231","ETH","Binance","","","2018-02-28 19:24:57"
"Trade","0.02523074","ETH","0.82000000","GVT","0.00002526","ETH","Binance","","","2018-02-28 18:51:50"
"Trade","0.12030757","ETH","3.91000000","GVT","0.00012043","ETH","Binance","","","2018-02-28 18:51:49"
"Trade","0.04984610","ETH","1.62000000","GVT","0.00004990","ETH","Binance","","","2018-02-28 18:51:45"
"Trade","0.18307674","ETH","5.95000000","GVT","0.00018326","ETH","Binance","","","2018-02-28 18:51:27"
"Trade","0.22984592","ETH","7.47000000","GVT","0.00023008","ETH","Binance","","","2018-02-28 18:51:26"
"Trade","0.24092284","ETH","7.83000000","GVT","0.00024116","ETH","Binance","","","2018-02-28 18:51:26"
"Trade","0.47692260","ETH","15.50000000","GVT","0.00047740","ETH","Binance","","","2018-02-28 18:51:26"
"Trade","0.05938456","ETH","1.93000000","GVT","0.00005944","ETH","Binance","","","2018-02-28 18:51:25"
"Trade","0.03876919","ETH","1.26000000","GVT","0.00003881","ETH","Binance","","","2018-02-28 18:51:24"
"Trade","0.33846120","ETH","11.00000000","GVT","0.00033880","ETH","Binance","","","2018-02-28 18:51:22"
"Trade","0.09015376","ETH","2.93000000","GVT","0.00009024","ETH","Binance","","","2018-02-28 18:51:20"
"Trade","1.20984494","ETH","39.32000000","GVT","0.00121106","ETH","Binance","","","2018-02-28 18:51:13"
"Trade","0.58615326","ETH","19.05000000","GVT","0.00058674","ETH","Binance","","","2018-02-28 18:51:11"
"Trade","0.36492271","ETH","11.86000000","GVT","0.00036529","ETH","Binance","","","2018-02-28 18:51:10"
"Trade","0.11846142","ETH","3.85000000","GVT","0.00011858","ETH","Binance","","","2018-02-28 18:51:09"
"Trade","0.02553844","ETH","0.83000000","GVT","0.00002556","ETH","Binance","","","2018-02-28 18:51:01"
"Trade","0.41969189","ETH","13.64000000","GVT","0.00042011","ETH","Binance","","","2018-02-28 18:50:55"
"Trade","0.25753820","ETH","8.37000000","GVT","0.00025780","ETH","Binance","","","2018-02-28 18:49:07"
"Trade","0.03999996","ETH","1.30000000","GVT","0.00004004","ETH","Binance","","","2018-02-28 18:49:07"
"Trade","0.30738431","ETH","9.99000000","GVT","0.00030769","ETH","Binance","","","2018-02-28 18:49:05"
"Trade","0.20399980","ETH","6.63000000","GVT","0.00020420","ETH","Binance","","","2018-02-28 18:48:49"
"Trade","0.20399980","ETH","6.63000000","GVT","0.00020420","ETH","Binance","","","2018-02-28 18:48:49"
"Trade","0.03876919","ETH","1.26000000","GVT","0.00003881","ETH","Binance","","","2018-02-28 18:48:39"
"Trade","0.04769226","ETH","1.55000000","GVT","0.00004774","ETH","Binance","","","2018-02-28 18:48:38"
"Trade","0.19353827","ETH","6.29000000","GVT","0.00019373","ETH","Binance","","","2018-02-28 18:48:21"
"Trade","0.01230768","ETH","0.40000000","GVT","0.00001232","ETH","Binance","","","2018-02-28 18:48:14"
"Trade","0.11538450","ETH","3.75000000","GVT","0.00011550","ETH","Binance","","","2018-02-28 18:48:01"
"Trade","0.15876907","ETH","5.16000000","GVT","0.00015893","ETH","Binance","","","2018-02-28 18:47:52"
"Trade","0.16030753","ETH","5.21000000","GVT","0.00016047","ETH","Binance","","","2018-02-28 18:47:44"
"Trade","0.13969217","ETH","4.54000000","GVT","0.00013983","ETH","Binance","","","2018-02-28 18:47:43"
"Trade","0.59169172","ETH","19.23000000","GVT","0.00059228","ETH","Binance","","","2018-02-28 18:47:32"
"Trade","0.40153806","ETH","13.05000000","GVT","0.00040194","ETH","Binance","","","2018-02-28 18:47:29"
"Trade","0.32769198","ETH","10.65000000","GVT","0.00032802","ETH","Binance","","","2018-02-28 18:46:07"
"Trade","0.15384600","ETH","5.00000000","GVT","0.00015400","ETH","Binance","","","2018-02-28 18:44:49"
"Trade","0.45046109","ETH","14.64000000","GVT","0.00045091","ETH","Binance","","","2018-02-28 18:44:27"
"Trade","1.37261401","ETH","44.61000000","GVT","0.00137399","ETH","Binance","","","2018-02-28 18:43:57"
"Trade","0.36923040","ETH","12.00000000","GVT","0.00036960","ETH","Binance","","","2018-02-28 18:43:43"
"Trade","0.74215310","ETH","24.12000000","GVT","0.00074290","ETH","Binance","","","2018-02-28 18:43:43"
"Trade","0.12061526","ETH","3.92000000","GVT","0.00012074","ETH","Binance","","","2018-02-28 18:43:43"
"Trade","0.74215310","ETH","24.12000000","GVT","0.00074290","ETH","Binance","","","2018-02-28 18:43:43"
"Trade","0.74215310","ETH","24.12000000","GVT","0.00074290","ETH","Binance","","","2018-02-28 18:43:43"
"Trade","0.04769226","ETH","1.55000000","GVT","0.00004774","ETH","Binance","","","2018-02-28 18:43:42"
"Trade","0.94061444","ETH","30.57000000","GVT","0.00094156","ETH","Binance","","","2018-02-28 18:43:36"
"Deposit","3.66000000","MEDS","","","","","ETH Transaction","","","2018-02-28 17:40:19"
"Withdrawal","","","5.00000000","ETH","","","ETH Transaction","","","2018-02-28 14:11:16"
"Deposit","71.00000000","MRK","","","","","ETH Transaction","","","2018-02-24 14:24:46"
"Deposit","10.00000000","DTA","","","","","ETH Transaction","","","2018-02-23 02:23:29"
"Withdrawal","","","5087.20000000","USD","","","Gemini","","","2018-02-22 02:58:46"
"Trade","5087.19000000","USD","6.00000000","ETH","12.75000000","USD","Gemini","","","2018-02-22 02:56:42"
"Deposit","6.00000000","ETH","","","","","Gemini","","","2018-02-22 02:53:39"
"Withdrawal","","","6.00000000","ETH","","","ETH Transaction","","","2018-02-22 02:49:55"
"Deposit","0.15000000","BNB","","","","","ETH Transaction","","","2018-02-21 15:20:47"
"Deposit","2320.62100000","POLL","","","","","ETH Transaction","","","2018-02-19 16:45:50"
"Trade","0.39407635","BTC","2.90488245","BCH","0.00098766","BTC","Bittrex","","","2018-02-19 14:40:56"
"Trade","0.01354261","BTC","0.09859515","BCH","0.00003394","BTC","Bittrex","","","2018-02-19 14:12:23"
"Deposit","9966.76000000","DADI","","","","","ETH Transaction","","","2018-02-18 05:48:49"
"Deposit","88199.00000000","DADI","","","","","ETH Transaction","","","2018-02-17 22:09:40"
"Deposit","0.04531149","ETH","","","","","ETH Transaction","","","2018-02-16 07:29:39"
"Deposit","2.00000000","CAN","","","","","ETH Transaction","","","2018-02-16 04:34:27"
"Deposit","10.50500000","ETH","","","","","ETH Transaction","","","2018-02-14 13:48:27"
"Withdrawal","","","1.65000000","ETH","","","ETH Transaction","","","2018-02-12 13:14:09"
"Withdrawal","","","1.70000000","ETH","","","ETH Transaction","","","2018-02-12 13:10:41"
"Deposit","3.40000000","ETH","","","","","ETH Transaction","","","2018-02-12 13:06:41"
"Deposit","0.07213939","ETH","","","","","ETH Transaction","","","2018-02-09 07:29:45"
"Withdrawal","","","11.00000000","ETH","","","ETH Transaction","","","2018-02-08 18:49:19"
"Withdrawal","","","27198.51900000","ARY","","","ETH Transaction","","","2018-02-08 18:30:11"
"Deposit","40001.49000000","WPR","","","","","ETH Transaction","","","2018-02-08 14:27:00"
"Withdrawal","","","57.00000000","ETH","","","ETH Transaction","","","2018-02-08 10:16:51"
"Deposit","9.15479939","ETH","","","","","ETH Transaction","","","2018-02-08 01:02:47"
"Deposit","5.59093879","ETH","","","","","ETH Transaction","","","2018-02-08 00:26:05"
"Trade","0.85705197","ETH","4.80000000","LTC","0.00214798","ETH","Bittrex","","","2018-02-07 23:09:00"
"Withdrawal","","","300000.00000000","PARETO","","","ETH Transaction","","","2018-02-07 23:06:50"
"Trade","0.81140136","ETH","1.18749626","DASH","0.00203357","ETH","Bittrex","","","2018-02-07 22:40:53"
"Trade","0.56997521","ETH","0.82687796","DASH","0.00142850","ETH","Bittrex","","","2018-02-07 22:35:17"
"Withdrawal","","","233532.00000000","AXP","","","ETH Transaction","","","2018-02-07 22:33:04"
"Deposit","11842.86350000","BNTY","","","","","ETH Transaction","","","2018-02-07 22:24:14"
"Withdrawal","","","65000.00000000","CPC","","","ETH Transaction","","","2018-02-07 19:34:07"
"Withdrawal","","","2.00000000","ETH","","","ETH Transaction","","","2018-02-07 17:56:16"
"Deposit","10.43145183","ETH","","","","","ETH Transaction","","","2018-02-07 17:40:02"
"Deposit","46925.52000000","MTN","","","","","ETH Transaction","","","2018-02-04 11:21:48"
"Deposit","1.00000000","SCB","","","","","ETH Transaction","","","2018-02-04 10:06:34"
"Deposit","5000.00000000","CPC","","","","","ETH Transaction","","","2018-02-02 15:13:59"
"Deposit","200000.00000000","CPC","","","","","ETH Transaction","","","2018-02-02 14:52:36"
"Withdrawal","","","49.00000000","ETH","","","ETH Transaction","","","2018-02-02 14:20:24"
"Deposit","0.07849603","ETH","","","","","ETH Transaction","","","2018-02-02 07:24:38"
"Deposit","210550.00000000","FLUZ","","","","","ETH Transaction","","","2018-02-01 11:44:27"
"Deposit","40097.72244459","CXO","","","","","ETH Transaction","","","2018-02-01 11:21:54"
"Withdrawal","","","54915.00000000","CXO","","","ETH Transaction","","","2018-02-01 09:47:15"
"Withdrawal","","","60000.00000000","CXO","","","ETH Transaction","","","2018-02-01 01:57:58"
"Withdrawal","","","300000.00000000","PARETO","","","ETH Transaction","","","2018-02-01 01:44:51"
"Withdrawal","","","250000.00000000","AXP","","","ETH Transaction","","","2018-02-01 01:24:09"
"Deposit","114915.00000000","CXO","","","","","ETH Transaction","","","2018-01-31 17:10:44"
"Withdrawal","","","4.25000000","ETH","","","ETH Transaction","","","2018-01-29 07:11:56"
"Deposit","4.27847870","ETH","","","","","ETH Transaction","","","2018-01-29 06:55:32"
"Withdrawal","","","4.27847870","ETH","","","Binance","","","2018-01-29 06:52:29"
"Trade","0.00408791","ETH","0.22000000","GVT","0.00000409","ETH","Binance","","","2018-01-29 06:51:20"
"Trade","0.50950199","ETH","27.42000000","GVT","0.00051001","ETH","Binance","","","2018-01-29 06:51:20"
"Trade","0.46416337","ETH","24.98000000","GVT","0.00046463","ETH","Binance","","","2018-01-29 06:51:18"
"Trade","0.25103471","ETH","13.51000000","GVT","0.00025129","ETH","Binance","","","2018-01-29 06:51:16"
"Trade","0.39950010","ETH","21.50000000","GVT","0.00039990","ETH","Binance","","","2018-01-29 06:51:16"
"Trade","0.04645350","ETH","2.50000000","GVT","0.00004650","ETH","Binance","","","2018-01-29 06:51:15"
"Trade","0.02248349","ETH","1.21000000","GVT","0.00002251","ETH","Binance","","","2018-01-29 06:51:15"
"Trade","0.01467931","ETH","0.79000000","GVT","0.00001469","ETH","Binance","","","2018-01-29 06:51:15"
"Trade","0.00018646","ETH","0.01000000","GVT","0.00000019","ETH","Binance","","","2018-01-29 06:51:12"
"Trade","0.27288224","ETH","14.67000000","GVT","0.00027316","ETH","Binance","","","2018-01-29 06:51:12"
"Trade","0.44722433","ETH","24.00000000","GVT","0.00044767","ETH","Binance","","","2018-01-29 06:51:12"
"Trade","0.02954443","ETH","1.59000000","GVT","0.00002957","ETH","Binance","","","2018-01-29 06:51:12"
"Trade","0.44722433","ETH","24.00000000","GVT","0.00044767","ETH","Binance","","","2018-01-29 06:51:12"
"Trade","0.07453339","ETH","4.00000000","GVT","0.00007461","ETH","Binance","","","2018-01-29 06:51:12"
"Trade","0.66370283","ETH","35.60000000","GVT","0.00066437","ETH","Binance","","","2018-01-29 06:51:12"
"Trade","0.03724472","ETH","2.00000000","GVT","0.00003728","ETH","Binance","","","2018-01-29 06:51:12"
"Trade","0.03729067","ETH","2.00000000","GVT","0.00003733","ETH","Binance","","","2018-01-29 06:51:12"
"Trade","0.00018681","ETH","0.01000000","GVT","0.00000019","ETH","Binance","","","2018-01-29 06:50:01"
"Trade","0.00018681","ETH","0.01000000","GVT","0.00000019","ETH","Binance","","","2018-01-29 06:48:40"
"Trade","0.33121945","ETH","17.73000000","GVT","0.00033155","ETH","Binance","","","2018-01-29 06:48:18"
"Trade","0.05753840","ETH","3.08000000","GVT","0.00005760","ETH","Binance","","","2018-01-29 06:48:05"
"Trade","0.07517513","ETH","4.02000000","GVT","0.00007525","ETH","Binance","","","2018-01-29 06:47:58"
"Trade","0.01998899","ETH","1.07000000","GVT","0.00002001","ETH","Binance","","","2018-01-29 06:47:58"
"Trade","0.03739856","ETH","2.00000000","GVT","0.00003744","ETH","Binance","","","2018-01-29 06:47:58"
"Trade","0.00766220","ETH","0.41000000","GVT","0.00000767","ETH","Binance","","","2018-01-29 06:47:58"
"Trade","0.03738458","ETH","2.00000000","GVT","0.00003742","ETH","Binance","","","2018-01-29 06:47:58"
"Deposit","699.99954000","GVT","","","","","Binance","","","2018-01-29 06:36:29"
"Withdrawal","","","699.99954000","GVT","","","ETH Transaction","","","2018-01-29 06:35:58"
"Deposit","2720.00000000","BCS","","","","","ETH Transaction","","","2018-01-27 20:07:32"
"Deposit","600000.00000000","PARETO","","","","","ETH Transaction","","","2018-01-27 20:05:20"
"Deposit","483532.00000000","AXP","","","","","ETH Transaction","","","2018-01-27 20:02:52"
"Deposit","0.08772710","ETH","","","","","ETH Transaction","","","2018-01-26 07:19:49"
"Withdrawal","","","21.00000000","ETH","","","ETH Transaction","","","2018-01-25 05:20:05"
"Withdrawal","","","60.00000000","ETH","","","ETH Transaction","","","2018-01-24 19:51:16"
"Deposit","76.61387180","ETH","","","","","ETH Transaction","","","2018-01-24 19:45:48"
"Withdrawal","","","76.61387180","ETH","","","Binance","","","2018-01-24 19:43:18"
"Trade","1.35251025","ETH","1.82000000","DASH","0.00338974","ETH","Bittrex","","","2018-01-24 19:01:53"
"Trade","3.22435242","ETH","180.00000000","GVT","0.00322758","ETH","Binance","","","2018-01-24 18:51:51"
"Trade","1.10708880","ETH","62.61000000","GVT","0.00110820","ETH","Binance","","","2018-01-24 18:51:51"
"Trade","3.00599100","ETH","170.00000000","GVT","0.00300900","ETH","Binance","","","2018-01-24 18:51:51"
"Trade","0.39690259","ETH","22.13000000","GVT","0.00039730","ETH","Binance","","","2018-01-24 18:51:51"
"Trade","0.04016150","ETH","2.27000000","GVT","0.00004020","ETH","Binance","","","2018-01-24 18:51:51"
"Trade","0.03008724","ETH","1.68000000","GVT","0.00003012","ETH","Binance","","","2018-01-24 18:51:51"
"Trade","0.18056925","ETH","10.00000000","GVT","0.00018075","ETH","Binance","","","2018-01-24 18:51:51"
"Trade","0.02199498","ETH","1.23000000","GVT","0.00002202","ETH","Binance","","","2018-01-24 18:51:51"
"Trade","0.19959477","ETH","11.27000000","GVT","0.00019979","ETH","Binance","","","2018-01-24 18:51:51"
"Trade","0.17784198","ETH","10.00000000","GVT","0.00017802","ETH","Binance","","","2018-01-24 18:51:51"
"Trade","0.20586033","ETH","11.40000000","GVT","0.00020607","ETH","Binance","","","2018-01-24 18:51:51"
"Trade","1.67808014","ETH","93.70000000","GVT","0.00167976","ETH","Binance","","","2018-01-24 18:51:51"
"Trade","0.03065697","ETH","1.71000000","GVT","0.00003069","ETH","Binance","","","2018-01-24 18:51:51"
"Trade","0.43353403","ETH","24.00000000","GVT","0.00043397","ETH","Binance","","","2018-01-24 18:51:51"
"Trade","20.59888050","ETH","1150.00000000","GVT","0.02061950","ETH","Binance","","","2018-01-24 18:51:51"
"Trade","0.43339018","ETH","24.00000000","GVT","0.00043382","ETH","Binance","","","2018-01-24 18:51:51"
"Trade","0.43339018","ETH","24.00000000","GVT","0.00043382","ETH","Binance","","","2018-01-24 18:51:51"
"Trade","0.06018276","ETH","3.00000000","NEB","0.00006024","ETH","Binance","","","2018-01-24 18:47:04"
"Trade","1.99580280","ETH","99.94000000","NEB","0.00199780","ETH","Binance","","","2018-01-24 18:47:04"
"Trade","0.03996000","ETH","2.00000000","NEB","0.00004000","ETH","Binance","","","2018-01-24 18:47:04"
"Trade","0.01998000","ETH","1.00000000","NEB","0.00002000","ETH","Binance","","","2018-01-24 18:47:04"
"Trade","1.01489338","ETH","50.49000000","NEB","0.00101591","ETH","Binance","","","2018-01-24 18:47:04"
"Trade","0.75624300","ETH","37.85000000","NEB","0.00075700","ETH","Binance","","","2018-01-24 18:47:04"
"Trade","0.12166062","ETH","6.08000000","NEB","0.00012178","ETH","Binance","","","2018-01-24 18:47:04"
"Trade","0.39979980","ETH","20.00000000","NEB","0.00040020","ETH","Binance","","","2018-01-24 18:47:04"
"Trade","0.30889080","ETH","15.46000000","NEB","0.00030920","ETH","Binance","","","2018-01-24 18:47:04"
"Trade","0.56382361","ETH","27.94000000","NEB","0.00056439","ETH","Binance","","","2018-01-24 18:47:04"
"Trade","0.99900000","ETH","50.00000000","NEB","0.00100000","ETH","Binance","","","2018-01-24 18:47:04"
"Trade","8.52802644","ETH","423.00000000","NEB","0.00853656","ETH","Binance","","","2018-01-24 18:47:04"
"Trade","0.09095445","ETH","4.55000000","NEB","0.00009105","ETH","Binance","","","2018-01-24 18:47:04"
"Trade","0.80639280","ETH","40.00000000","NEB","0.00080720","ETH","Binance","","","2018-01-24 18:47:04"
"Trade","0.39960000","ETH","20.00000000","NEB","0.00040000","ETH","Binance","","","2018-01-24 18:47:04"
"Trade","3.99600000","ETH","200.00000000","NEB","0.00400000","ETH","Binance","","","2018-01-24 18:47:04"
"Trade","0.07992000","ETH","4.00000000","NEB","0.00008000","ETH","Binance","","","2018-01-24 18:47:04"
"Trade","0.01998000","ETH","1.00000000","NEB","0.00002000","ETH","Binance","","","2018-01-24 18:47:04"
"Trade","0.99900000","ETH","50.00000000","NEB","0.00100000","ETH","Binance","","","2018-01-24 18:47:04"
"Trade","0.10064925","ETH","5.00000000","NEB","0.00010075","ETH","Binance","","","2018-01-24 18:47:04"
"Trade","0.06213780","ETH","3.11000000","NEB","0.00006220","ETH","Binance","","","2018-01-24 18:47:04"
"Trade","0.20179800","ETH","10.00000000","NEB","0.00020200","ETH","Binance","","","2018-01-24 18:47:04"
"Trade","0.07992000","ETH","4.00000000","NEB","0.00008000","ETH","Binance","","","2018-01-24 18:47:04"
"Trade","0.02297700","ETH","1.15000000","NEB","0.00002300","ETH","Binance","","","2018-01-24 18:47:04"
"Trade","0.96143760","ETH","48.12000000","NEB","0.00096240","ETH","Binance","","","2018-01-24 18:47:04"
"Trade","0.02497500","ETH","1.25000000","NEB","0.00002500","ETH","Binance","","","2018-01-24 18:47:04"
"Trade","0.19980000","ETH","10.00000000","NEB","0.00020000","ETH","Binance","","","2018-01-24 18:47:04"
"Trade","0.02007990","ETH","1.00000000","NEB","0.00002010","ETH","Binance","","","2018-01-24 18:47:04"
"Trade","0.07432560","ETH","3.72000000","NEB","0.00007440","ETH","Binance","","","2018-01-24 18:47:04"
"Trade","0.10089900","ETH","5.00000000","NEB","0.00010100","ETH","Binance","","","2018-01-24 18:47:04"
"Trade","0.02197800","ETH","1.10000000","NEB","0.00002200","ETH","Binance","","","2018-01-24 18:47:04"
"Trade","0.02257740","ETH","1.13000000","NEB","0.00002260","ETH","Binance","","","2018-01-24 18:47:04"
"Trade","0.69610320","ETH","34.84000000","NEB","0.00069680","ETH","Binance","","","2018-01-24 18:47:04"
"Trade","0.56663280","ETH","28.36000000","NEB","0.00056720","ETH","Binance","","","2018-01-24 18:47:04"
"Trade","0.19980000","ETH","10.00000000","NEB","0.00020000","ETH","Binance","","","2018-01-24 18:47:04"
"Trade","0.07027965","ETH","3.50000000","NEB","0.00007035","ETH","Binance","","","2018-01-24 18:47:04"
"Trade","1.00899000","ETH","50.00000000","NEB","0.00101000","ETH","Binance","","","2018-01-24 18:47:04"
"Trade","0.02577420","ETH","1.29000000","NEB","0.00002580","ETH","Binance","","","2018-01-24 18:47:04"
"Trade","2.99690210","ETH","148.51000000","NEB","0.00299990","ETH","Binance","","","2018-01-24 18:47:04"
"Trade","9.83958128","ETH","489.51000000","NEB","0.00984943","ETH","Binance","","","2018-01-24 18:47:04"
"Trade","0.09990000","ETH","5.00000000","NEB","0.00010000","ETH","Binance","","","2018-01-24 18:47:04"
"Trade","0.20179800","ETH","10.10000000","NEB","0.00020200","ETH","Binance","","","2018-01-24 18:47:04"
"Trade","0.60239700","ETH","30.00000000","NEB","0.00060300","ETH","Binance","","","2018-01-24 18:47:04"
"Trade","3.99600000","ETH","200.00000000","NEB","0.00400000","ETH","Binance","","","2018-01-24 18:47:04"
"Trade","0.02997000","ETH","1.50000000","NEB","0.00003000","ETH","Binance","","","2018-01-24 18:47:04"
"Trade","0.99770170","ETH","49.96000000","NEB","0.00099870","ETH","Binance","","","2018-01-24 18:47:04"
"Deposit","900.00000000","GVT","","","","","Binance","","","2018-01-24 17:19:53"
"Withdrawal","","","900.00000000","GVT","","","ETH Transaction","","","2018-01-24 17:19:45"
"Deposit","300.00000000","NEBL","","","","","Binance","","","2018-01-24 17:19:44"
"Deposit","1913.46579270","NEBL","","","","","Binance","","","2018-01-24 16:55:01"
"Trade","0.50125600","ETH","500.00000000","USD","1.25000000","USD","Gemini","","","2018-01-23 15:36:10"
"Deposit","500.00000000","USD","","","","","Gemini","","","2018-01-23 15:35:49"
"Deposit","3543.51900000","ARY","","","","","ETH Transaction","","","2018-01-20 13:07:55"
"Deposit","0.10068305","ETH","","","","","ETH Transaction","","","2018-01-19 07:22:13"
"Trade","2.74996609","ETH","3000.00000000","USD","44.04000000","USD","Coinbase","","","2018-01-18 16:22:36"
"Withdrawal","","","17.00000000","ETH","","","ETH Transaction","","","2018-01-17 01:47:22"
"Deposit","11.04645174","ETH","","","","","ETH Transaction","","","2018-01-17 01:40:46"
"Withdrawal","","","11.04645174","ETH","","","Binance","","","2018-01-17 01:37:47"
"Deposit","4.00000000","ETH","","","","","ETH Transaction","","","2018-01-17 01:37:18"
"Trade","0.27272700","ETH","0.02437890","BTC","0.00027300","ETH","Binance","","","2018-01-17 01:33:57"
"Trade","0.00449550","BTC","0.90000000","GAS","0.00000450","BTC","Binance","","","2018-01-17 01:32:10"
"Trade","0.00999000","BTC","2.00000000","GAS","0.00001000","BTC","Binance","","","2018-01-17 01:32:00"
"Trade","0.00994005","BTC","1.99000000","GAS","0.00000995","BTC","Binance","","","2018-01-17 01:31:55"
"Trade","0.37311406","ETH","12.45000000","NEB","0.00037349","ETH","Binance","","","2018-01-17 01:17:45"
"Trade","0.44953501","ETH","15.00000000","NEB","0.00044999","ETH","Binance","","","2018-01-17 01:17:45"
"Trade","0.61556328","ETH","20.54000000","NEB","0.00061618","ETH","Binance","","","2018-01-17 01:17:39"
"Trade","0.03776094","ETH","1.26000000","NEB","0.00003780","ETH","Binance","","","2018-01-17 01:17:37"
"Trade","0.03776094","ETH","1.26000000","NEB","0.00003780","ETH","Binance","","","2018-01-17 01:17:37"
"Trade","0.03776094","ETH","1.26000000","NEB","0.00003780","ETH","Binance","","","2018-01-17 01:17:37"
"Trade","0.03776094","ETH","1.26000000","NEB","0.00003780","ETH","Binance","","","2018-01-17 01:17:37"
"Trade","0.32096800","ETH","10.71000000","NEB","0.00032129","ETH","Binance","","","2018-01-17 01:17:34"
"Trade","0.00389597","ETH","0.13000000","NEB","0.00000390","ETH","Binance","","","2018-01-17 01:17:33"
"Trade","0.29129869","ETH","9.72000000","NEB","0.00029159","ETH","Binance","","","2018-01-17 01:17:33"
"Trade","0.31767141","ETH","10.60000000","NEB","0.00031799","ETH","Binance","","","2018-01-17 01:17:31"
"Trade","0.02996900","ETH","1.00000000","NEB","0.00003000","ETH","Binance","","","2018-01-17 01:17:30"
"Trade","0.13845678","ETH","4.62000000","NEB","0.00013860","ETH","Binance","","","2018-01-17 01:17:27"
"Trade","1.65129196","ETH","55.10000000","NEB","0.00165294","ETH","Binance","","","2018-01-17 01:17:27"
"Trade","0.28920086","ETH","9.65000000","NEB","0.00028949","ETH","Binance","","","2018-01-17 01:17:26"
"Trade","0.33025839","ETH","11.02000000","NEB","0.00033059","ETH","Binance","","","2018-01-17 01:17:25"
"Trade","1.34201186","ETH","44.78000000","NEB","0.00134336","ETH","Binance","","","2018-01-17 01:17:23"
"Trade","0.48729596","ETH","16.26000000","NEB","0.00048778","ETH","Binance","","","2018-01-17 01:17:19"
"Trade","0.56941102","ETH","19.00000000","NEB","0.00056998","ETH","Binance","","","2018-01-17 01:17:17"
"Trade","3.12816432","ETH","104.38000000","NEB","0.00313130","ETH","Binance","","","2018-01-17 01:17:09"
"Deposit","4.00000000","ETH","","","","","ETH Transaction","","","2018-01-15 21:11:32"
"Withdrawal","","","55.00000000","ETH","","","Binance","","","2018-01-15 13:50:00"
"Trade","0.71292037","ETH","4.98000000","NEO","0.00071363","ETH","Binance","","","2018-01-15 13:43:53"
"Trade","1.39864096","ETH","9.77000000","NEO","0.00140004","ETH","Binance","","","2018-01-15 13:43:52"
"Trade","1.00209690","ETH","7.00000000","NEO","0.00100310","ETH","Binance","","","2018-01-15 13:43:51"
"Trade","6.12424363","ETH","42.78000000","NEO","0.00613037","ETH","Binance","","","2018-01-15 13:43:51"
"Trade","0.14315670","ETH","1.00000000","NEO","0.00014330","ETH","Binance","","","2018-01-15 13:43:51"
"Trade","0.32496571","ETH","2.27000000","NEO","0.00032529","ETH","Binance","","","2018-01-15 13:43:50"
"Trade","0.24766109","ETH","1.73000000","NEO","0.00024791","ETH","Binance","","","2018-01-15 13:43:50"
"Trade","0.12740946","ETH","0.89000000","NEO","0.00012754","ETH","Binance","","","2018-01-15 13:43:50"
"Trade","0.36075488","ETH","2.52000000","NEO","0.00036112","ETH","Binance","","","2018-01-15 13:43:50"
"Trade","0.36075488","ETH","2.52000000","NEO","0.00036112","ETH","Binance","","","2018-01-15 13:43:50"
"Trade","0.36075488","ETH","2.52000000","NEO","0.00036112","ETH","Binance","","","2018-01-15 13:43:49"
"Trade","0.36075488","ETH","2.52000000","NEO","0.00036112","ETH","Binance","","","2018-01-15 13:43:49"
"Trade","0.36075488","ETH","2.52000000","NEO","0.00036112","ETH","Binance","","","2018-01-15 13:43:49"
"Trade","0.36075488","ETH","2.52000000","NEO","0.00036112","ETH","Binance","","","2018-01-15 13:43:49"
"Trade","0.52109039","ETH","3.64000000","NEO","0.00052161","ETH","Binance","","","2018-01-15 13:43:49"
"Trade","0.36075488","ETH","2.52000000","NEO","0.00036112","ETH","Binance","","","2018-01-15 13:43:49"
"Trade","0.36075488","ETH","2.52000000","NEO","0.00036112","ETH","Binance","","","2018-01-15 13:43:49"
"Trade","5.09637852","ETH","35.60000000","NEO","0.00510148","ETH","Binance","","","2018-01-15 13:43:49"
"Trade","0.71721507","ETH","5.01000000","NEO","0.00071793","ETH","Binance","","","2018-01-15 13:43:48"
"Trade","1.47451401","ETH","10.30000000","NEO","0.00147599","ETH","Binance","","","2018-01-15 13:43:48"
"Trade","0.32210257","ETH","2.25000000","NEO","0.00032243","ETH","Binance","","","2018-01-15 13:43:48"
"Trade","0.32210257","ETH","2.25000000","NEO","0.00032243","ETH","Binance","","","2018-01-15 13:43:48"
"Trade","0.02004194","ETH","0.14000000","NEO","0.00002006","ETH","Binance","","","2018-01-15 13:43:47"
"Trade","0.10593596","ETH","0.74000000","NEO","0.00010604","ETH","Binance","","","2018-01-15 13:43:47"
"Trade","0.24193482","ETH","1.69000000","NEO","0.00024218","ETH","Binance","","","2018-01-15 13:43:46"
"Trade","30.38071487","ETH","212.22000000","NEO","0.03041113","ETH","Binance","","","2018-01-15 13:43:46"
"Trade","0.47528024","ETH","3.32000000","NEO","0.00047576","ETH","Binance","","","2018-01-15 13:43:44"
"Trade","1.74364861","ETH","12.18000000","NEO","0.00174539","ETH","Binance","","","2018-01-15 13:43:44"
"Trade","0.06298895","ETH","0.44000000","NEO","0.00006305","ETH","Binance","","","2018-01-15 13:43:43"
"Trade","0.11595693","ETH","0.81000000","NEO","0.00011607","ETH","Binance","","","2018-01-15 13:43:43"
"Trade","0.01145254","ETH","0.08000000","NEO","0.00001146","ETH","Binance","","","2018-01-15 13:43:42"
"Trade","0.00143157","ETH","0.01000000","NEO","0.00000143","ETH","Binance","","","2018-01-15 13:43:41"
"Trade","0.23764012","ETH","1.66000000","NEO","0.00023788","ETH","Binance","","","2018-01-15 13:43:41"
"Trade","0.08446245","ETH","0.59000000","NEO","0.00008455","ETH","Binance","","","2018-01-15 13:43:35"
"Trade","0.08446245","ETH","0.59000000","NEO","0.00008455","ETH","Binance","","","2018-01-15 13:43:35"
"Deposit","4.88940000","GAS","","","","","Binance","","","2018-01-15 13:42:27"
"Deposit","384.00000000","NEO","","","","","Binance","","","2018-01-15 13:40:07"
"Deposit","0.11648413","ETH","","","","","ETH Transaction","","","2018-01-12 07:13:31"
"Withdrawal","","","5.00000000","ETH","","","ETH Transaction","","","2018-01-08 20:54:38"
"Deposit","23655.00000000","ARY","","","","","ETH Transaction","","","2018-01-08 20:54:38"
"Withdrawal","","","10.00000000","ETH","","","ETH Transaction","","","2018-01-08 14:53:10"
"Deposit","17.43605697","ETH","","","","","ETH Transaction","","","2018-01-08 14:39:09"
"Trade","14.82996630","ETH","1.11502794","BTC","0.00278053","BTC","Bittrex","","","2018-01-08 03:34:25"
"Trade","0.00544418","ETH","0.00040660","BTC","0.00000101","BTC","Bittrex","","","2018-01-08 03:33:39"
"Trade","1.11537078","BTC","55908.31005600","LMC","0.00279536","BTC","Bittrex","","","2018-01-08 03:19:55"
"Trade","7.61764649","ETH","0.56962980","BTC","0.00142048","BTC","Bittrex","","","2018-01-08 03:09:06"
"Trade","0.54463500","BTC","30000.00000000","LMC","0.00136499","BTC","Bittrex","","","2018-01-08 03:05:44"
"Withdrawal","","","0.20000000","ETH","","","ETH Transaction","","","2018-01-07 00:35:55"
"Deposit","0.25731358","ETH","","","","","ETH Transaction","","","2018-01-07 00:27:23"
"Trade","6.18552645","ETH","6000.00000000","USD","88.09000000","USD","Coinbase","","","2018-01-05 17:42:19"
"Trade","1.82041579","ETH","1.61502497","DASH","0.00456241","ETH","Bittrex","","","2018-01-05 14:36:53"
"Trade","0.44889779","ETH","1.80000000","LTC","0.00112505","ETH","Bittrex","","","2018-01-05 14:22:17"
"Deposit","0.01001822","ETH","","","","","ETH Transaction","","","2018-01-05 07:03:16"
"Trade","0.46472104","ETH","464.00000000","USD","6.81000000","USD","Coinbase","","","2018-01-04 22:24:26"
"Trade","5.03272925","ETH","5000.00000000","USD","73.41000000","USD","Coinbase","","","2018-01-04 20:40:01"
"Deposit","350.00000000","NEBL","","","","","Binance","","","2018-01-04 18:14:39"
"Deposit","13209.00000000","TIO","","","","","ETH Transaction","","","2018-01-03 22:57:50"
"Withdrawal","","","22.01500000","ETH","","","ETH Transaction","","","2018-01-03 22:16:12"
"Deposit","22.01000000","ETH","","","","","ETH Transaction","","","2018-01-03 21:23:54"
"Withdrawal","","","22.01000000","ETH","","","Binance","","","2018-01-03 18:31:28"
"Trade","0.48461490","ETH","231.00000000","BRD","0.00048510","ETH","Binance","","","2018-01-03 15:38:43"
"Trade","0.21618660","ETH","103.00000000","BRD","0.00021640","ETH","Binance","","","2018-01-03 15:38:43"
"Trade","0.05664330","ETH","27.00000000","BRD","0.00005670","ETH","Binance","","","2018-01-03 15:38:43"
"Trade","0.29790180","ETH","142.00000000","BRD","0.00029820","ETH","Binance","","","2018-01-03 15:38:43"
"Trade","0.44095760","ETH","210.00000000","BRD","0.00044140","ETH","Binance","","","2018-01-03 15:38:43"
"Trade","0.10489500","ETH","50.00000000","BRD","0.00010500","ETH","Binance","","","2018-01-03 15:38:43"
"Trade","1.47692160","ETH","704.00000000","BRD","0.00147840","ETH","Binance","","","2018-01-03 15:38:43"
"Trade","0.01471817","ETH","7.00000000","BRD","0.00001473","ETH","Binance","","","2018-01-03 15:38:43"
"Trade","0.01049549","ETH","5.00000000","BRD","0.00001051","ETH","Binance","","","2018-01-03 15:38:43"
"Trade","1.47692160","ETH","704.00000000","BRD","0.00147840","ETH","Binance","","","2018-01-03 15:38:43"
"Trade","0.02100597","ETH","10.00000000","BRD","0.00002103","ETH","Binance","","","2018-01-03 15:38:43"
"Trade","0.54571374","ETH","260.00000000","BRD","0.00054626","ETH","Binance","","","2018-01-03 15:38:43"
"Trade","0.45104850","ETH","215.00000000","BRD","0.00045150","ETH","Binance","","","2018-01-03 15:38:43"
"Trade","1.47692160","ETH","704.00000000","BRD","0.00147840","ETH","Binance","","","2018-01-03 15:38:43"
"Trade","3.06922770","ETH","1463.00000000","BRD","0.00307230","ETH","Binance","","","2018-01-03 15:38:43"
"Trade","3.06922770","ETH","1463.00000000","BRD","0.00307230","ETH","Binance","","","2018-01-03 15:38:43"
"Trade","0.65244690","ETH","311.00000000","BRD","0.00065310","ETH","Binance","","","2018-01-03 15:38:43"
"Trade","0.84125790","ETH","401.00000000","BRD","0.00084210","ETH","Binance","","","2018-01-03 15:38:43"
"Trade","1.47692160","ETH","704.00000000","BRD","0.00147840","ETH","Binance","","","2018-01-03 15:38:43"
"Trade","0.99912348","ETH","476.00000000","BRD","0.00100012","ETH","Binance","","","2018-01-03 15:38:43"
"Trade","0.01049549","ETH","5.00000000","BRD","0.00001051","ETH","Binance","","","2018-01-03 15:38:43"
"Trade","4.22059418","ETH","2010.00000000","BRD","0.00422482","ETH","Binance","","","2018-01-03 15:38:43"
"Trade","0.01472516","ETH","7.00000000","BRD","0.00001474","ETH","Binance","","","2018-01-03 15:38:43"
"Deposit","10212.27944000","BRD","","","","","Binance","","","2018-01-03 14:56:51"
"Withdrawal","","","10212.27944000","BRD","","","ETH Transaction","","","2018-01-03 14:56:23"
"Withdrawal","","","0.49500000","ETH","","","Binance","","","2018-01-01 17:14:24"
"Withdrawal","","","0.05500000","ETH","","","Binance","","","2018-01-01 16:32:58"
"Trade","0.29156414","ETH","19.72000000","GVT","0.00029186","ETH","Binance","","","2018-01-01 15:10:16"
"Trade","0.24720854","ETH","16.72000000","GVT","0.00024746","ETH","Binance","","","2018-01-01 14:53:28"
"Trade","0.73926000","ETH","50.00000000","GVT","0.00074000","ETH","Binance","","","2018-01-01 14:49:44"
"Trade","0.00961038","ETH","0.65000000","GVT","0.00000962","ETH","Binance","","","2018-01-01 14:49:12"
"Trade","0.19087693","ETH","12.91000000","GVT","0.00019107","ETH","Binance","","","2018-01-01 14:49:03"
"Deposit","1000.00000000","GVT","","","","","Binance","","","2018-01-01 14:15:31"
"Withdrawal","","","1000.00000000","GVT","","","ETH Transaction","","","2018-01-01 14:14:58"
"Withdrawal","","","70.79164000","GVT","","","Binance","","","2018-01-01 01:12:58"
"Withdrawal","","","4675.00000000","BRD","","","ETH Transaction","","","2017-12-23 23:41:47"
"Deposit","14887.27944000","BRD","","","","","ETH Transaction","","","2017-12-23 23:15:34"
"Trade","0.00770110","BTC","0.40000000","LTC","0.00001930","BTC","Bittrex","","","2017-12-21 21:00:21"
"Trade","0.01735488","BTC","0.20207181","DASH","0.00004348","BTC","Bittrex","","","2017-12-21 21:00:10"
"Deposit","73560.34600000","BNTY","","","","","ETH Transaction","","","2017-12-19 20:16:50"
"Withdrawal","","","4.57600000","ETH","","","ETH Transaction","","","2017-12-19 19:23:27"
"Deposit","3.86121599","ETH","","","","","ETH Transaction","","","2017-12-19 19:18:40"
"Withdrawal","","","3.86121599","ETH","","","Binance","","","2017-12-19 19:14:20"
"Trade","3.86938075","ETH","395.23000000","GVT","0.00387325","ETH","Binance","","","2017-12-19 19:13:24"
"Deposit","0.75686257","ETH","","","","","ETH Transaction","","","2017-12-19 19:03:08"
"Deposit","395.23300000","GVT","","","","","Binance","","","2017-12-19 18:59:15"
"Withdrawal","","","395.23300000","GVT","","","ETH Transaction","","","2017-12-19 18:58:22"
"Trade","0.47982070","ETH","0.34421969","DASH","0.00120255","ETH","Bittrex","","","2017-12-19 18:49:15"
"Trade","0.16841793","ETH","0.40000000","LTC","0.00042210","ETH","Bittrex","","","2017-12-19 18:48:48"
"Trade","0.10702498","ETH","0.00499982","BTC","0.00001246","BTC","Bittrex","","","2017-12-19 18:44:07"
"Trade","0.00500930","BTC","0.07690434","DASH","0.00001255","BTC","Bittrex","","","2017-12-19 18:43:21"
"Withdrawal","","","18999.00000000","FBL","","","ETH Transaction","","","2017-12-18 21:32:27"
"Deposit","769.16588585","POLL","","","","","ETH Transaction","","","2017-12-18 21:18:21"
"Deposit","0.01000000","ETH","","","","","ETH Transaction","","","2017-12-18 21:07:37"
"Withdrawal","","","0.01000000","ETH","","","ETH Transaction","","","2017-12-18 21:07:37"
"Trade","255.32164334","STEEM","0.03374831","BTC","0.00008416","BTC","Bittrex","","","2017-12-17 23:13:23"
"Withdrawal","","","16.28021000","ETH","","","ETH Transaction","","","2017-12-17 14:21:47"
"Trade","59.67104155","NEBL","0.01263221","BTC","0.00002521","BTC","Cryptopia","","","2017-12-17 14:09:00"
"Trade","72.25433526","NEBL","0.01529453","BTC","0.00003053","BTC","Cryptopia","","","2017-12-17 14:09:00"
"Trade","1.40859000","GVT","0.01621923","ETH","0.00141000","GVT","Binance","","","2017-12-17 14:07:42"
"Trade","16.00000000","NEBL","0.00336672","BTC","0.00000672","BTC","Cryptopia","","","2017-12-17 14:07:00"
"Trade","12.21777000","GVT","0.14068169","ETH","0.01223000","GVT","Binance","","","2017-12-17 14:06:13"
"Trade","57.66228000","GVT","0.66216384","ETH","0.05772000","GVT","Binance","","","2017-12-17 14:06:13"
"Trade","880.20697847","XEM","0.82049579","ETH","0.00204611","ETH","Bittrex","","","2017-12-17 14:04:39"
"Trade","0.00000200","BTC","0.00004337","ETH","","","Cryptopia","","","2017-12-17 13:59:00"
"Trade","0.01354486","BTC","0.35530000","ETH","0.00002714","BTC","Cryptopia","","","2017-12-17 13:59:00"
"Trade","0.01774843","BTC","0.46555663","ETH","0.00003557","BTC","Cryptopia","","","2017-12-17 13:59:00"
"Deposit","0.90154700","ETH","","","","","ETH Transaction","","","2017-12-17 13:55:37"
"Withdrawal","","","0.90154700","ETH","","","Gemini","","","2017-12-17 13:55:34"
"Deposit","0.82090000","ETH","","","","","Binance","","","2017-12-17 13:52:08"
"Withdrawal","","","0.82090000","ETH","","","Gemini","","","2017-12-17 13:50:56"
"Deposit","9.60200000","ETH","","","","","ETH Transaction","","","2017-12-17 13:50:32"
"Withdrawal","","","0.82090000","ETH","","","Gemini","","","2017-12-17 13:46:16"
"Withdrawal","","","0.82090000","ETH","","","Gemini","","","2017-12-17 13:39:24"
"Trade","0.90154700","ETH","0.03381119","BTC","0.00008432","BTC","Gemini","","","2017-12-17 13:07:40"
"Deposit","2.03545250","ETH","","","","","ETH Transaction","","","2017-12-17 02:49:42"
"Withdrawal","","","2.03545250","ETH","","","Binance","","","2017-12-17 02:45:37"
"Deposit","2.10120173","ETH","","","","","ETH Transaction","","","2017-12-17 02:44:24"
"Trade","2.04545250","ETH","225.00000000","GVT","0.00204750","ETH","Binance","","","2017-12-17 02:44:08"
"Deposit","1.62534865","ETH","","","","","ETH Transaction","","","2017-12-17 02:42:22"
"Trade","1.62984442","ETH","0.05971720","BTC","0.00011920","BTC","Cryptopia","","","2017-12-17 02:40:00"
"Trade","0.00050423","ETH","0.00001804","BTC","0.00000004","BTC","Cryptopia","","","2017-12-17 02:39:00"
"Trade","0.01590513","BTC","75.51300651","NEBL","0.00003187","BTC","Cryptopia","","","2017-12-17 02:37:00"
"Trade","0.01045804","BTC","48.95664408","NEBL","0.00002096","BTC","Cryptopia","","","2017-12-17 02:35:00"
"Trade","1.13715000","ETH","15.00000000","NEO","0.00284999","ETH","Bittrex","","","2017-12-17 02:28:30"
"Deposit","225.00000000","GVT","","","","","Binance","","","2017-12-17 02:26:29"
"Withdrawal","","","225.00000000","GVT","","","ETH Transaction","","","2017-12-17 02:25:19"
"Deposit","219.00000000","GVT","","","","","ETH Transaction","","","2017-12-17 02:24:26"
"Trade","0.03337212","BTC","155.53034941","NEBL","0.00006688","BTC","Cryptopia","","","2017-12-17 02:22:00"
"Trade","0.72537633","ETH","9.56834627","NEO","0.00181798","ETH","Bittrex","","","2017-12-17 02:10:04"
"Trade","0.14975375","ETH","0.10008401","DASH","0.00037532","ETH","Bittrex","","","2017-12-17 02:04:49"
"Withdrawal","","","219.00000000","GVT","","","ETH Transaction","","","2017-12-17 01:55:56"
"Trade","0.09092165","ETH","0.20000000","LTC","0.00022787","ETH","Bittrex","","","2017-12-17 01:54:55"
"Trade","2.02162465","NEO","0.00519234","BTC","0.00001294","BTC","Bittrex","","","2017-12-16 13:24:08"
"Trade","322.06990380","NEO","0.82688295","BTC","0.00206198","BTC","Bittrex","","","2017-12-16 13:12:59"
"Trade","0.86575940","BTC","2799771.66650480","DOGE","0.00216979","BTC","Bittrex","","","2017-12-16 12:39:59"
"Trade","5.18074737","ETH","0.20800795","BTC","0.00051869","BTC","Bittrex","","","2017-12-15 21:00:21"
"Withdrawal","","","13.73151762","ETH","","","Binance","","","2017-12-15 20:50:02"
"Trade","11.84609956","ETH","791675.37500000","SC","0.02968944","ETH","Bittrex","","","2017-12-15 20:44:43"
"Trade","0.30238501","ETH","0.69999998","LTC","0.00075785","ETH","Bittrex","","","2017-12-15 20:34:25"
"Trade","0.64188132","ETH","0.49960407","DASH","0.00160872","ETH","Bittrex","","","2017-12-15 20:30:26"
"Deposit","13.74089383","ETH","","","","","Binance","","","2017-12-14 22:47:46"
"Withdrawal","","","13.75000000","ETH","","","ETH Transaction","","","2017-12-14 19:55:33"
"Withdrawal","","","6062.00000000","UKG","","","ETH Transaction","","","2017-12-14 15:16:01"
"Withdrawal","","","274902.00000000","LEND","","","ETH Transaction","","","2017-12-14 14:15:36"
"Deposit","271.09300000","PRIX","","","","","ETH Transaction","","","2017-12-12 21:30:43"
"Deposit","274902.00000000","LEND","","","","","ETH Transaction","","","2017-12-12 21:23:16"
"Trade","9.06033737","NEO","0.02099985","BTC","0.00005236","BTC","Bittrex","","","2017-12-12 20:47:32"
"Deposit","4954.17037000","GVT","","","","","ETH Transaction","","","2017-12-12 20:46:57"
"Trade","0.02094720","BTC","945.08074361","XRP","0.00005249","BTC","Bittrex","","","2017-12-12 20:43:36"
"Withdrawal","","","4954.17037000","GVT","","","Binance","","","2017-12-12 20:39:30"
"Withdrawal","","","74.00000000","NEO","","","Binance","","","2017-12-12 20:36:51"
"Trade","18.23175000","NEO","1.16070000","ETH","0.01825000","NEO","Binance","","","2017-12-12 20:32:31"
"Trade","42.88707000","NEO","2.73034800","ETH","0.04293000","NEO","Binance","","","2017-12-12 20:32:31"
"Trade","5.99400000","NEO","0.38160000","ETH","0.00600000","NEO","Binance","","","2017-12-12 20:32:29"
"Trade","6.99300000","NEO","0.44520000","ETH","0.00700000","NEO","Binance","","","2017-12-12 20:32:29"
"Trade","14.36562000","GVT","0.12225876","ETH","0.01438000","GVT","Binance","","","2017-12-12 19:49:52"
"Trade","4.99500000","GVT","0.04251000","ETH","0.00500000","GVT","Binance","","","2017-12-12 19:49:52"
"Trade","6.47352000","GVT","0.05509296","ETH","0.00648000","GVT","Binance","","","2017-12-12 19:48:41"
"Trade","164.17566000","GVT","1.39721868","ETH","0.16434000","GVT","Binance","","","2017-12-12 19:47:00"
"Trade","46.84311000","GVT","0.39865878","ETH","0.04689000","GVT","Binance","","","2017-12-12 19:46:50"
"Trade","170.69913000","GVT","1.45273674","ETH","0.17087000","GVT","Binance","","","2017-12-12 19:46:49"
"Trade","150.33951000","GVT","1.27946598","ETH","0.15049000","GVT","Binance","","","2017-12-12 19:41:00"
"Trade","307.37232000","GVT","2.61589536","ETH","0.30768000","GVT","Binance","","","2017-12-12 19:41:00"
"Trade","113.59629000","GVT","0.96676242","ETH","0.11371000","GVT","Binance","","","2017-12-12 19:41:00"
"Trade","38.61135000","GVT","0.32860230","ETH","0.03865000","GVT","Binance","","","2017-12-12 19:40:56"
"Trade","90.03987000","GVT","0.76628526","ETH","0.09013000","GVT","Binance","","","2017-12-12 19:40:55"
"Trade","243.56619000","GVT","2.07287262","ETH","0.24381000","GVT","Binance","","","2017-12-12 19:40:54"
"Trade","18.80118000","GVT","0.16000764","ETH","0.01882000","GVT","Binance","","","2017-12-12 19:40:53"
"Trade","15.41457000","GVT","0.13118586","ETH","0.01543000","GVT","Binance","","","2017-12-12 19:40:53"
"Trade","7.50249000","GVT","0.06385002","ETH","0.00751000","GVT","Binance","","","2017-12-12 19:40:53"
"Trade","372.93669000","GVT","3.17388162","ETH","0.37331000","GVT","Binance","","","2017-12-12 19:40:52"
"Trade","18.79119000","GVT","0.15992262","ETH","0.01881000","GVT","Binance","","","2017-12-12 19:40:52"
"Trade","3170.14668000","GVT","26.97956664","ETH","3.17332000","GVT","Binance","","","2017-12-12 18:43:05"
"Deposit","46.88517097","ETH","","","","","Binance","","","2017-12-12 15:25:54"
"Trade","46.88717097","ETH","1.68264262","BTC","0.00419603","BTC","Bittrex","","","2017-12-12 15:19:48"
"Trade","0.18707998","BTC","2.06779329","BCH","0.00046886","BTC","Bittrex","","","2017-12-12 15:02:04"
"Trade","0.39421623","BTC","1143.49772727","MTL","0.00098800","BTC","Bittrex","","","2017-12-12 14:59:40"
"Trade","1.10147125","BTC","6495481.00000000","DOGE","0.00276029","BTC","Bittrex","","","2017-12-12 08:15:23"
"Withdrawal","","","274902.00000000","LEND","","","ETH Transaction","","","2017-12-12 04:29:15"
"Withdrawal","","","0.84131490","ETH","","","ETH Transaction","","","2017-12-11 19:14:26"
"Deposit","0.86131490","ETH","","","","","ETH Transaction","","","2017-12-11 19:09:07"
"Trade","0.86331490","ETH","0.02708930","BTC","0.00006755","BTC","Bittrex","","","2017-12-11 19:03:22"
"Trade","0.00457243","BTC","0.10076488","DASH","0.00001145","BTC","Bittrex","","","2017-12-11 19:00:15"
"Trade","0.00461344","BTC","0.50000000","LTC","0.00001156","BTC","Bittrex","","","2017-12-10 21:09:58"
"Trade","0.00433572","BTC","0.09968545","DASH","0.00001086","BTC","Bittrex","","","2017-12-10 21:09:13"
"Trade","1.68762600","ETH","0.04990943","BTC","0.00012446","BTC","Gemini","","","2017-12-10 16:28:32"
"Trade","2587.19460561","NEBL","0.55995167","BTC","0.00111767","BTC","Cryptopia","","","2017-12-10 16:04:00"
"Trade","1000.00000000","NEBL","0.21643200","BTC","0.00043200","BTC","Cryptopia","","","2017-12-10 15:58:00"
"Trade","0.00005700","ETH","0.03000000","USD","","","Gemini","","","2017-12-10 15:54:09"
"Trade","0.00992900","ETH","4.50000000","USD","0.01000000","USD","Gemini","","","2017-12-10 15:53:53"
"Trade","0.01875300","ETH","8.51000000","USD","0.02000000","USD","Gemini","","","2017-12-10 15:53:53"
"Trade","0.00992700","ETH","4.50000000","USD","0.01000000","USD","Gemini","","","2017-12-10 15:53:53"
"Trade","0.73260000","ETH","332.49000000","USD","0.83000000","USD","Gemini","","","2017-12-10 15:53:53"
"Trade","1477.44281296","NEBL","0.31976626","BTC","0.00063826","BTC","Cryptopia","","","2017-12-10 15:53:00"
"Trade","3.50000000","NEBL","0.00075751","BTC","0.00000151","BTC","Cryptopia","","","2017-12-10 15:51:00"
"Withdrawal","","","0.20819390","BTC","0.17213062","BTC","BTC Transaction","","","2017-12-10 11:51:11"
"Trade","0.01356785","BTC","249.40741876","STORJ","0.00003399","BTC","Bittrex","","","2017-12-10 01:55:01"
"Trade","88.53578438","STORJ","0.00497039","BTC","0.00001239","BTC","Bittrex","","","2017-12-10 01:43:42"
"Trade","0.00497035","BTC","0.09965601","DASH","0.00001245","BTC","Bittrex","","","2017-12-10 01:41:47"
"Trade","160.87163438","STORJ","0.00903131","BTC","0.00002251","BTC","Bittrex","","","2017-12-10 01:38:16"
"Trade","0.00902196","BTC","376.54358942","SPR","0.00002261","BTC","Bittrex","","","2017-12-09 23:10:24"
"Trade","190.07209038","SPR","0.00494483","BTC","0.00001232","BTC","Bittrex","","","2017-12-09 15:41:37"
"Trade","186.47149904","SPR","0.00486037","BTC","0.00001212","BTC","Bittrex","","","2017-12-09 15:20:49"
"Trade","0.00486037","BTC","0.50000000","LTC","0.00001217","BTC","Bittrex","","","2017-12-09 13:53:48"
"Trade","0.00500785","BTC","0.09916090","DASH","0.00001255","BTC","Bittrex","","","2017-12-09 13:42:10"
"Withdrawal","","","0.09987502","BTC","0.23557658","BTC","BTC Transaction","","","2017-12-08 19:32:37"
"Trade","10.86156388","DASH","0.52999667","BTC","0.00132168","BTC","Bittrex","","","2017-12-08 12:50:50"
"Trade","0.52859707","BTC","1039062.50000000","XVG","0.00132479","BTC","Bittrex","","","2017-12-08 12:48:32"
"Deposit","1266.06217000","GVT","","","","","ETH Transaction","","","2017-12-08 11:30:02"
"Withdrawal","","","1266.06217000","GVT","","","Binance","","","2017-12-08 11:26:59"
"Trade","1143.49772727","MTL","0.37803732","BTC","0.00094264","BTC","Bittrex","","","2017-12-08 10:52:38"
"Trade","0.37918224","BTC","43901.66008425","SNGLS","0.00095029","BTC","Bittrex","","","2017-12-08 10:42:44"
"Trade","314.46522000","GVT","4.37544200","ETH","0.31478000","GVT","Binance","","","2017-12-07 15:51:06"
"Trade","133.22664000","GVT","1.85370400","ETH","0.13336000","GVT","Binance","","","2017-12-07 15:50:46"
"Deposit","6.22913568","ETH","","","","","Binance","","","2017-12-07 15:25:40"
"Trade","6.23113568","ETH","0.17202117","BTC","0.00042897","BTC","Bittrex","","","2017-12-07 15:21:12"
"Trade","0.17202769","BTC","3444.35443138","TKN","0.00043113","BTC","Bittrex","","","2017-12-07 15:13:06"
"Deposit","0.20819390","BTC","","","0.00036833","BTC","BTC Transaction","","","2017-12-07 05:15:52"
"Trade","459.08046000","GVT","6.66333000","ETH","0.45954000","GVT","Binance","","","2017-12-07 03:15:01"
"Trade","4.98501000","GVT","0.07235500","ETH","0.00499000","GVT","Binance","","","2017-12-07 03:10:08"
"Trade","4.99500000","GVT","0.07250000","ETH","0.00500000","GVT","Binance","","","2017-12-07 03:10:08"
"Trade","4.99500000","GVT","0.07250000","ETH","0.00500000","GVT","Binance","","","2017-12-07 03:10:08"
"Trade","24.97500000","GVT","0.36250000","ETH","0.02500000","GVT","Binance","","","2017-12-07 03:08:22"
"Trade","26.64333000","GVT","0.38671500","ETH","0.02667000","GVT","Binance","","","2017-12-07 03:05:57"
"Trade","53.94600000","GVT","0.78300000","ETH","0.05400000","GVT","Binance","","","2017-12-07 03:05:57"
"Trade","25.06491000","GVT","0.36380500","ETH","0.02509000","GVT","Binance","","","2017-12-07 03:03:33"
"Trade","15.98400000","GVT","0.22934400","ETH","0.01600000","GVT","Binance","","","2017-12-07 02:24:33"
"Trade","35.57439000","GVT","0.51043374","ETH","0.03561000","GVT","Binance","","","2017-12-07 02:23:39"
"Trade","18.44154000","GVT","0.26460564","ETH","0.01846000","GVT","Binance","","","2017-12-07 02:23:33"
"Trade","121.09878000","GVT","1.73756748","ETH","0.12122000","GVT","Binance","","","2017-12-07 02:23:33"
"Trade","23.08689000","GVT","0.33125874","ETH","0.02311000","GVT","Binance","","","2017-12-07 02:23:33"
"Deposit","11.85000000","ETH","","","","","Binance","","","2017-12-07 02:03:51"
"Withdrawal","","","11.85000000","ETH","","","ETH Transaction","","","2017-12-07 02:03:47"
"Deposit","6062.00000000","UKG","","","","","ETH Transaction","","","2017-12-07 00:17:57"
"Withdrawal","","","6062.00000000","UKG","","","ETH Transaction","","","2017-12-07 00:17:57"
"Deposit","274902.00000000","LEND","","","","","ETH Transaction","","","2017-12-07 00:15:21"
"Withdrawal","","","274902.00000000","LEND","","","ETH Transaction","","","2017-12-07 00:15:21"
"Withdrawal","","","11.85017651","ETH","","","ETH Transaction","","","2017-12-07 00:01:00"
"Deposit","274902.00000000","LEND","","","","","ETH Transaction","","","2017-12-06 23:58:23"
"Deposit","7.27535170","ETH","","","","","ETH Transaction","","","2017-12-06 22:15:07"
"Trade","3.05606140","ETH","0.09441493","BTC","0.00023544","BTC","Bittrex","","","2017-12-06 22:09:04"
"Trade","0.22517885","BTC","364.63121851","LSK","0.00056431","BTC","Bittrex","","","2017-12-06 22:08:37"
"Trade","4.22129030","ETH","0.13076389","BTC","0.00032608","BTC","Bittrex","","","2017-12-06 22:05:07"
"Trade","945.08074361","XRP","201.61595571","USDT","0.50278293","USDT","Bittrex","","","2017-12-06 21:50:26"
"Deposit","4.53875589","ETH","","","","","ETH Transaction","","","2017-12-06 21:37:50"
"Trade","3.26885140","ETH","0.09987501","BTC","0.00024906","BTC","Bittrex","","","2017-12-06 21:16:31"
"Deposit","0.09987502","BTC","","","0.00035203","BTC","BTC Transaction","","","2017-12-06 20:03:08"
"Trade","1.46648045","NEO","49.99968760","USDT","0.12468750","USDT","Bittrex","","","2017-12-06 17:45:45"
"Trade","0.79725202","BCH","0.09058742","BTC","0.00022587","BTC","Bittrex","","","2017-12-06 01:22:49"
"Trade","50.94247363","USDT","0.03510000","BCH","0.12767537","USDT","Bittrex","","","2017-12-05 23:06:05"
"Trade","0.68973773","BCH","0.07999948","BTC","0.00019949","BTC","Bittrex","","","2017-12-05 22:01:52"
"Trade","0.33644079","BCH","0.03999975","BTC","0.00009975","BTC","Bittrex","","","2017-12-05 21:06:22"
"Trade","0.03512299","BCH","49.99968450","USDT","0.12468748","USDT","Bittrex","","","2017-12-05 18:46:43"
"Trade","0.16420740","BCH","0.01999987","BTC","0.00004987","BTC","Bittrex","","","2017-12-05 18:46:38"
"Trade","0.08013236","BCH","0.00999993","BTC","0.00002493","BTC","Bittrex","","","2017-12-05 17:15:23"
"Trade","1.27190449","ETH","0.04999967","BTC","0.00012468","BTC","Bittrex","","","2017-12-05 07:26:24"
"Trade","0.09711841","BTC","43660.00923932","ADT","0.00024339","BTC","Bittrex","","","2017-12-04 20:52:56"
"Trade","0.01012066","BTC","3.95069845","ETC","0.00002536","BTC","Bittrex","","","2017-12-04 03:00:12"
"Trade","0.04148942","BTC","346611.71562500","RDD","0.00010398","BTC","Bittrex","","","2017-12-04 01:45:01"
"Trade","3.95069845","ETC","0.00999992","BTC","0.00002493","BTC","Bittrex","","","2017-12-03 23:25:20"
"Trade","174.25136480","USDT","0.38733500","ETH","0.43672020","USDT","Bittrex","","","2017-12-03 17:17:08"
"Trade","0.05618991","ETH","24.99984418","USDT","0.06234375","USDT","Bittrex","","","2017-12-03 17:08:12"
"Deposit","0.09881974","ETH","","","","","Gemini","","","2017-12-03 03:40:22"
"Trade","0.00674192","BTC","18.49301835","SPHR","0.00001689","BTC","Bittrex","","","2017-12-02 18:08:30"
"Trade","0.00101381","BTC","477.15890227","ADT","0.00000253","BTC","Bittrex","","","2017-12-02 17:16:03"
"Trade","0.00329794","BTC","8.93644873","SPHR","0.00000826","BTC","Bittrex","","","2017-12-02 17:05:05"
"Trade","27.42946708","SPHR","0.00999992","BTC","0.00002493","BTC","Bittrex","","","2017-12-02 16:36:54"
"Deposit","5.00000000","LRC","","","","","ETH Transaction","","","2017-12-02 12:45:23"
"Trade","0.05181749","BTC","577.25694444","TRIG","0.00012986","BTC","Bittrex","","","2017-12-02 01:15:16"
"Trade","1834.13682403","TKN","0.19999767","BTC","0.00049871","BTC","Bittrex","","","2017-12-01 22:41:47"
"Trade","411.37594400","TKN","0.04999989","BTC","0.00012468","BTC","Bittrex","","","2017-12-01 22:26:28"
"Trade","652.65558645","TKN","0.08211304","BTC","0.00020477","BTC","Bittrex","","","2017-12-01 22:24:04"
"Trade","314.29696731","TKN","0.03999975","BTC","0.00009975","BTC","Bittrex","","","2017-12-01 22:13:45"
"Trade","155.44647031","TKN","0.01999984","BTC","0.00004986","BTC","Bittrex","","","2017-12-01 22:13:11"
"Trade","76.44263928","TKN","0.00999992","BTC","0.00002493","BTC","Bittrex","","","2017-12-01 22:11:19"
"Trade","577.25694444","TRIG","0.04999967","BTC","0.00012468","BTC","Bittrex","","","2017-12-01 21:36:09"
"Trade","0.22828267","BTC","78.91545041","OMNI","0.00057213","BTC","Bittrex","","","2017-12-01 19:14:49"
"Trade","35.34626942","OMNI","0.09999937","BTC","0.00024937","BTC","Bittrex","","","2017-12-01 18:08:28"
"Trade","26.27249294","OMNI","0.07499952","BTC","0.00018703","BTC","Bittrex","","","2017-12-01 18:07:49"
"Trade","17.29668805","OMNI","0.04999966","BTC","0.00012467","BTC","Bittrex","","","2017-12-01 17:42:06"
"Trade","0.07466313","BTC","29940.10072427","FUN","0.00018710","BTC","Bittrex","","","2017-12-01 17:38:07"
"Trade","0.02627031","BTC","10287.56006116","FUN","0.00006583","BTC","Bittrex","","","2017-12-01 17:25:27"
"Trade","20357.14285714","FUN","0.04999967","BTC","0.00012468","BTC","Bittrex","","","2017-12-01 17:15:27"
"Trade","0.00122472","BTC","6.00000000","TKS","0.00000306","BTC","Bittrex","","","2017-12-01 16:22:30"
"Trade","6.00000000","TKS","0.00120257","BTC","0.00000299","BTC","Bittrex","","","2017-12-01 16:21:04"
"Trade","19870.51792829","FUN","0.04999965","BTC","0.00012467","BTC","Bittrex","","","2017-12-01 15:19:19"
"Withdrawal","","","274902.00000000","LEND","","","ETH Transaction","","","2017-12-01 13:59:44"
"Deposit","274902.00000000","LEND","","","","","ETH Transaction","","","2017-12-01 13:58:32"
"Trade","0.10872509","BTC","53.91862747","XCP","0.00027249","BTC","Bittrex","","","2017-11-30 20:13:17"
"Trade","53.91862747","XCP","0.09999937","BTC","0.00024937","BTC","Bittrex","","","2017-11-30 20:05:35"
"Trade","0.33438186","BTC","4611.00277726","EDG","0.00083801","BTC","Bittrex","","","2017-11-30 18:03:03"
"Trade","0.09524831","BTC","1312.53662652","EDG","0.00023871","BTC","Bittrex","","","2017-11-30 16:51:16"
"Trade","0.09355798","BTC","76.55528097","QTUM","0.00023446","BTC","Bittrex","","","2017-11-30 16:03:25"
"Trade","0.05508622","BTC","763.89110846","EDG","0.00013805","BTC","Bittrex","","","2017-11-30 15:48:24"
"Trade","0.10000063","BTC","311.33930522","ARK","0.00025062","BTC","Bittrex","","","2017-11-30 14:39:24"
"Trade","0.04954950","BTC","59.20935478","OMG","0.00012418","BTC","Bittrex","","","2017-11-29 15:01:49"
"Trade","43.92530715","USDT","0.00479971","BTC","0.11008848","USDT","Bittrex","","","2017-11-29 14:42:00"
"Trade","0.00317350","BTC","27.99979843","USDT","0.06982493","USDT","Bittrex","","","2017-11-29 14:38:34"
"Trade","0.00162621","BTC","15.00016510","USDT","0.03740689","USDT","Bittrex","","","2017-11-29 14:35:14"
"Trade","20.49774395","USDT","0.00207854","BTC","0.05137279","USDT","Bittrex","","","2017-11-29 14:21:11"
"Trade","0.00207784","BTC","19.99989070","USDT","0.04987503","USDT","Bittrex","","","2017-11-29 14:17:56"
"Trade","59.20935478","OMG","0.04965481","BTC","0.00012382","BTC","Bittrex","","","2017-11-29 02:05:08"
"Trade","44137.16814159","ADT","0.09834931","BTC","0.00024524","BTC","Bittrex","","","2017-11-29 01:56:05"
"Trade","346611.71562500","RDD","0.04169734","BTC","0.00010396","BTC","Bittrex","","","2017-11-29 01:54:28"
"Trade","76.55528097","QTUM","0.09995653","BTC","0.00024925","BTC","Bittrex","","","2017-11-29 01:53:12"
"Trade","0.00378992","BTC","581.83990395","BAY","0.00000949","BTC","Bittrex","","","2017-11-29 01:33:17"
"Trade","2744.15405777","EDG","0.19999873","BTC","0.00049874","BTC","Bittrex","","","2017-11-29 01:30:40"
"Trade","0.23566010","BTC","1.60829109","BCH","0.00059062","BTC","Bittrex","","","2017-11-29 01:18:47"
"Trade","0.10174160","BTC","44.34653875","BLOCK","0.00025499","BTC","Bittrex","","","2017-11-29 01:11:37"
"Trade","0.10092299","BTC","2.24195190","ETH","0.00025293","BTC","Bittrex","","","2017-11-29 00:56:41"
"Trade","2682.53327955","EDG","0.19999875","BTC","0.00049875","BTC","Bittrex","","","2017-11-29 00:37:05"
"Trade","2.24195190","ETH","0.09979098","BTC","0.00024885","BTC","Bittrex","","","2017-11-29 00:21:29"
"Trade","0.06594452","BTC","37.75049408","NMR","0.00016527","BTC","Bittrex","","","2017-11-29 00:11:59"
"Trade","44.34653875","BLOCK","0.09999937","BTC","0.00024937","BTC","Bittrex","","","2017-11-29 00:05:40"
"Trade","37.75049408","NMR","0.06570247","BTC","0.00016384","BTC","Bittrex","","","2017-11-29 00:01:17"
"Trade","0.06570226","BTC","9643.76493301","BAY","0.00016464","BTC","Bittrex","","","2017-11-28 23:46:45"
"Trade","10225.60483696","BAY","0.06601750","BTC","0.00016462","BTC","Bittrex","","","2017-11-28 23:13:23"
"Trade","311.33930522","ARK","0.09999933","BTC","0.00024934","BTC","Bittrex","","","2017-11-28 22:39:48"
"Trade","0.72738001","BCH","0.09990020","BTC","0.00024912","BTC","Bittrex","","","2017-11-28 22:37:03"
"Trade","1260.74317492","EDG","0.09999936","BTC","0.00024937","BTC","Bittrex","","","2017-11-28 22:35:16"
"Trade","0.53231968","BCH","0.07484434","BTC","0.00018664","BTC","Bittrex","","","2017-11-28 22:11:29"
"Trade","0.34859140","BCH","0.04999968","BTC","0.00012468","BTC","Bittrex","","","2017-11-28 21:57:07"
"Trade","0.04927783","BTC","145.29802482","ARK","0.00012348","BTC","Bittrex","","","2017-11-28 21:38:38"
"Trade","0.10094641","BTC","297.61904762","ARK","0.00025299","BTC","Bittrex","","","2017-11-28 21:37:00"
"Trade","297.61904762","ARK","0.09999937","BTC","0.00024937","BTC","Bittrex","","","2017-11-28 21:35:45"
"Trade","0.05015020","BTC","2358.15602837","MER","0.00012568","BTC","Bittrex","","","2017-11-28 20:30:10"
"Trade","2358.15602837","MER","0.04999968","BTC","0.00012468","BTC","Bittrex","","","2017-11-28 20:29:15"
"Trade","145.29802482","ARK","0.04965446","BTC","0.00012382","BTC","Bittrex","","","2017-11-28 19:56:34"
"Trade","0.10558743","BTC","12453.18352060","VOX","0.00026462","BTC","Bittrex","","","2017-11-28 19:12:23"
"Trade","12453.18352060","VOX","0.09999935","BTC","0.00024936","BTC","Bittrex","","","2017-11-28 19:10:50"
"Trade","0.04887630","BTC","621.41789185","DCT","0.00012249","BTC","Bittrex","","","2017-11-28 19:05:07"
"Trade","0.31151552","BTC","4007.90900350","DCT","0.00078073","BTC","Bittrex","","","2017-11-28 18:57:34"
"Trade","0.22256491","BTC","2888.69374696","DCT","0.00055778","BTC","Bittrex","","","2017-11-28 18:55:27"
"Trade","2888.69374696","DCT","0.20274303","BTC","0.00050559","BTC","Bittrex","","","2017-11-28 18:48:17"
"Trade","2695.58167815","DCT","0.19999873","BTC","0.00049874","BTC","Bittrex","","","2017-11-28 18:41:58"
"Trade","1312.32732535","DCT","0.09999936","BTC","0.00024937","BTC","Bittrex","","","2017-11-28 18:41:57"
"Trade","621.41789185","DCT","0.04890325","BTC","0.00012195","BTC","Bittrex","","","2017-11-28 18:40:21"
"Trade","0.09918653","BTC","276.21632099","IOC","0.00024858","BTC","Bittrex","","","2017-11-28 18:30:15"
"Trade","0.05004414","BTC","500.00000000","USD","1.25000000","USD","Gemini","","","2017-11-28 17:22:12"
"Deposit","500.00000000","USD","","","","","Gemini","","","2017-11-28 17:16:05"
"Trade","276.21632099","IOC","0.09999936","BTC","0.00024937","BTC","Bittrex","","","2017-11-28 13:28:29"
"Trade","0.12970134","BTC","260.41218153","PIVX","0.00032506","BTC","Bittrex","","","2017-11-28 03:36:40"
"Trade","173.59104532","PIVX","0.08704382","BTC","0.00021706","BTC","Bittrex","","","2017-11-28 03:11:40"
"Trade","86.82113621","PIVX","0.04709983","BTC","0.00011745","BTC","Bittrex","","","2017-11-28 03:09:01"
"Trade","0.72914534","BTC","1245.18003676","PIVX","0.00182740","BTC","Bittrex","","","2017-11-28 02:44:50"
"Trade","0.12587945","BTC","732.41407580","SWT","0.00031548","BTC","Bittrex","","","2017-11-27 21:26:43"
"Trade","0.02058840","BTC","120.00000000","SWT","0.00005160","BTC","Bittrex","","","2017-11-27 21:18:20"
"Trade","0.05117823","BTC","135.04906467","IOC","0.00012825","BTC","Bittrex","","","2017-11-27 21:03:02"
"Trade","0.09075024","BTC","8884.53788971","PDC","0.00022741","BTC","Bittrex","","","2017-11-27 21:02:33"
"Trade","135.04906467","IOC","0.04999964","BTC","0.00012468","BTC","Bittrex","","","2017-11-27 20:38:00"
"Trade","8884.53788971","PDC","0.09084883","BTC","0.00022655","BTC","Bittrex","","","2017-11-27 20:24:45"
"Trade","644.71635384","SWT","0.11249986","BTC","0.00028054","BTC","Bittrex","","","2017-11-27 19:36:48"
"Trade","207.69772196","SWT","0.03749986","BTC","0.00009351","BTC","Bittrex","","","2017-11-27 19:18:19"
"Trade","0.09919345","BTC","254.98616307","IOC","0.00024860","BTC","Bittrex","","","2017-11-27 17:22:34"
"Trade","0.06736311","BTC","649.99000000","USD","1.62000000","USD","Gemini","","","2017-11-27 17:17:07"
"Trade","254.98616307","IOC","0.09608379","BTC","0.00023960","BTC","Bittrex","","","2017-11-27 17:15:47"
"Deposit","500.00000000","USD","","","","","Gemini","","","2017-11-27 17:13:43"
"Trade","0.09608396","BTC","722.83340175","TRIG","0.00024081","BTC","Bittrex","","","2017-11-27 16:55:59"
"Trade","722.83340175","TRIG","0.09277572","BTC","0.00023136","BTC","Bittrex","","","2017-11-27 16:39:35"
"Trade","0.04216389","BTC","1408.98549415","XEL","0.00010567","BTC","Bittrex","","","2017-11-27 13:31:18"
"Trade","0.08139835","BTC","218.30488180","DYN","0.00020399","BTC","Bittrex","","","2017-11-27 13:27:05"
"Trade","1408.98549415","XEL","0.03744558","BTC","0.00009338","BTC","Bittrex","","","2017-11-27 13:13:34"
"Trade","0.10779775","BTC","71.80592204","QTUM","0.00027016","BTC","Bittrex","","","2017-11-27 12:55:38"
"Trade","0.02266609","BTC","60.73043374","DYN","0.00005680","BTC","Bittrex","","","2017-11-27 12:52:12"
"Deposit","777.00000000","INSP","","","","","ETH Transaction","","","2017-11-27 10:09:38"
"Trade","279.03531554","DYN","0.10226195","BTC","0.00025501","BTC","Bittrex","","","2017-11-26 22:58:00"
"Trade","71.80592204","QTUM","0.10797887","BTC","0.00026927","BTC","Bittrex","","","2017-11-26 20:44:41"
"Deposit","500.00000000","USD","","","","","Gemini","","","2017-11-26 18:37:39"
"Trade","0.20281851","BTC","7666.92404977","XRP","0.00050831","BTC","Bittrex","","","2017-11-26 17:11:56"
"Trade","0.10781778","BTC","1.59550397","DASH","0.00027021","BTC","Bittrex","","","2017-11-26 16:13:54"
"Trade","0.20888399","BTC","2000.00000000","USD","29.36000000","USD","Coinbase","","","2017-11-26 15:17:35"
"Withdrawal","","","0.00813772","ETH","","","ETH Transaction","","","2017-11-26 15:08:57"
"Trade","3835.05921857","XRP","0.09999923","BTC","0.00024936","BTC","Bittrex","","","2017-11-26 13:50:29"
"Trade","1.59550397","DASH","0.10556615","BTC","0.00026324","BTC","Bittrex","","","2017-11-26 12:06:18"
"Trade","3831.86483120","XRP","0.10178339","BTC","0.00025381","BTC","Bittrex","","","2017-11-26 12:01:08"
"Trade","0.20768566","BTC","8011.01165751","AMP","0.00052049","BTC","Bittrex","","","2017-11-26 08:04:53"
"Trade","2825.04606702","AMP","0.06655455","BTC","0.00016597","BTC","Bittrex","","","2017-11-26 04:31:19"
"Trade","3612.95395714","AMP","0.08873866","BTC","0.00022129","BTC","Bittrex","","","2017-11-26 02:22:23"
"Trade","1573.01163335","AMP","0.03943935","BTC","0.00009834","BTC","Bittrex","","","2017-11-26 01:07:04"
"Trade","0.03945395","BTC","4.13793511","LTC","0.00009887","BTC","Bittrex","","","2017-11-26 00:48:42"
"Trade","4.13793511","LTC","0.03937451","BTC","0.00009819","BTC","Bittrex","","","2017-11-26 00:11:54"
"Withdrawal","","","0.10374877","BTC","0.03377494","BTC","BTC Transaction","","","2017-11-25 15:04:27"
"Deposit","0.10374877","BTC","","","0.00033876","BTC","BTC Transaction","","","2017-11-25 13:52:25"
"Withdrawal","","","11.00000000","ETH","","","ETH Transaction","","","2017-11-25 11:20:15"
"Trade","0.07408860","BTC","1.09226886","DASH","0.00018565","BTC","Bittrex","","","2017-11-24 05:35:05"
"Trade","1.09226886","DASH","0.07215919","BTC","0.00017994","BTC","Bittrex","","","2017-11-24 03:15:04"
"Trade","0.02052312","BTC","3674.02755767","VOX","0.00005143","BTC","Bittrex","","","2017-11-23 20:43:24"
"Trade","3674.02755767","VOX","0.02025766","BTC","0.00005051","BTC","Bittrex","","","2017-11-23 20:24:17"
"Withdrawal","","","37220.14491000","PBL","","","ETH Transaction","","","2017-11-23 12:59:06"
"Deposit","37220.14491000","PBL","","","","","ETH Transaction","","","2017-11-22 16:50:21"
"Trade","0.28837247","BTC","298.33463333","LSK","0.00072273","BTC","Bittrex","","","2017-11-22 14:50:56"
"Trade","104.75384903","LSK","0.10501572","BTC","0.00026188","BTC","Bittrex","","","2017-11-22 14:40:10"
"Trade","286.99170350","LSK","0.29777899","BTC","0.00074258","BTC","Bittrex","","","2017-11-22 14:39:36"
"Trade","121.54717050","LSK","0.13335255","BTC","0.00033255","BTC","Bittrex","","","2017-11-22 14:38:55"
"Trade","88.27433628","LSK","0.09999760","BTC","0.00024937","BTC","Bittrex","","","2017-11-22 14:38:32"
"Trade","61.39879253","LSK","0.07047920","BTC","0.00017575","BTC","Bittrex","","","2017-11-22 14:37:39"
"Trade","0.36235454","BTC","305.26276661","LSK","0.00090815","BTC","Bittrex","","","2017-11-22 14:20:38"
"Trade","153.30925734","LSK","0.17213562","BTC","0.00042926","BTC","Bittrex","","","2017-11-22 13:50:16"
"Trade","151.95350927","LSK","0.17213672","BTC","0.00042926","BTC","Bittrex","","","2017-11-22 13:49:37"
"Trade","0.13225394","BTC","736585.56794118","DOGE","0.00033146","BTC","Bittrex","","","2017-11-22 04:14:32"
"Trade","99.99938219","USDT","0.01234606","BTC","0.25062501","USDT","Bittrex","","","2017-11-21 20:31:51"
"Deposit","18999.00000000","FBL","","","","","ETH Transaction","","","2017-11-20 21:23:30"
"Withdrawal","","","19.06000000","ETH","","","ETH Transaction","","","2017-11-20 21:15:51"
"Trade","0.49673917","BTC","24899.20671405","POT","0.00124496","BTC","Bittrex","","","2017-11-20 17:03:33"
"Trade","0.07078519","BTC","1.36466535","BTG","0.00017740","BTC","Bittrex","","","2017-11-20 17:03:06"
"Trade","1245.18003676","PIVX","0.44203649","BTC","0.00110229","BTC","Bittrex","","","2017-11-20 16:01:01"
"Trade","85256.41025641","LMC","0.49999686","BTC","0.00124687","BTC","Bittrex","","","2017-11-20 15:04:46"
"Trade","0.94314284","BTC","35205.95613279","INCNT","0.00236373","BTC","Bittrex","","","2017-11-20 13:07:25"
"Trade","736585.56794118","DOGE","0.12553258","BTC","0.00031304","BTC","Bittrex","","","2017-11-18 17:51:43"
"Trade","112478.86279412","DOGE","0.01916920","BTC","0.00004780","BTC","Bittrex","","","2017-11-18 17:49:56"
"Withdrawal","","","0.14470258","BTC","0.15099260","BTC","BTC Transaction","","","2017-11-18 16:27:55"
"Deposit","0.14470258","BTC","","","0.00041350","BTC","BTC Transaction","","","2017-11-18 15:35:35"
"Withdrawal","","","1903.34000000","GVT","","","ETH Transaction","","","2017-11-15 19:15:03"
"Deposit","1903.34000000","GVT","","","","","ETH Transaction","","","2017-11-15 19:00:05"
"Withdrawal","","","1903.34000000","GVT","","","ETH Transaction","","","2017-11-15 19:00:05"
"Withdrawal","","","0.01000000","ETH","","","ETH Transaction","","","2017-11-15 18:59:19"
"Deposit","0.01000000","ETH","","","","","ETH Transaction","","","2017-11-15 18:59:19"
"Deposit","0.99800000","ETH","","","","","ETH Transaction","","","2017-11-15 18:58:12"
"Trade","1.00000000","ETH","0.04583625","BTC","0.00011429","BTC","Bittrex","","","2017-11-15 18:54:14"
"Trade","0.96854440","BTC","143847.67901572","LMC","0.00242738","BTC","Bittrex","","","2017-11-15 17:49:33"
"Trade","326.81861758","POT","0.00609073","BTC","0.00001518","BTC","Bittrex","","","2017-11-14 22:47:54"
"Trade","24572.38809647","POT","0.46875720","BTC","0.00116883","BTC","Bittrex","","","2017-11-14 22:43:13"
"Trade","158342.04166667","SC","0.10000484","BTC","0.00024937","BTC","Bittrex","","","2017-11-14 19:03:01"
"Trade","633333.33333333","SC","0.39999744","BTC","0.00099747","BTC","Bittrex","","","2017-11-14 18:56:29"
"Trade","0.97494348","BTC","14500.00000000","VRC","0.00244340","BTC","Bittrex","","","2017-11-14 16:38:40"
"Withdrawal","","","5.57187798","ETH","","","ETH Transaction","","","2017-11-14 15:51:47"
"Deposit","5.57240298","ETH","","","","","ETH Transaction","","","2017-11-14 15:47:51"
"Trade","5.57440298","ETH","0.27896977","BTC","0.00069566","BTC","Bittrex","","","2017-11-14 15:41:18"
"Trade","0.27895824","BTC","1553652.15670599","DOGE","0.00069911","BTC","Bittrex","","","2017-11-14 15:38:10"
"Trade","11677956.49416667","DOGE","2.10728709","BTC","0.00525501","BTC","Bittrex","","","2017-11-13 12:16:14"
"Trade","1.05148942","BTC","50679.07394112","POT","0.00263529","BTC","Bittrex","","","2017-11-13 04:03:23"
"Trade","0.22565243","BTC","68.55090490","TIME","0.00056554","BTC","Bittrex","","","2017-11-13 02:45:27"
"Trade","0.43922063","BTC","133.43073857","TIME","0.00110080","BTC","Bittrex","","","2017-11-12 23:26:04"
"Trade","0.39093792","BTC","119.48710622","TIME","0.00097973","BTC","Bittrex","","","2017-11-12 22:43:39"
"Trade","12293.79958333","DOGE","0.00221841","BTC","0.00000553","BTC","Bittrex","","","2017-11-12 11:52:58"
"Trade","0.00221841","BTC","0.70897427","TIME","0.00000555","BTC","Bittrex","","","2017-11-12 03:18:29"
"Trade","55.50623810","SNGLS","0.00122696","BTC","0.00000305","BTC","Bittrex","","","2017-11-11 20:40:11"
"Trade","5541666.66666667","DOGE","0.99999375","BTC","0.00249375","BTC","Bittrex","","","2017-11-11 15:24:22"
"Trade","30968.80484328","LMC","0.20678404","BTC","0.00051558","BTC","Bittrex","","","2017-11-11 14:52:29"
"Trade","45417.55710691","LMC","0.30141586","BTC","0.00075165","BTC","Bittrex","","","2017-11-11 14:41:13"
"Trade","23665.50726538","LMC","0.15660858","BTC","0.00039051","BTC","Bittrex","","","2017-11-11 14:38:00"
"Trade","15545.07441732","LMC","0.10199776","BTC","0.00025435","BTC","Bittrex","","","2017-11-11 14:37:15"
"Trade","13105.02926939","LMC","0.08473868","BTC","0.00021128","BTC","Bittrex","","","2017-11-11 14:23:46"
"Trade","1168.86878017","INCNT","0.03397637","BTC","0.00008471","BTC","Bittrex","","","2017-11-11 14:22:17"
"Trade","1849.92206843","INCNT","0.05322545","BTC","0.00013271","BTC","Bittrex","","","2017-11-11 14:20:11"
"Trade","28948.88632889","INCNT","0.82130158","BTC","0.00204812","BTC","Bittrex","","","2017-11-11 14:11:01"
"Trade","14945.70611344","LMC","0.09574181","BTC","0.00023875","BTC","Bittrex","","","2017-11-11 14:07:20"
"Trade","200.00000000","LMC","0.00127317","BTC","0.00000317","BTC","Bittrex","","","2017-11-11 13:55:20"
"Trade","2238.27895530","INCNT","0.06350163","BTC","0.00015834","BTC","Bittrex","","","2017-11-11 13:52:59"
"Trade","1000.00000000","INCNT","0.02877175","BTC","0.00007175","BTC","Bittrex","","","2017-11-11 13:48:24"
"Trade","1571.67077941","POT","0.03214223","BTC","0.00008015","BTC","Bittrex","","","2017-11-11 13:43:46"
"Trade","2286.23685413","POT","0.04654955","BTC","0.00011608","BTC","Bittrex","","","2017-11-11 13:43:40"
"Trade","50.00000000","POT","0.00101854","BTC","0.00000254","BTC","Bittrex","","","2017-11-11 13:42:31"
"Trade","20849.14331630","POT","0.42429568","BTC","0.00105809","BTC","Bittrex","","","2017-11-11 13:41:42"
"Trade","25922.02299128","POT","0.50336481","BTC","0.00125525","BTC","Bittrex","","","2017-11-11 13:05:52"
"Trade","43846.15384615","SNGLS","0.99999367","BTC","0.00249372","BTC","Bittrex","","","2017-11-11 13:00:31"
"Trade","315.81553398","TIME","1.02871293","BTC","0.00256529","BTC","Bittrex","","","2017-11-11 11:32:22"
"Trade","0.35141252","TIME","0.00109914","BTC","0.00000274","BTC","Bittrex","","","2017-11-11 11:32:18"
"Trade","6.01077746","TIME","0.01826119","BTC","0.00004553","BTC","Bittrex","","","2017-11-11 11:30:20"
"Trade","1039062.50000000","XVG","0.99999373","BTC","0.00249374","BTC","Bittrex","","","2017-11-11 11:11:30"
"Trade","14500.00000000","VRC","1.00300123","BTC","0.00250124","BTC","Bittrex","","","2017-11-11 10:39:18"
"Trade","8.00898601","BTC","259085.46770494","XRP","0.02007237","BTC","Bittrex","","","2017-11-11 01:22:18"
"Trade","21277.28714658","XRP","0.65484574","BTC","0.00163303","BTC","Bittrex","","","2017-11-10 22:11:26"
"Trade","61173.57169513","XRP","1.87933053","BTC","0.00468656","BTC","Bittrex","","","2017-11-10 22:11:17"
"Trade","176634.60886323","XRP","5.41476722","BTC","0.01350295","BTC","Bittrex","","","2017-11-10 22:10:04"
"Trade","3.37318249","BTC","782.63384623","NEO","0.00845392","BTC","Bittrex","","","2017-11-10 22:04:40"
"Trade","0.96112049","BTC","222.06809937","NEO","0.00240874","BTC","Bittrex","","","2017-11-10 22:00:24"
"Trade","0.44083347","BTC","101.78009495","NEO","0.00110483","BTC","Bittrex","","","2017-11-10 21:59:43"
"Trade","1.78046647","BTC","411.09433510","NEO","0.00446231","BTC","Bittrex","","","2017-11-10 21:59:23"
"Trade","0.59932247","BTC","138.36933155","NEO","0.00150206","BTC","Bittrex","","","2017-11-10 21:59:04"
"Trade","0.12325039","BTC","28.45545420","NEO","0.00030887","BTC","Bittrex","","","2017-11-10 21:58:44"
"Trade","0.06771207","BTC","15.59883860","NEO","0.00016969","BTC","Bittrex","","","2017-11-10 21:58:13"
"Trade","0.05815004","BTC","76.59957349","LUN","0.00014572","BTC","Bittrex","","","2017-11-10 21:57:06"
"Trade","0.13756719","BTC","181.08579171","LUN","0.00034474","BTC","Bittrex","","","2017-11-10 21:56:33"
"Trade","0.03496841","BTC","45.88608517","LUN","0.00008762","BTC","Bittrex","","","2017-11-10 21:55:35"
"Trade","0.13162207","BTC","172.70989759","LUN","0.00032984","BTC","Bittrex","","","2017-11-10 21:54:47"
"Trade","0.04292348","BTC","56.24262161","LUN","0.00010751","BTC","Bittrex","","","2017-11-10 21:53:44"
"Trade","0.04593391","BTC","59.80386423","LUN","0.00011511","BTC","Bittrex","","","2017-11-10 21:52:06"
"Trade","0.00090307","BTC","1.17052158","LUN","0.00000226","BTC","Bittrex","","","2017-11-10 21:51:22"
"Trade","0.00638477","BTC","8.27026781","LUN","0.00001600","BTC","Bittrex","","","2017-11-10 21:50:27"
"Trade","0.03478782","BTC","45.00000000","LUN","0.00008718","BTC","Bittrex","","","2017-11-10 21:49:17"
"Trade","0.00868181","BTC","11.20409690","LUN","0.00002175","BTC","Bittrex","","","2017-11-10 21:47:27"
"Trade","0.00296008","BTC","3.82000000","LUN","0.00000741","BTC","Bittrex","","","2017-11-10 21:47:14"
"Trade","0.09540185","BTC","121.99568463","LUN","0.00023910","BTC","Bittrex","","","2017-11-10 21:44:27"
"Trade","305.30526211","LUN","0.35748803","BTC","0.00089149","BTC","Bittrex","","","2017-11-10 17:14:40"
"Trade","478.48314261","LUN","0.54167136","BTC","0.00135078","BTC","Bittrex","","","2017-11-10 17:13:44"
"Trade","0.43146325","BTC","101.00000000","NEO","0.00108135","BTC","Bittrex","","","2017-11-10 15:56:01"
"Trade","0.38076564","BTC","117.40565441","BLOCK","0.00095427","BTC","Bittrex","","","2017-11-10 15:54:54"
"Trade","0.04841418","BTC","14.93227175","BLOCK","0.00012130","BTC","Bittrex","","","2017-11-10 15:53:06"
"Trade","0.02985018","BTC","9.20696990","BLOCK","0.00007480","BTC","Bittrex","","","2017-11-10 15:52:40"
"Trade","0.01143483","BTC","3.47391078","BLOCK","0.00002865","BTC","Bittrex","","","2017-11-10 15:52:16"
"Trade","145.01880684","BLOCK","0.58152250","BTC","0.00145018","BTC","Bittrex","","","2017-11-10 13:19:39"
"Trade","0.58152542","BTC","12.95517497","ETH","0.00145745","BTC","Bittrex","","","2017-11-10 13:06:57"
"Trade","12.71135836","ETH","0.56706950","BTC","0.00141408","BTC","Bittrex","","","2017-11-10 12:33:24"
"Trade","0.24381661","ETH","0.01097017","BTC","0.00002735","BTC","Bittrex","","","2017-11-10 12:19:45"
"Trade","0.32645440","BTC","91.32690549","BLOCK","0.00081817","BTC","Bittrex","","","2017-11-10 10:21:05"
"Trade","0.25158622","BTC","70.25536669","BLOCK","0.00063054","BTC","Bittrex","","","2017-11-10 10:20:06"
"Trade","110.13680769","BLOCK","0.42729501","BTC","0.00106557","BTC","Bittrex","","","2017-11-09 20:10:11"
"Withdrawal","","","0.42729639","BTC","0.07477275","BTC","BTC Transaction","","","2017-11-09 20:01:37"
"Trade","51.44546449","BLOCK","0.20650982","BTC","0.00051498","BTC","Bittrex","","","2017-11-09 16:04:05"
"Deposit","0.42729639","BTC","","","0.00072913","BTC","BTC Transaction","","","2017-11-09 15:43:05"
"Trade","0.20650985","BTC","59.16133714","BLOCK","0.00051755","BTC","Bittrex","","","2017-11-08 23:31:45"
"Trade","57.10709357","BLOCK","0.19921747","BTC","0.00049679","BTC","Bittrex","","","2017-11-08 14:36:41"
"Trade","1.39187448","BLOCK","0.00480001","BTC","0.00001197","BTC","Bittrex","","","2017-11-08 14:35:41"
"Trade","0.66236909","BLOCK","0.00230137","BTC","0.00000573","BTC","Bittrex","","","2017-11-08 14:34:03"
"Trade","0.20588870","BTC","49.23136643","NEO","0.00051600","BTC","Bittrex","","","2017-11-08 14:18:41"
"Trade","1567.38907291","NEO","7.03163805","BTC","0.01753517","BTC","Bittrex","","","2017-11-08 13:24:11"
"Trade","282.89229352","NEO","1.25284909","BTC","0.00312430","BTC","Bittrex","","","2017-11-08 13:23:17"
"Deposit","6062.00000045","UKG","","","","","ETH Transaction","","","2017-11-05 13:58:58"
"Trade","0.12122617","BTC","1.50000000","BCH","0.00030380","BTC","Bittrex","","","2017-10-29 14:07:56"
"Trade","0.13959377","BTC","14.77648255","LTC","0.00034985","BTC","Bittrex","","","2017-10-27 21:58:22"
"Trade","0.00211051","BTC","0.22329145","LTC","0.00000528","BTC","Bittrex","","","2017-10-27 21:54:13"
"Trade","0.05058607","BTC","1.00033844","ETH","0.00012678","BTC","Bittrex","","","2017-10-27 21:49:13"
"Deposit","696.83837490","XNN","","","","","ETH Transaction","","","2017-10-25 02:17:36"
"Deposit","1903.34000000","GVT","","","","","ETH Transaction","","","2017-10-25 01:22:59"
"Trade","0.16212626","BTC","110.00440000","DMD","0.00040631","BTC","Bittrex","","","2017-10-25 01:01:22"
"Trade","0.37698038","BTC","71.00000000","NEO","0.00094481","BTC","Bittrex","","","2017-10-24 23:57:20"
"Trade","3.06484730","BTC","57.11030362","ETH","0.00768122","BTC","Bittrex","","","2017-10-24 19:36:21"
"Withdrawal","","","0.72768122","BTC","0.03317346","BTC","BTC Transaction","","","2017-10-24 19:32:46"
"Withdrawal","","","0.49990000","BTC","0.03015754","BTC","BTC Transaction","","","2017-10-24 19:31:21"
"Trade","2.32802928","BTC","230.77859692","LTC","0.00583460","BTC","Bittrex","","","2017-10-24 19:30:14"
"Deposit","0.72768122","BTC","","","0.00033737","BTC","BTC Transaction","","","2017-10-24 18:52:17"
"Deposit","0.49990000","BTC","","","0.00038719","BTC","BTC Transaction","","","2017-10-24 18:52:17"
"Withdrawal","","","2.99711225","ETH","","","ETH Transaction","","","2017-10-24 18:47:55"
"Withdrawal","","","0.49990000","BTC","","","Gemini","","","2017-10-24 18:39:39"
"Withdrawal","","","24.11400000","ETH","","","Gemini","","","2017-10-24 18:38:08"
"Withdrawal","","","7.00000000","ETH","","","ETH Transaction","","","2017-10-23 00:43:54"
"Trade","0.00008801","BTC","0.47670682","USDT","0.00118879","USDT","Bittrex","","","2017-10-18 15:40:51"
"Trade","11.50000000","DMD","0.01477732","BTC","0.00003685","BTC","Bittrex","","","2017-10-18 15:14:22"
"Trade","0.05312670","DMD","0.00006655","BTC","0.00000016","BTC","Bittrex","","","2017-10-18 15:12:31"
"Trade","2.92668095","DMD","0.00366000","BTC","0.00000912","BTC","Bittrex","","","2017-10-18 15:05:30"
"Trade","95.52877254","DMD","0.11779892","BTC","0.00029376","BTC","Bittrex","","","2017-10-18 14:46:59"
"Trade","0.13673922","BTC","744.90624311","USDT","1.85762154","USDT","Bittrex","","","2017-10-18 14:25:32"
"Trade","139.38704457","USDT","0.62670000","ZEC","0.34934094","USDT","Bittrex","","","2017-10-18 14:20:39"
"Trade","5.57772772","USDT","0.18884522","NEO","0.01397926","USDT","Bittrex","","","2017-10-18 14:13:42"
"Trade","600.41819226","USDT","1.99642786","ETH","1.50480747","USDT","Bittrex","","","2017-10-18 14:09:01"
"Withdrawal","","","1.00000000","BTC","0.05314983","BTC","BTC Transaction","","","2017-10-13 22:30:32"
"Deposit","1.00000000","BTC","","","0.00063104","BTC","BTC Transaction","","","2017-10-13 21:48:23"
"Deposit","9.99799425","ETH","","","","","ETH Transaction","","","2017-10-03 17:02:46"
"Withdrawal","","","2.55438142","BTC","0.03030808","BTC","BTC Transaction","","","2017-09-22 18:43:13"
"Trade","225.41116352","LTC","3.00634673","BTC","0.00749694","BTC","Bittrex","","","2017-09-22 17:01:59"
"Withdrawal","","","0.16833657","BTC","0.03233482","BTC","BTC Transaction","","","2017-09-22 17:01:32"
"Deposit","0.16833657","BTC","","","0.00039223","BTC","BTC Transaction","","","2017-09-22 16:28:48"
"Withdrawal","","","0.16833657","BTC","","","Gemini","","","2017-09-22 16:22:31"
"Deposit","2.55438142","BTC","","","0.00039226","BTC","BTC Transaction","","","2017-09-22 16:17:54"
"Withdrawal","","","2.55438142","BTC","","","Gemini","","To Bittrex","2017-09-22 16:14:21"
"Trade","0.22686068","BTC","816.69000000","USD","2.04000000","USD","Gemini","","","2017-09-22 16:08:25"
"Trade","0.55000000","BTC","1979.98000000","USD","4.94000000","USD","Gemini","","","2017-09-22 16:08:25"
"Trade","1.72338994","BTC","6204.15000000","USD","15.47000000","USD","Gemini","","","2017-09-22 16:08:25"
"Deposit","9000.00000000","USD","","","","","Gemini","","","2017-09-22 15:38:26"
"Trade","0.13455229","BTC","495.67000000","USD","1.24000000","USD","Gemini","","","2017-09-21 12:26:46"
"Trade","0.00094814","BTC","3.49000000","USD","0.01000000","USD","Gemini","","","2017-09-21 12:26:46"
"Deposit","500.00000000","USD","","","","","Gemini","","","2017-09-21 12:23:22"
"Trade","0.00002234","BTC","0.09000000","USD","","","Gemini","","","2017-09-19 20:33:57"
"Trade","0.12770000","BTC","500.35000000","USD","1.25000000","USD","Gemini","","","2017-09-19 20:33:55"
"Deposit","500.00000000","USD","","","","","Gemini","","","2017-09-19 20:25:23"
"Trade","0.12464948","BTC","499.57000000","USD","1.25000000","USD","Gemini","","","2017-09-18 21:53:47"
"Deposit","500.00000000","USD","","","","","Gemini","","","2017-09-18 21:52:54"
"Spend","","","1.29790000","BTC","","","Gemini","","Bitmain Payment","2017-09-17 02:56:24"
"Trade","0.00008700","BTC","0.33000000","USD","","","Gemini","","","2017-09-15 18:17:41"
"Trade","0.04990000","BTC","188.32000000","USD","0.47000000","USD","Gemini","","","2017-09-15 18:17:35"
"Trade","0.08250000","BTC","311.36000000","USD","0.78000000","USD","Gemini","","","2017-09-15 18:17:35"
"Deposit","500.00000000","USD","","","","","Gemini","","","2017-09-15 17:17:47"
"Withdrawal","","","0.01538691","BTC","0.03059326","BTC","BTC Transaction","","","2017-09-15 07:55:08"
"Deposit","0.01538691","BTC","","","0.00026868","BTC","BTC Transaction","","","2017-09-15 07:34:59"
"Withdrawal","","","0.03094179","BTC","0.06073348","BTC","BTC Transaction","","","2017-09-08 07:51:57"
"Deposit","0.03094179","BTC","","","0.00132874","BTC","BTC Transaction","","","2017-09-08 07:11:18"
"Trade","0.46041102","BTC","9255.36202700","XRP","0.00115386","BTC","Bittrex","","","2017-09-02 18:45:43"
"Withdrawal","","","0.05580063","BTC","0.08619272","BTC","BTC Transaction","","","2017-09-02 10:54:27"
"Deposit","0.05580063","BTC","","","0.00279110","BTC","BTC Transaction","","","2017-09-02 10:10:01"
"Withdrawal","","","0.05932900","BTC","0.09281169","BTC","BTC Transaction","","","2017-08-25 16:12:04"
"Deposit","0.05932900","BTC","","","0.01871517","BTC","BTC Transaction","","","2017-08-25 15:46:42"
"Withdrawal","","","9255.36202700","XRP","","","Bitstamp","","To Bittrex","2017-08-20 16:24:00"
"Trade","121.21384522","NEO","16.34385204","ETH","0.04075773","ETH","Bittrex","","","2017-08-20 12:46:05"
"Withdrawal","","","0.02590030","BTC","0.06978969","BTC","BTC Transaction","","","2017-08-18 20:45:06"
"Deposit","0.02590030","BTC","","","0.00121011","BTC","BTC Transaction","","","2017-08-18 20:06:24"
"Withdrawal","","","0.01000000","USD","","","Gemini","","Negligible","2017-08-14 00:42:30"
"Deposit","0.01000000","USD","","","","","Gemini","","","2017-08-14 00:41:31"
"Trade","0.00103200","ETH","0.31000000","USD","","","Gemini","","","2017-08-14 00:40:07"
"Trade","2.08890000","ETH","628.97000000","USD","1.57000000","USD","Gemini","","","2017-08-14 00:39:16"
"Trade","0.01493700","ETH","4.50000000","USD","0.01000000","USD","Gemini","","","2017-08-14 00:39:16"
"Trade","0.01160300","ETH","3.49000000","USD","0.01000000","USD","Gemini","","","2017-08-14 00:39:16"
"Trade","16.34994373","ETH","5074.50000000","USD","74.50000000","USD","Coinbase","","","2017-08-13 23:09:01"
"Spend","","","1.28344176","BTC","","","","","Bitmain Payment","2017-08-03 09:21:55"
"Spend","","","60.63210859","LTC","","","","","Bitmain Payment","2017-08-02 09:16:16"
"Deposit","1.00006280","ETH","","","","","Gemini","","","2017-07-31 21:48:57"
"Deposit","1.00069849","ETH","","","","","Gemini","","","2017-07-22 00:38:16"
"Deposit","1.00006770","ETH","","","","","Gemini","","","2017-07-05 07:28:50"
"Deposit","1.00054525","ETH","","","","","Gemini","","","2017-06-20 21:03:44"
"Trade","4442.01995012","XRP","1000.00000000","USD","2.50000000","USD","Bitstamp","","","2017-05-27 12:18:00"
"Trade","2385.15317765","XRP","492.50000000","USD","1.23000000","USD","Bitstamp","","","2017-05-27 10:50:00"
"Trade","2428.18889971","XRP","500.00000000","USD","1.25000000","USD","Bitstamp","","","2017-05-27 10:48:00"
"Deposit","500.00000000","USD","","","","","Gemini","","","2017-05-25 17:15:00"
"Trade","0.61004300","ETH","114.33000000","USD","0.29000000","USD","Gemini","","","2017-05-25 14:00:14"
"Trade","1.07296100","ETH","200.50000000","USD","0.50000000","USD","Gemini","","","2017-05-25 14:00:14"
"Trade","1.07538400","ETH","200.50000000","USD","0.50000000","USD","Gemini","","","2017-05-25 14:00:14"
"Trade","0.01330700","ETH","2.48000000","USD","0.01000000","USD","Gemini","","","2017-05-25 14:00:14"
"Trade","0.02941700","ETH","5.48000000","USD","0.01000000","USD","Gemini","","","2017-05-25 14:00:14"
"Trade","0.01306300","ETH","2.44000000","USD","0.01000000","USD","Gemini","","","2017-05-25 14:00:14"
"Trade","0.02892100","ETH","5.39000000","USD","0.01000000","USD","Gemini","","","2017-05-25 14:00:14"
"Trade","0.02891300","ETH","5.38000000","USD","0.01000000","USD","Gemini","","","2017-05-25 14:00:14"
"Trade","0.02918700","ETH","5.42000000","USD","0.01000000","USD","Gemini","","","2017-05-25 14:00:14"
"Trade","0.04570500","ETH","8.50000000","USD","0.02000000","USD","Gemini","","","2017-05-25 14:00:14"
"Trade","0.01875500","ETH","3.49000000","USD","0.01000000","USD","Gemini","","","2017-05-25 14:00:14"
"Trade","0.03434400","ETH","6.39000000","USD","0.02000000","USD","Gemini","","","2017-05-25 14:00:14"
"Deposit","2000.00000000","USD","","","7.50000000","USD","Bitstamp","","","2017-05-25 08:06:00"
"Trade","5.00000000","ETH","1069.67000000","USD","2.67000000","USD","Gemini","","","2017-05-24 23:00:23"
"Deposit","500.00000000","USD","","","","","Gemini","","","2017-05-24 19:17:53"
"Deposit","500.00000000","USD","","","","","Gemini","","","2017-05-23 17:30:46"
"Trade","15.00000000","LTC","369.64000000","USD","5.43000000","USD","Coinbase","","","2017-05-22 19:11:16"
"Trade","10.00000000","LTC","255.40000000","USD","3.75000000","USD","Coinbase","","","2017-05-22 17:51:11"
"Deposit","500.00000000","USD","","","","","Gemini","","","2017-05-22 17:20:49"
"Trade","1.00000000","BTC","2029.84000000","USD","5.06000000","USD","Gemini","","","2017-05-20 17:55:01"
"Deposit","500.00000000","USD","","","","","Gemini","","","2017-05-20 14:53:17"
"Trade","71.00000000","LTC","1983.53000000","USD","29.12000000","USD","Coinbase","","","2017-05-20 14:36:55"
"Deposit","500.00000000","USD","","","","","Gemini","","","2017-05-17 14:50:31"
"Trade","10.00000000","ETH","871.67000000","USD","2.17000000","USD","Gemini","","","2017-05-17 14:28:57"
"Deposit","500.00000000","USD","","","","","Gemini","","","2017-05-12 17:26:41"
"Trade","0.50000000","BTC","831.23000000","USD","2.07000000","USD","Gemini","","","2017-05-12 15:57:05"
"Deposit","500.00000000","USD","","","","","Gemini","","","2017-05-11 17:34:18"
"Deposit","500.00000000","USD","","","","","Gemini","","","2017-05-10 17:24:18"
"Deposit","500.00000000","USD","","","","","Gemini","","","2017-05-09 17:17:46"
"Deposit","500.00000000","USD","","","","","Gemini","","","2017-05-08 17:09:46"
"Deposit","500.00000000","USD","","","","","Gemini","","","2017-05-07 11:49:08"
"Trade","0.30000000","BTC","483.13000000","USD","7.09000000","USD","Coinbase","","","2017-05-05 22:44:49"
"Trade","40.00000000","LTC","1017.53000000","USD","14.94000000","USD","Coinbase","","","2017-05-04 12:09:06"
"Trade","0.70000000","BTC","931.75000000","USD","13.68000000","USD","Coinbase","","","2017-04-26 11:35:27"
"Trade","0.21516470","BTC","276.21000000","USD","4.06000000","USD","Coinbase","","","2017-04-24 17:38:23"
"Trade","0.78481659","BTC","1007.57000000","USD","14.79000000","USD","Coinbase","","","2017-04-24 17:37:47"
"Trade","20.00000000","ETH","1020.79000000","USD","14.99000000","USD","Coinbase","","","2017-04-24 17:31:34"
"Trade","20.00000000","ETH","992.43000000","USD","14.57000000","USD","Coinbase","","","2017-04-23 11:39:01"
"Trade","1.00000000","BTC","1260.83000000","USD","18.51000000","USD","Coinbase","","","2017-04-20 19:54:48"