Trade,422.25201072,LTC,5.98499988,BTC,Bittrex,,,,2017-9-16 14:50:30
Trade,260.70985367,UBQ,0.19553499,BTC,Bittrex,,,,2017-6-27 12:12:00
Trade,855.37980012,STRAT,2.76611009,BTC,Bittrex,,,,2017-6-16 2:35:33
Trade,1.28272870,BTC,106.62820000,LTC,Bittrex,,,,2017-6-16 1:57:38
Trade,1082.21004367,STRAT,4.55500148,BTC,Bittrex,,,,2017-6-4 23:39:10
Trade,4.57787073,BTC,39464.40304158,XRP,Bittrex,,,,2017-6-4 23:38:02
Trade,11071.80530718,XRP,1.04702062,BTC,Bittrex,,,,2017-5-31 1:58:04
Trade,1.05231423,BTC,379.82691213,STRAT,Bittrex,,,,2017-5-31 1:49:29
Trade,2.59768791,BTC,14004.34800000,XRP,Bittrex,,,,2017-5-16 0:56:24
Trade,379.82691213,STRAT,0.25051863,BTC,Bittrex,,,,2017-5-9 23:50:25
Trade,25.55000000,REP,0.24885240,BTC,Bittrex,,,,2017-5-9 23:48:57
Trade,11800.00000000,BTS,0.24787845,BTC,Bittrex,,,,2017-5-9 23:30:07
Trade,4.37753398,DASH,0.23918097,BTC,Bittrex,,,,2017-5-9 22:42:51
Trade,14000.00000000,XLM,0.24174971,BTC,Bittrex,,,,2017-5-9 22:31:40
Trade,1950.00000000,GNT,0.24733800,BTC,Bittrex,,,,2017-5-9 22:08:36
Trade,14.80000000,XMR,0.24930881,BTC,Bittrex,,,,2017-5-9 22:01:52
Trade,334.88748711,XRP,0.04090650,BTC,Bittrex,,,,2017-5-9 12:36:22
Trade,216.40699288,STEEM,0.13863143,BTC,Bittrex,,,,2017-5-9 12:19:16
Trade,0.13934284,BTC,8763.42513043,START,Bittrex,,,,2017-5-9 12:16:41
Trade,6176.87250960,START,0.09648274,BTC,Bittrex,,,,2017-5-9 12:30:48
Trade,384.90361835,START,0.00588667,BTC,Bittrex,,,,2017-5-9 12:09:57
Trade,866.05158946,START,0.01309025,BTC,Bittrex,,,,2017-5-9 12:07:58
Trade,7512.46992262,START,0.11268704,BTC,Bittrex,,,,2017-5-9 12:07:12
Trade,0.22845665,BTC,290.44778932,PIVX,Bittrex,,,,2017-5-8 23:56:00
Trade,290.44778932,PIVX,0.23036782,BTC,Bittrex,,,,2017-5-8 23:35:42
Trade,5508.02474752,RBY,0.99746713,BTC,Bittrex,,,,2017-4-20 1:24:27
Trade,375.98661148,SDC,0.49874998,BTC,Bittrex,,,,2017-4-13 3:14:45
Trade,4.06336070,BTC,19349336.71588236,DOGE,Bittrex,,,,2017-11-28 19:34:17
Trade,7610713.17794118,DOGE,1.29382119,BTC,Bittrex,,,,2017-11-21 19:09:53
Trade,11738623.53794118,DOGE,1.99556575,BTC,Bittrex,,,,2017-11-19 7:26:20
Trade,0.00106502,BTC,0.19516779,NEO,Bittrex,,,,2017-11-19 3:08:50
Trade,78.41221095,ETH,422.25201072,LTC,Bittrex,,,,2017-10-18 8:46:08
Trade,5.63920902,BTC,2216.66666667,OMG,Bittrex,,,,2017-9-26 1:17:24
Trade,2.03764518,BTC,83135.26259791,BTS,Bittrex,,,,2017-9-15 15:57:34
Trade,1.98704523,BTC,1642.18616549,STRAT,Bittrex,,,,2017-9-15 15:18:26
Trade,5.70067045,BTC,229865.74516424,BTS,Bittrex,,,,2017-9-15 15:10:10
Trade,5.73857098,OMG,0.01329540,BTC,Bittrex,,,,2017-9-14 18:06:52
Trade,0.01333786,BTC,9527.04431010,SC,Bittrex,,,,2017-9-14 18:08:03
Trade,1659.44704156,OMG,3.86319271,BTC,Bittrex,,,,2017-9-14 17:57:31
Trade,0.44265368,BTC,268.06375757,LSK,Bittrex,,,,2017-9-9 21:19:30
Trade,0.71237462,NEO,0.05711159,ETH,Bittrex,,,,2017-9-9 15:48:49
Trade,1642.18616549,STRAT,2.26621690,BTC,Bittrex,,,,2017-9-6 3:48:09
Trade,0.11785390,BTC,85.40201820,STRAT,Bittrex,,,,2017-9-6 3:16:52
Trade,85.40201820,STRAT,0.11757295,BTC,Bittrex,,,,2017-9-6 2:57:00
Trade,29097.04698411,GNT,2.26491411,BTC,Bittrex,,,,2017-9-6 2:27:50
Trade,19158.40856757,GNT,1.45354845,BTC,Bittrex,,,,2017-9-5 23:16:46
Trade,6.01499999,BTC,2759.17431193,OMG,Bittrex,,,,2017-9-5 16:09:41
Trade,658668.46045087,SC,15.08350770,ETH,Bittrex,,,,2017-9-4 21:54:48
Trade,5310370.52810903,SC,124.68749964,ETH,Bittrex,,,,2017-9-4 19:13:34
Trade,124.60591344,ETH,34453.53506610,USDT,Bittrex,,,,2017-9-4 17:56:03
Trade,254.25186589,ETH,70279.28376178,USDT,Bittrex,,,,2017-9-4 17:45:46
Trade,103596.33470256,USDT,5755.35192792,NEO,Bittrex,,,,2017-9-4 15:49:49
Trade,1661.67707634,USDT,92.31539313,NEO,Bittrex,,,,2017-9-4 15:34:17
Trade,76.49628619,LSK,0.06309107,BTC,Bittrex,,,,2017-8-24 0:45:45
Trade,191.56747138,LSK,0.13034059,BTC,Bittrex,,,,2017-8-21 23:23:42
Trade,0.13099396,BTC,289.76478668,ARK,Bittrex,,,,2017-8-21 20:59:40
Trade,289.76478668,ARK,0.12028135,BTC,Bittrex,,,,2017-8-15 23:20:41
Trade,0.12088418,BTC,80.56529488,STRAT,Bittrex,,,,2017-8-15 23:09:10
Trade,80.56529488,STRAT,0.12831634,BTC,Bittrex,,,,2017-8-14 4:40:10
Trade,0.12893744,BTC,75.18218223,STRAT,Bittrex,,,,2017-8-13 0:19:24
Trade,1285.85240090,ANS,3.98999999,BTC,Bittrex,,,,2017-7-24 11:55:28
Trade,5340.94503078,ANS,16.18920520,BTC,Bittrex,,,,2017-7-6 2:50:26
Trade,4.00771023,BTC,1727.88585877,STRAT,Bittrex,,,,2017-7-6 2:53:19
Trade,0.19689852,BTC,85.22971228,STRAT,Bittrex,,,,2017-7-6 12:10:00
Trade,4.00999997,BTC,1738.55738757,STRAT,Bittrex,,,,2017-7-5 23:49:58
Trade,1398.08492754,UBQ,0.99753359,BTC,Bittrex,,,,2017-6-29 3:55:24
Trade,2327.62589157,STRAT,6.37141035,BTC,Bittrex,,,,2017-6-29 3:43:07
Trade,553.17438768,STRAT,1.50697978,BTC,Bittrex,,,,2017-6-29 3:38:13
Trade,0.18521349,BTC,260.70985367,UBQ,Bittrex,,,,2017-6-29 3:06:15
Trade,2965.55451509,STRAT,8.00492128,BTC,Bittrex,,,,2017-6-29 2:57:37
Trade,16.78025223,BTC,135.32461497,ETH,Bittrex,,,,2017-6-29 1:58:04
Trade,3185.50038821,LSK,3.98850130,BTC,Bittrex,,,,2017-6-24 10:57:32
Trade,4.00851181,BTC,32.99186724,ETH,Bittrex,,,,2017-6-24 5:15:36
Trade,341.44183967,STRAT,1.10414779,BTC,Bittrex,,,,2017-6-16 2:36:26
Trade,32.50348228,ETH,4.55048749,BTC,Bittrex,,,,2017-6-16 1:02:56
Trade,4.57332426,BTC,22197.37097670,GNT,Bittrex,,,,2017-6-16 12:58:20
Trade,1.33323140,ETH,0.18531925,BTC,Bittrex,,,,2017-6-16 12:55:23
Trade,24.20147661,ETH,3.36400523,BTC,Bittrex,,,,2017-6-16 12:49:52
Trade,3.33466199,BTC,1014.21628165,STRAT,Bittrex,,,,2017-6-16 12:47:59
Trade,0.23226664,BTC,1126.19604070,GNT,Bittrex,,,,2017-6-16 12:52:18
Trade,23323.56701740,GNT,4.98735572,BTC,Bittrex,,,,2017-6-13 23:59:28
Trade,661.25999930,STRAT,1.84896230,BTC,Bittrex,,,,2017-6-13 12:14:17
Trade,1.85823815,BTC,2378.45355090,STEEM,Bittrex,,,,2017-6-13 12:13:12
Trade,208.35975519,STRAT,0.58372193,BTC,Bittrex,,,,2017-6-13 12:10:21
Trade,18.51896255,STRAT,0.05188346,BTC,Bittrex,,,,2017-6-13 12:04:20
Trade,126.07756461,STRAT,0.35320755,BTC,Bittrex,,,,2017-6-13 12:09:52
Trade,0.99375608,BTC,1259.96062051,STEEM,Bittrex,,,,2017-6-13 12:11:52
Trade,2861.80152742,STEEM,2.68620137,BTC,Bittrex,,,,2017-6-9 22:28:55
Trade,2.28529958,BTC,729.43502136,STRAT,Bittrex,,,,2017-6-9 22:06:30
Trade,4.39894962,STEEM,0.00398820,BTC,Bittrex,,,,2017-6-9 22:07:30
Trade,39.92900104,STEEM,0.03598440,BTC,Bittrex,,,,2017-6-9 22:02:45
Trade,254.76634856,STEEM,0.22911134,BTC,Bittrex,,,,2017-6-9 21:59:09
Trade,0.68476831,BTC,217.46477783,STRAT,Bittrex,,,,2017-6-9 22:06:17
Trade,59.59293031,STEEM,0.05358595,BTC,Bittrex,,,,2017-6-9 21:51:53
Trade,0.05377684,BTC,17.07147654,STRAT,Bittrex,,,,2017-6-9 21:54:59
Trade,417.92541446,STEEM,0.37342354,BTC,Bittrex,,,,2017-6-9 21:50:52
Trade,0.13794770,BTC,43.61630796,STRAT,Bittrex,,,,2017-6-9 21:49:43
Trade,0.23743447,BTC,74.62245998,STRAT,Bittrex,,,,2017-6-9 21:46:49
Trade,2069.86425305,XRP,0.19349090,BTC,Bittrex,,,,2017-5-31 2:40:26
Trade,0.19445999,BTC,14000.00000000,XLM,Bittrex,,,,2017-5-31 2:39:40
Trade,3373.89443039,XRP,0.31407582,BTC,Bittrex,,,,2017-5-31 2:38:43
Trade,0.31564996,BTC,11800.00000000,BTS,Bittrex,,,,2017-5-31 2:37:16
Trade,3594.74652077,XRP,0.33754669,BTC,Bittrex,,,,2017-5-31 2:30:31
Trade,1023.60641364,XRP,0.09601428,BTC,Bittrex,,,,2017-5-31 2:30:17
Trade,52.39754741,XRP,0.00494580,BTC,Bittrex,,,,2017-5-31 2:22:18
Trade,0.43653142,BTC,5165.44105324,XEM,Bittrex,,,,2017-5-31 2:24:52
Trade,0.00417319,BTC,49.14261511,XEM,Bittrex,,,,2017-5-31 2:21:01
Trade,3844.04450323,XRP,0.36310844,BTC,Bittrex,,,,2017-5-31 2:14:41
Trade,0.36488399,BTC,1950.00000000,GNT,Bittrex,,,,2017-5-31 2:13:58
Trade,1577.38418223,XEM,0.21193732,BTC,Bittrex,,,,2017-5-22 1:46:12
Trade,276.27769359,XEM,0.03704331,BTC,Bittrex,,,,2017-5-22 1:45:50
Trade,0.25022966,BTC,14.80000000,XMR,Bittrex,,,,2017-5-22 1:43:38
Trade,29.23249297,XEM,0.00374175,BTC,Bittrex,,,,2017-5-22 1:39:34
Trade,1650.00000000,XEM,0.21037500,BTC,Bittrex,,,,2017-5-22 1:39:07
Trade,97.14885839,XEM,0.01219218,BTC,Bittrex,,,,2017-5-22 1:37:20
Trade,828.24868054,XEM,0.10390379,BTC,Bittrex,,,,2017-5-22 1:36:39
Trade,756.29176063,XEM,0.09469529,BTC,Bittrex,,,,2017-5-22 1:35:32
Trade,0.21449916,BTC,4.37753398,DASH,Bittrex,,,,2017-5-22 1:34:11
Trade,0.21253895,BTC,25.55000000,REP,Bittrex,,,,2017-5-22 1:32:20
Trade,28.82429497,XRP,0.00515954,BTC,Bittrex,,,,2017-5-19 15:12:45
Trade,14405.21977094,XRP,2.57958517,BTC,Bittrex,,,,2017-5-19 3:01:46
Trade,14004.34800000,XRP,2.04883610,BTC,Bittrex,,,,2017-5-15 19:06:19
Trade,2.05910960,BTC,14062.07311532,XRP,Bittrex,,,,2017-5-15 17:49:15
Trade,13.00000000,LTC,0.25024999,BTC,Bittrex,,,,2017-5-9 23:32:30
Trade,9.69687436,XRP,0.00122316,BTC,Bittrex,,,,2017-5-9 12:34:52
Trade,1414.81906743,XRP,0.18162019,BTC,Bittrex,,,,2017-5-9 12:34:07
Trade,0.08914175,BTC,5934.87028956,START,Bittrex,,,,2017-5-9 12:35:48
Trade,0.00372365,BTC,242.00222004,START,Bittrex,,,,2017-5-9 12:31:40
Trade,0.13201259,BTC,216.40699288,STEEM,Bittrex,,,,2017-5-9 12:30:29
Trade,12302.66968642,XRP,0.78564846,BTC,Bittrex,,,,2017-5-6 13:46:54
Trade,0.78959147,BTC,13419.29809638,XRP,Bittrex,,,,2017-5-5 21:31:50
Trade,1.27114192,BTC,5508.02474752,RBY,Bittrex,,,,2017-4-28 2:50:31
Trade,0.20000797,BTC,25000.99863920,VOX,Bittrex,,,,2017-4-27 15:39:16
Trade,0.10591468,BTC,12869.34259087,VOX,Bittrex,,,,2017-4-27 15:16:36
Trade,37870.34123007,VOX,0.49875230,BTC,Bittrex,,,,2017-4-19 2:31:51
Trade,13419.29809638,XRP,0.37802161,BTC,Bittrex,,,,2017-4-17 12:55:21
Trade,0.37991567,BTC,375.98661148,SDC,Bittrex,,,,2017-4-16 23:57:47
Trade,44.76594283,ETH,2711444.14649217,SC,Bittrex,,,,2017-9-24 10:42:03
Trade,239.30970117,XMR,6.26407493,BTC,Bittrex,,,,2017-9-16 14:35:11
Trade,735.89246567,NEO,3.57871127,BTC,Bittrex,,,,2017-9-15 15:43:14
Trade,290.15734850,NEO,1.41597365,BTC,Bittrex,,,,2017-9-15 6:45:18
Trade,2.37419023,BTC,1720427.77539297,SC,Bittrex,,,,2017-9-14 18:08:10
Trade,35203.15899862,GNT,37.66738006,ETH,Bittrex,,,,2017-9-5 22:36:13
Trade,75.18218223,STRAT,1.57882507,ETH,Bittrex,,,,2017-8-12 19:40:40
Trade,1169.42447300,ANS,3.62873581,BTC,Bittrex,,,,2017-7-24 0:12:27
Trade,1281.56215437,ANS,3.97668736,BTC,Bittrex,,,,2017-7-24 11:55:08
Trade,4.94023298,BTC,3491.50347551,STRAT,Bittrex,,,,2017-7-11 0:48:40
Trade,0.59064893,BTC,1398.08492754,UBQ,Bittrex,,,,2017-7-11 0:45:22
Trade,13.05804457,BTC,5509.72347180,ANS,Bittrex,,,,2017-7-11 0:51:23
Trade,1432.25813351,ANS,3.85423527,BTC,Bittrex,,,,2017-7-10 12:57:46
Trade,6.35200910,BTC,2276.70578182,ANS,Bittrex,,,,2017-7-9 6:33:10
Trade,15.80059226,ETH,0.79192564,BTC,Bittrex,,,,2017-11-14 20:01:55
Trade,178.22635931,NEO,0.83944793,BTC,Bittrex,,,,2017-9-21 22:51:53
Trade,5.58425463,BTC,1096.88973263,NEO,Bittrex,,,,2017-9-15 14:58:35
Trade,313001.00776215,BTS,7.34300355,BTC,Bittrex,,,,2017-9-15 15:24:24
Trade,1013.87303601,OMG,2.36233430,BTC,Bittrex,,,,2017-9-15 10:55:37
Trade,2.14314010,BTC,44.64876152,ETH,Bittrex,,,,2017-11-14 2:10:00
Trade,76.16747250,ETH,239.30970117,XMR,Bittrex,,,,2017-9-24 18:28:28
Trade,20.00734865,BTC,7410.67810178,OMG,Bittrex,,,,2017-9-15 14:46:14
Trade,37.85491965,ETH,1527640.02236466,SC,Bittrex,,,,2017-9-5 15:53:31
Trade,2216.66666667,OMG,5.98499999,BTC,Bittrex,,,,2017-9-16 14:46:10
Trade,1482.71466847,ANS,3.99001481,BTC,Bittrex,,,,2017-7-10 12:57:11
Trade,26.75689619,ETH,1.34052049,BTC,Bittrex,,,,2017-11-14 19:58:29
Trade,1071.99380848,NEO,5.14555949,BTC,Bittrex,,,,2017-9-21 22:53:52
Trade,5.96228324,BTC,83458.61455030,GNT,Bittrex,,,,2017-9-12 2:17:02
Trade,464.15254384,NEO,37.13735560,ETH,Bittrex,,,,2017-9-8 21:07:39
Trade,7490.79376516,OMG,239.70540040,ETH,Bittrex,,,,2017-9-5 14:11:42
Trade,8.54898233,BTC,3064.23924896,ANS,Bittrex,,,,2017-7-9 6:51:00
Trade,1138.73899210,ANS,3.53351847,BTC,Bittrex,,,,2017-7-24 11:56:43
Trade,964.38930068,ANS,2.99249997,BTC,Bittrex,,,,2017-7-24 0:29:31
Trade,2.15881360,BTC,3185.50038821,LSK,Bittrex,,,,2017-7-11 13:03:15
Trade,1112.03600135,ANS,2.99249998,BTC,Bittrex,,,,2017-7-10 12:58:43
Trade,1482.71466847,ANS,3.98999999,BTC,Bittrex,,,,2017-7-10 12:58:12