Date,Time (UTC),Type,Symbol,Specification,Liquidity Indicator,Trading Fee Rate (bps),USD Amount,Trading Fee (USD),USD Balance,BTC Amount,Trading Fee (BTC),BTC Balance,ETH Amount,ETH Balance,Trade ID,Order ID,Order Date,Order Time,Client Order ID,API Session,Tx Hash,Deposit Tx Output,Withdrawal Destination,Withdrawal Tx Output
2017-05-10,00:48:22.031,Credit,USD,Deposit (Instant ACH Transfer),,,$500.00 ,,$500.00 ,,,0.0 BTC ,,0.0 ETH ,,,,,,,,,,
2017-05-10,22:39:30.690,Credit,USD,Deposit (Instant ACH Transfer),,,$500.00 ,,"$1,000.00 ",,,0.0 BTC ,,0.0 ETH ,,,,,,,,,,
2017-05-11,15:34:05.636,Credit,USD,Deposit (Wire Transfer),,,"$10,000.00 ",,"$11,000.00 ",,,0.0 BTC ,,0.0 ETH ,,,,,,,,,,
2017-05-12,11:14:10.641,Credit,USD,Deposit (Instant ACH Transfer),,,$500.00 ,,"$11,500.00 ",,,0.0 BTC ,,0.0 ETH ,,,,,,,,,,
2017-05-12,19:50:16.414,Buy,BTCUSD,Limit,Taker,25.00 ,"($1,658.31)",($4.15),"$9,837.54 ",1.0 BTC ,,1.0 BTC ,,0.0 ETH ,580848628,580848626,2017-05-12,19:50:16.415,,,,,,
2017-05-12,22:08:50.889,Credit,USD,Deposit (Instant ACH Transfer),,,$500.00 ,,"$10,337.54 ",,,1.0 BTC ,,0.0 ETH ,,,,,,,,,,
2017-05-21,04:37:11.810,Credit,USD,Deposit (Instant ACH Transfer),,,$500.00 ,,"$10,837.54 ",,,1.0 BTC ,,0.0 ETH ,,,,,,,,,,
2017-05-21,04:45:25.902,Buy,BTCUSD,Limit,Taker,25.00 ,"($7,417.25)",($18.54),"$3,401.75 ",3.608 BTC ,,4.608 BTC ,,0.0 ETH ,611105147,611105127,2017-05-21,04:45:25.900,,,,,,
2017-05-21,04:45:25.902,Buy,BTCUSD,Limit,Taker,25.00 ,($201.47),($0.50),"$3,199.78 ",0.098 BTC ,,4.706 BTC ,,0.0 ETH ,611105145,611105127,2017-05-21,04:45:25.900,,,,,,
2017-05-21,04:45:25.902,Buy,BTCUSD,Limit,Taker,25.00 ,($203.52),($0.51),"$2,995.75 ",0.099 BTC ,,4.805 BTC ,,0.0 ETH ,611105143,611105127,2017-05-21,04:45:25.900,,,,,,
2017-05-21,04:45:25.902,Buy,BTCUSD,Limit,Taker,25.00 ,($495.44),($1.24),"$2,499.06 ",0.241 BTC ,,5.046 BTC ,,0.0 ETH ,611105141,611105127,2017-05-21,04:45:25.900,,,,,,
2017-05-21,04:45:25.902,Buy,BTCUSD,Limit,Taker,25.00 ,($201.47),($0.50),"$2,297.09 ",0.098 BTC ,,5.144 BTC ,,0.0 ETH ,611105139,611105127,2017-05-21,04:45:25.900,,,,,,
2017-05-21,04:45:25.902,Buy,BTCUSD,Limit,Taker,25.00 ,($497.50),($1.24),"$1,798.35 ",0.242 BTC ,,5.386 BTC ,,0.0 ETH ,611105137,611105127,2017-05-21,04:45:25.900,,,,,,
2017-05-21,04:45:25.902,Buy,BTCUSD,Limit,Taker,25.00 ,($497.50),($1.24),"$1,299.61 ",0.242 BTC ,,5.628 BTC ,,0.0 ETH ,611105135,611105127,2017-05-21,04:45:25.900,,,,,,
2017-05-21,04:45:25.902,Buy,BTCUSD,Limit,Taker,25.00 ,($497.50),($1.24),$800.87 ,0.242 BTC ,,5.87 BTC ,,0.0 ETH ,611105133,611105127,2017-05-21,04:45:25.900,,,,,,
2017-05-21,04:45:25.902,Buy,BTCUSD,Limit,Taker,25.00 ,($493.39),($1.23),$306.25 ,0.24 BTC ,,6.11 BTC ,,0.0 ETH ,611105131,611105127,2017-05-21,04:45:25.900,,,,,,
2017-05-21,04:45:25.902,Buy,BTCUSD,Limit,Taker,25.00 ,($287.81),($0.72),$17.72 ,0.14 BTC ,,6.25 BTC ,,0.0 ETH ,611105129,611105127,2017-05-21,04:45:25.900,,,,,,
2017-06-13,23:42:09.808,Debit,BTC,Withdrawal (BTC),,,,,$17.72 ,(5.0 BTC),,1.25 BTC ,,0.0 ETH ,,,,,,,fc73e8cd5fb646c9bd9d2b7e475f969e65c3f387a84ea0a29c170a3aa8d9dec9,,12K3GwiqXdBTNGN2pMazgwCe64kHPNxCCV,0
2017-06-16,01:10:24.506,Buy,ETHBTC,Limit,Taker,25.00 ,,,$17.72 ,(0.4429641 BTC),(0.00110741 BTC),0.80592849 BTC ,3.207096 ETH ,3.207096 ETH ,776677547,776677543,2017-06-16,01:10:24.502,,,,,,
2017-06-16,01:10:24.506,Buy,ETHBTC,Limit,Taker,25.00 ,,,$17.72 ,(0.80000004 BTC),(0.002 BTC),0.00392845 BTC ,5.792904 ETH ,9.0 ETH ,776677545,776677543,2017-06-16,01:10:24.502,,,,,,
2017-06-16,01:11:45.934,Buy,ETHBTC,Limit,Taker,25.00 ,,,$17.72 ,(0.00386736 BTC),(0.00000967 BTC),0.00005142 BTC ,0.028 ETH ,9.028 ETH ,776683493,776683491,2017-06-16,01:11:45.930,,,,,,
2017-06-16,01:15:32.928,Debit,ETH,Withdrawal (ETH),,,,,$17.72 ,,,0.00005142 BTC ,(9.028 ETH),0.0 ETH ,,,,,,,a1b39608e26f510188176fcd8a319c959dfda28ce6b8085cbb888af755575ced,,0xe4016ebfd34ac55c7558cc1612d10f286ede6d17,
2017-06-20,00:11:40.100,Credit,USD,Deposit (Instant ACH Transfer),,,$500.00 ,,$517.72 ,,,0.00005142 BTC ,,0.0 ETH ,,,,,,,,,,
2017-06-20,00:32:43.530,Buy,BTCUSD,Limit,Taker,25.00 ,($514.79),($1.29),$1.64 ,0.196 BTC ,,0.19605142 BTC ,,0.0 ETH ,798529934,798529932,2017-06-20,00:32:43.530,,,,,,
2017-06-26,23:13:33.964,Debit,BTC,Withdrawal (BTC),,,,,$1.64 ,(0.196 BTC),,0.00005142 BTC ,,0.0 ETH ,,,,,,,6115b3c7d3156d1af1fa41097b66bba555c978b2e5cb8f3c04b26b6b9dd2ad91,,12K3GwiqXdBTNGN2pMazgwCe64kHPNxCCV,0
2017-07-05,16:41:35.970,Credit,USD,Deposit (Wire Transfer),,,"$21,000.00 ",,"$21,001.64 ",,,0.00005142 BTC ,,0.0 ETH ,,,,,,,,,,
2017-07-05,23:08:28.809,Buy,BTCUSD,Limit,Taker,25.00 ,"($6,641.75)",($16.60),"$14,343.28 ",2.55052698 BTC ,,2.5505784 BTC ,,0.0 ETH ,883492724,883492712,2017-07-05,23:08:28.806,,,,,,
2017-07-05,23:08:28.809,Buy,BTCUSD,Limit,Taker,25.00 ,"($1,621.76)",($4.05),"$12,717.47 ",0.6227773 BTC ,,3.1733557 BTC ,,0.0 ETH ,883492722,883492712,2017-07-05,23:08:28.806,,,,,,
2017-07-05,23:08:28.809,Buy,BTCUSD,Limit,Taker,25.00 ,"($1,275.65)",($3.19),"$11,438.64 ",0.48986649 BTC ,,3.66322219 BTC ,,0.0 ETH ,883492720,883492712,2017-07-05,23:08:28.806,,,,,,
2017-07-05,23:08:28.809,Buy,BTCUSD,Limit,Taker,25.00 ,"($7,812.21)",($19.53),"$3,606.90 ",3.0 BTC ,,6.66322219 BTC ,,0.0 ETH ,883492718,883492712,2017-07-05,23:08:28.806,,,,,,
2017-07-05,23:08:28.809,Buy,BTCUSD,Limit,Taker,25.00 ,"($2,083.26)",($5.21),"$1,518.43 ",0.8 BTC ,,7.46322219 BTC ,,0.0 ETH ,883492716,883492712,2017-07-05,23:08:28.806,,,,,,
2017-07-05,23:08:28.809,Buy,BTCUSD,Limit,Taker,25.00 ,"($1,490.78)",($3.73),$23.93 ,0.57247923 BTC ,,8.03570142 BTC ,,0.0 ETH ,883492714,883492712,2017-07-05,23:08:28.806,,,,,,
2017-07-05,23:10:05.201,Debit,BTC,Withdrawal (BTC),,,,,$23.93 ,(8.03570141 BTC),,0.00000001 BTC ,,0.0 ETH ,,,,,,,24b517230001be681848799c320428e125b225c5e8cfe5c8947c2a2599cd9826,,12K3GwiqXdBTNGN2pMazgwCe64kHPNxCCV,0
2017-07-11,22:20:05.201,Credit,BTC,Deposit (BTC),,,,,$23.93 ,20.69489514 BTC ,,20.69489515 BTC ,,0.0 ETH ,,,,,,,83b5e3f796a74ff059a5e7aa0159f9521f34b0673bbdc36eb4c8666570390610,3,,
2017-07-12,03:03:47.910,Credit,USD,Deposit (Instant ACH Transfer),,,$500.00 ,,$523.93 ,,,20.69489515 BTC ,,0.0 ETH ,,,,,,,,,,
2017-07-12,09:04:16.320,Sell,BTCUSD,Limit,Maker,25.00 ,$21.50 ,($0.05),$545.38 ,(0.00922836 BTC),,20.68566679 BTC ,,0.0 ETH ,928025380,926213013,2017-07-12,03:01:05.901,,,,,,
2017-07-12,09:04:28.671,Sell,BTCUSD,Limit,Maker,25.00 ,$23.30 ,($0.06),$568.63 ,(0.01 BTC),,20.67566679 BTC ,,0.0 ETH ,928026609,926213013,2017-07-12,03:01:05.901,,,,,,
2017-07-12,09:04:31.121,Sell,BTCUSD,Limit,Maker,25.00 ,$23.30 ,($0.06),$591.87 ,(0.01 BTC),,20.66566679 BTC ,,0.0 ETH ,928026866,926213013,2017-07-12,03:01:05.901,,,,,,
2017-07-12,09:06:23.907,Sell,BTCUSD,Limit,Maker,25.00 ,"$1,000.00 ",($2.50),"$1,589.37 ",(0.4291385 BTC),,20.23652829 BTC ,,0.0 ETH ,928037929,926213013,2017-07-12,03:01:05.901,,,,,,
2017-07-12,09:06:31.089,Sell,BTCUSD,Limit,Maker,25.00 ,$23.30 ,($0.06),"$1,612.61 ",(0.01 BTC),,20.22652829 BTC ,,0.0 ETH ,928038635,926213013,2017-07-12,03:01:05.901,,,,,,
2017-07-12,09:06:32.570,Sell,BTCUSD,Limit,Maker,25.00 ,$476.14 ,($1.19),"$2,087.56 ",(0.20433 BTC),,20.02219829 BTC ,,0.0 ETH ,928038757,926213013,2017-07-12,03:01:05.901,,,,,,
2017-07-12,09:06:35.694,Sell,BTCUSD,Limit,Maker,25.00 ,$499.44 ,($1.25),"$2,585.76 ",(0.21433 BTC),,19.80786829 BTC ,,0.0 ETH ,928039034,926213013,2017-07-12,03:01:05.901,,,,,,
2017-07-12,09:06:37.292,Sell,BTCUSD,Limit,Maker,25.00 ,$499.44 ,($1.25),"$3,083.95 ",(0.21433 BTC),,19.59353829 BTC ,,0.0 ETH ,928039209,926213013,2017-07-12,03:01:05.901,,,,,,
2017-07-12,09:06:39.647,Sell,BTCUSD,Limit,Maker,25.00 ,$316.91 ,($0.79),"$3,400.07 ",(0.136 BTC),,19.45753829 BTC ,,0.0 ETH ,928039356,926213013,2017-07-12,03:01:05.901,,,,,,
2017-07-12,09:06:41.046,Sell,BTCUSD,Limit,Maker,25.00 ,$153.80 ,($0.38),"$3,553.49 ",(0.066 BTC),,19.39153829 BTC ,,0.0 ETH ,928039493,926213013,2017-07-12,03:01:05.901,,,,,,
2017-07-12,09:06:44.612,Sell,BTCUSD,Limit,Maker,25.00 ,$23.30 ,($0.06),"$3,576.73 ",(0.01 BTC),,19.38153829 BTC ,,0.0 ETH ,928039936,926213013,2017-07-12,03:01:05.901,,,,,,
2017-07-12,09:06:46.246,Sell,BTCUSD,Limit,Maker,25.00 ,$5.43 ,($0.01),"$3,582.15 ",(0.00233 BTC),,19.37920829 BTC ,,0.0 ETH ,928040074,926213013,2017-07-12,03:01:05.901,,,,,,
2017-07-12,09:06:47.683,Sell,BTCUSD,Limit,Maker,25.00 ,$457.80 ,($1.14),"$4,038.80 ",(0.19646 BTC),,19.18274829 BTC ,,0.0 ETH ,928040208,926213013,2017-07-12,03:01:05.901,,,,,,
2017-07-12,09:06:49.031,Sell,BTCUSD,Limit,Maker,25.00 ,$0.07 ,($0.00),"$4,038.87 ",(0.00003 BTC),,19.18271829 BTC ,,0.0 ETH ,928040312,926213013,2017-07-12,03:01:05.901,,,,,,
2017-07-12,09:06:50.462,Sell,BTCUSD,Limit,Maker,25.00 ,$497.07 ,($1.24),"$4,534.70 ",(0.21331 BTC),,18.96940829 BTC ,,0.0 ETH ,928040412,926213013,2017-07-12,03:01:05.901,,,,,,
2017-07-12,09:06:51.955,Sell,BTCUSD,Limit,Maker,25.00 ,$497.07 ,($1.24),"$5,030.52 ",(0.21331 BTC),,18.75609829 BTC ,,0.0 ETH ,928040549,926213013,2017-07-12,03:01:05.901,,,,,,
2017-07-12,09:06:53.543,Sell,BTCUSD,Limit,Maker,25.00 ,$497.07 ,($1.24),"$5,526.34 ",(0.21331 BTC),,18.54278829 BTC ,,0.0 ETH ,928040706,926213013,2017-07-12,03:01:05.901,,,,,,
2017-07-12,09:06:54.909,Sell,BTCUSD,Limit,Maker,25.00 ,$416.42 ,($1.04),"$5,941.72 ",(0.1787 BTC),,18.36408829 BTC ,,0.0 ETH ,928040802,926213013,2017-07-12,03:01:05.901,,,,,,
2017-07-12,09:06:56.479,Sell,BTCUSD,Limit,Maker,25.00 ,$66.88 ,($0.17),"$6,008.43 ",(0.0287 BTC),,18.33538829 BTC ,,0.0 ETH ,928040986,926213013,2017-07-12,03:01:05.901,,,,,,
2017-07-12,09:06:59.610,Sell,BTCUSD,Limit,Maker,25.00 ,$23.30 ,($0.06),"$6,031.67 ",(0.01 BTC),,18.32538829 BTC ,,0.0 ETH ,928041290,926213013,2017-07-12,03:01:05.901,,,,,,
2017-07-12,09:07:01.256,Sell,BTCUSD,Limit,Maker,25.00 ,$23.30 ,($0.06),"$6,054.92 ",(0.01 BTC),,18.31538829 BTC ,,0.0 ETH ,928041451,926213013,2017-07-12,03:01:05.901,,,,,,
2017-07-12,09:07:02.798,Sell,BTCUSD,Limit,Maker,25.00 ,$233.03 ,($0.58),"$6,287.36 ",(0.1 BTC),,18.21538829 BTC ,,0.0 ETH ,928041565,926213013,2017-07-12,03:01:05.901,,,,,,
2017-07-12,09:07:05.031,Sell,BTCUSD,Limit,Maker,25.00 ,$201.31 ,($0.50),"$6,488.16 ",(0.08638972 BTC),,18.12899857 BTC ,,0.0 ETH ,928041856,926213013,2017-07-12,03:01:05.901,,,,,,
2017-07-12,09:07:08.597,Sell,BTCUSD,Limit,Maker,25.00 ,$281.96 ,($0.70),"$6,769.42 ",(0.121 BTC),,18.00799857 BTC ,,0.0 ETH ,928042147,926213013,2017-07-12,03:01:05.901,,,,,,
2017-07-12,09:07:11.611,Sell,BTCUSD,Limit,Maker,25.00 ,$170.11 ,($0.43),"$6,939.10 ",(0.073 BTC),,17.93499857 BTC ,,0.0 ETH ,928042519,926213013,2017-07-12,03:01:05.901,,,,,,
2017-07-12,09:07:13.016,Sell,BTCUSD,Limit,Maker,25.00 ,$25.63 ,($0.06),"$6,964.67 ",(0.011 BTC),,17.92399857 BTC ,,0.0 ETH ,928042604,926213013,2017-07-12,03:01:05.901,,,,,,
2017-07-12,09:07:13.092,Sell,BTCUSD,Limit,Maker,25.00 ,"$41,767.40 ",($104.42),"$48,627.65 ",(17.92399852 BTC),,0.00000005 BTC ,,0.0 ETH ,928042609,926213013,2017-07-12,03:01:05.901,,,,,,
2017-07-13,14:49:31.549,Credit,USD,Deposit (Instant ACH Transfer),,,$500.00 ,,"$49,127.65 ",,,0.00000005 BTC ,,0.0 ETH ,,,,,,,,,,
2017-07-14,16:39:21.912,Buy,ETHUSD,Limit,Taker,25.00 ,"($6,444.59)",($16.11),"$42,666.95 ",,,0.00000005 BTC ,34.395 ETH ,34.395 ETH ,945057130,945057120,2017-07-14,16:39:21.909,,,,,,
2017-07-14,16:39:21.912,Buy,ETHUSD,Limit,Taker,25.00 ,"($11,035.16)",($27.59),"$31,604.20 ",,,0.00000005 BTC ,58.895 ETH ,93.29 ETH ,945057128,945057120,2017-07-14,16:39:21.909,,,,,,
2017-07-14,16:39:21.912,Buy,ETHUSD,Limit,Taker,25.00 ,"($10,027.91)",($25.07),"$21,551.22 ",,,0.00000005 BTC ,53.525 ETH ,146.815 ETH ,945057126,945057120,2017-07-14,16:39:21.909,,,,,,
2017-07-14,16:39:21.912,Buy,ETHUSD,Limit,Taker,25.00 ,"($11,239.80)",($28.10),"$10,283.33 ",,,0.00000005 BTC ,60.0 ETH ,206.815 ETH ,945057124,945057120,2017-07-14,16:39:21.909,,,,,,
2017-07-14,16:39:21.912,Buy,ETHUSD,Limit,Taker,25.00 ,"($10,150.48)",($25.38),$107.47 ,,,0.00000005 BTC ,54.185 ETH ,261.0 ETH ,945057122,945057120,2017-07-14,16:39:21.909,,,,,,
2017-07-14,16:49:44.202,Buy,ETHUSD,Limit,Taker,25.00 ,($106.74),($0.27),$0.47 ,,,0.00000005 BTC ,0.58 ETH ,261.58 ETH ,945144004,945144002,2017-07-14,16:49:44.198,,,,,,
2017-07-14,21:25:04.937,Sell,ETHUSD,Limit,Maker,25.00 ,$90.16 ,($0.23),$90.40 ,,,0.00000005 BTC ,(0.47 ETH),261.11 ETH ,947312451,946715610,2017-07-14,20:01:04.854,,,,,,
2017-07-14,21:25:05.476,Sell,ETHUSD,Limit,Maker,25.00 ,$31.75 ,($0.08),$122.07 ,,,0.00000005 BTC ,(0.1655 ETH),260.9445 ETH ,947312559,946715610,2017-07-14,20:01:04.854,,,,,,
2017-07-14,21:25:05.974,Sell,ETHUSD,Limit,Maker,25.00 ,$653.14 ,($1.63),$773.58 ,,,0.00000005 BTC ,(3.4048 ETH),257.5397 ETH ,947312609,946715610,2017-07-14,20:01:04.854,,,,,,
2017-07-14,21:25:08.528,Sell,ETHUSD,Limit,Maker,25.00 ,"$19,183.00 ",($47.96),"$19,908.62 ",,,0.00000005 BTC ,(100.0 ETH),157.5397 ETH ,947312919,946715610,2017-07-14,20:01:04.854,,,,,,
2017-07-14,21:25:13.897,Sell,ETHUSD,Limit,Maker,25.00 ,$148.48 ,($0.37),"$20,056.73 ",,,0.00000005 BTC ,(0.774 ETH),156.7657 ETH ,947313613,946715610,2017-07-14,20:01:04.854,,,,,,
2017-07-14,21:25:23.952,Sell,ETHUSD,Limit,Maker,25.00 ,$959.15 ,($2.40),"$21,013.48 ",,,0.00000005 BTC ,(5.0 ETH),151.7657 ETH ,947314718,946715610,2017-07-14,20:01:04.854,,,,,,
2017-07-14,21:25:24.658,Sell,ETHUSD,Limit,Maker,25.00 ,$574.53 ,($1.44),"$21,586.58 ",,,0.00000005 BTC ,(2.995 ETH),148.7707 ETH ,947314825,946715610,2017-07-14,20:01:04.854,,,,,,
2017-07-14,21:25:24.738,Sell,ETHUSD,Limit,Maker,25.00 ,"$5,894.67 ",($14.74),"$27,466.51 ",,,0.00000005 BTC ,(30.728608 ETH),118.042092 ETH ,947314830,946715610,2017-07-14,20:01:04.854,,,,,,
2017-07-14,21:25:25.038,Sell,ETHUSD,Limit,Maker,25.00 ,"$1,150.98 ",($2.88),"$28,614.61 ",,,0.00000005 BTC ,(6.0 ETH),112.042092 ETH ,947314887,946715610,2017-07-14,20:01:04.854,,,,,,
2017-07-14,21:25:25.529,Sell,ETHUSD,Limit,Maker,25.00 ,"$7,276.94 ",($18.19),"$35,873.36 ",,,0.00000005 BTC ,(37.9343 ETH),74.107792 ETH ,947314925,946715610,2017-07-14,20:01:04.854,,,,,,
2017-07-14,21:25:33.263,Sell,ETHUSD,Limit,Maker,25.00 ,"$1,150.98 ",($2.88),"$37,021.46 ",,,0.00000005 BTC ,(6.0 ETH),68.107792 ETH ,947315948,946715610,2017-07-14,20:01:04.854,,,,,,
2017-07-14,21:25:37.305,Sell,ETHUSD,Limit,Maker,25.00 ,$575.49 ,($1.44),"$37,595.51 ",,,0.00000005 BTC ,(3.0 ETH),65.107792 ETH ,947316517,946715610,2017-07-14,20:01:04.854,,,,,,
2017-07-14,21:25:37.445,Sell,ETHUSD,Limit,Maker,25.00 ,$959.15 ,($2.40),"$38,552.26 ",,,0.00000005 BTC ,(5.0 ETH),60.107792 ETH ,947316525,946715610,2017-07-14,20:01:04.854,,,,,,
2017-07-14,21:25:37.953,Sell,ETHUSD,Limit,Maker,25.00 ,$959.15 ,($2.40),"$39,509.01 ",,,0.00000005 BTC ,(5.0 ETH),55.107792 ETH ,947316615,946715610,2017-07-14,20:01:04.854,,,,,,
2017-07-14,21:25:42.797,Sell,ETHUSD,Limit,Maker,25.00 ,$57.53 ,($0.14),"$39,566.40 ",,,0.00000005 BTC ,(0.299914 ETH),54.807878 ETH ,947317160,946715610,2017-07-14,20:01:04.854,,,,,,
2017-07-14,21:25:44.261,Sell,ETHUSD,Limit,Maker,25.00 ,$71.94 ,($0.18),"$39,638.16 ",,,0.00000005 BTC ,(0.375 ETH),54.432878 ETH ,947317317,946715610,2017-07-14,20:01:04.854,,,,,,
2017-07-14,21:25:45.321,Sell,ETHUSD,Limit,Maker,25.00 ,$35.87 ,($0.09),"$39,673.94 ",,,0.00000005 BTC ,(0.187 ETH),54.245878 ETH ,947317462,946715610,2017-07-14,20:01:04.854,,,,,,
2017-07-14,21:25:48.450,Sell,ETHUSD,Limit,Maker,25.00 ,$959.15 ,($2.40),"$40,630.69 ",,,0.00000005 BTC ,(5.0 ETH),49.245878 ETH ,947317904,946715610,2017-07-14,20:01:04.854,,,,,,
2017-07-14,21:25:48.455,Sell,ETHUSD,Limit,Maker,25.00 ,$959.15 ,($2.40),"$41,587.45 ",,,0.00000005 BTC ,(5.0 ETH),44.245878 ETH ,947317909,946715610,2017-07-14,20:01:04.854,,,,,,
2017-07-14,21:25:49.951,Sell,ETHUSD,Limit,Maker,25.00 ,$959.15 ,($2.40),"$42,544.20 ",,,0.00000005 BTC ,(5.0 ETH),39.245878 ETH ,947318119,946715610,2017-07-14,20:01:04.854,,,,,,
2017-07-14,21:25:50.692,Sell,ETHUSD,Limit,Maker,25.00 ,"$7,528.54 ",($18.82),"$50,053.91 ",,,0.00000005 BTC ,(39.245878 ETH),0.0 ETH ,947318184,946715610,2017-07-14,20:01:04.854,,,,,,
2017-07-22,05:42:31.803,Buy,BTCUSD,Limit,Taker,25.00 ,"($10,746.13)",($26.87),"$39,280.92 ",3.91 BTC ,,3.91000005 BTC ,,0.0 ETH ,1036062601,1036062591,2017-07-22,05:42:31.803,,,,,,
2017-07-22,05:42:31.803,Buy,BTCUSD,Limit,Taker,25.00 ,($412.26),($1.03),"$38,867.63 ",0.15 BTC ,,4.06000005 BTC ,,0.0 ETH ,1036062599,1036062591,2017-07-22,05:42:31.803,,,,,,
2017-07-22,05:42:31.803,Buy,BTCUSD,Limit,Taker,25.00 ,"($14,901.94)",($37.25),"$23,928.44 ",5.4221 BTC ,,9.48210005 BTC ,,0.0 ETH ,1036062597,1036062591,2017-07-22,05:42:31.803,,,,,,
2017-07-22,05:42:31.803,Buy,BTCUSD,Limit,Taker,25.00 ,($246.38),($0.62),"$23,681.44 ",0.08964726 BTC ,,9.57174731 BTC ,,0.0 ETH ,1036062595,1036062591,2017-07-22,05:42:31.803,,,,,,
2017-07-22,06:05:48.200,Buy,BTCUSD,Limit,Maker,25.00 ,"($12,722.30)",($31.81),"$10,927.33 ",4.629036 BTC ,,14.20078331 BTC ,,0.0 ETH ,1036171939,1036062591,2017-07-22,05:42:31.803,,,,,,
2017-07-22,06:05:48.301,Buy,BTCUSD,Limit,Maker,25.00 ,($771.09),($1.93),"$10,154.32 ",0.280562 BTC ,,14.48134531 BTC ,,0.0 ETH ,1036171951,1036062591,2017-07-22,05:42:31.803,,,,,,
2017-07-22,06:05:48.584,Buy,BTCUSD,Limit,Maker,25.00 ,($519.45),($1.30),"$9,633.57 ",0.189002 BTC ,,14.67034731 BTC ,,0.0 ETH ,1036171974,1036062591,2017-07-22,05:42:31.803,,,,,,
2017-07-22,06:05:49.068,Buy,BTCUSD,Limit,Maker,25.00 ,($90.97),($0.23),"$9,542.37 ",0.0331 BTC ,,14.70344731 BTC ,,0.0 ETH ,1036172046,1036062591,2017-07-22,05:42:31.803,,,,,,
2017-07-22,06:05:49.368,Buy,BTCUSD,Limit,Maker,25.00 ,"($4,532.61)",($11.33),"$4,998.43 ",1.6492 BTC ,,16.35264731 BTC ,,0.0 ETH ,1036172070,1036062591,2017-07-22,05:42:31.803,,,,,,
2017-07-22,06:05:56.236,Buy,BTCUSD,Limit,Maker,25.00 ,"($4,985.87)",($12.46),$0.09 ,1.81412067 BTC ,,18.16676798 BTC ,,0.0 ETH ,1036172956,1036062591,2017-07-22,05:42:31.803,,,,,,
2017-07-24,01:37:42.690,Debit,BTC,Withdrawal (BTC),,,,,$0.09 ,(18.16676797 BTC),,0.00000001 BTC ,,0.0 ETH ,,,,,,,9814618ba58d4183f272084f127f5a962d50dba23cffa6c15bfe362ac555eb34,,12K3GwiqXdBTNGN2pMazgwCe64kHPNxCCV,0
2017-08-04,01:35:13.064,Credit,USD,Deposit (Instant ACH Transfer),,,$500.00 ,,$500.09 ,,,0.00000001 BTC ,,0.0 ETH ,,,,,,,,,,
2017-08-12,19:13:42.282,Buy,ETHUSD,Limit,Maker,25.00 ,($63.27),($0.16),$436.67 ,,,0.00000001 BTC ,0.201 ETH ,0.201 ETH ,1318425331,1318072774,2017-08-12,18:38:08.346,,,,,,
2017-08-12,19:13:42.784,Buy,ETHUSD,Limit,Maker,25.00 ,($62.64),($0.16),$373.87 ,,,0.00000001 BTC ,0.199 ETH ,0.4 ETH ,1318425438,1318072774,2017-08-12,18:38:08.346,,,,,,
2017-08-12,19:13:43.653,Buy,ETHUSD,Limit,Maker,25.00 ,($372.85),($0.93),$0.09 ,,,0.00000001 BTC ,1.18454 ETH ,1.58454 ETH ,1318425606,1318072774,2017-08-12,18:38:08.346,,,,,,
2017-08-12,19:18:24.431,Debit,ETH,Withdrawal (ETH),,,,,$0.09 ,,,0.00000001 BTC ,(1.58454 ETH),0.0 ETH ,,,,,,,86b3aaa39eda22c8ae25365b6026a8586fc469efd7bb73d39bdfe6cc087c3d9a,,0x7976a66ffde55fc729ce8cbd8a7689bc0d155f11,
2017-08-21,23:28:01.391,Credit,USD,Deposit (Instant ACH Transfer),,,$500.00 ,,$500.09 ,,,0.00000001 BTC ,,0.0 ETH ,,,,,,,,,,
2017-08-22,00:08:15.933,Buy,ETHUSD,Limit,Maker,25.00 ,($498.75),($1.25),$0.10 ,,,0.00000001 BTC ,1.570569 ETH ,1.570569 ETH ,1433619068,1433317447,2017-08-21,23:29:02.831,,,,,,
2017-09-02,16:18:52.255,Credit,USD,Deposit (Instant ACH Transfer),,,$500.00 ,,$500.10 ,,,0.00000001 BTC ,,1.570569 ETH ,,,,,,,,,,
2017-09-02,16:20:18.963,Debit,ETH,Withdrawal (ETH),,,,,$500.10 ,,,0.00000001 BTC ,(1.570569 ETH),0.0 ETH ,,,,,,,30172ee5851e01ae9644978944e20b3bb5b3aaa5b6d6ba7674c02aa30fa52a94,,0x7976a66ffde55fc729ce8cbd8a7689bc0d155f11,
2017-09-02,16:22:10.863,Buy,ETHUSD,Limit,Taker,25.00 ,($498.71),($1.25),$0.14 ,,,0.00000001 BTC ,1.42485 ETH ,1.42485 ETH ,1544173819,1544173816,2017-09-02,16:22:10.862,,,,,,
2017-09-06,15:34:51.712,Credit,USD,Deposit (Wire Transfer),,,"$13,000.00 ",,"$13,000.14 ",,,0.00000001 BTC ,,1.42485 ETH ,,,,,,,,,,
2017-09-06,18:54:53.818,Buy,ETHUSD,Limit,Taker,25.00 ,"($6,759.19)",($16.90),"$6,224.05 ",,,0.00000001 BTC ,19.997 ETH ,21.42185 ETH ,1590325555,1590325549,2017-09-06,18:54:53.817,,,,,,
2017-09-06,18:54:53.818,Buy,ETHUSD,Limit,Taker,25.00 ,($169.01),($0.42),"$6,054.63 ",,,0.00000001 BTC ,0.5 ETH ,21.92185 ETH ,1590325553,1590325549,2017-09-06,18:54:53.817,,,,,,
2017-09-06,18:54:53.818,Buy,ETHUSD,Limit,Taker,25.00 ,($334.63),($0.84),"$5,719.16 ",,,0.00000001 BTC ,0.99 ETH ,22.91185 ETH ,1590325551,1590325549,2017-09-06,18:54:53.817,,,,,,
2017-09-06,18:57:00.565,Buy,ETHUSD,Limit,Maker,25.00 ,($676.02),($1.69),"$5,041.45 ",,,0.00000001 BTC ,2.0 ETH ,24.91185 ETH ,1590340694,1590325549,2017-09-06,18:54:53.817,,,,,,
2017-09-06,18:57:22.119,Buy,ETHUSD,Limit,Maker,25.00 ,($25.03),($0.06),"$5,016.36 ",,,0.00000001 BTC ,0.074053 ETH ,24.985903 ETH ,1590343221,1590325549,2017-09-06,18:54:53.817,,,,,,
2017-09-06,18:57:22.330,Buy,ETHUSD,Limit,Maker,25.00 ,($142.64),($0.36),"$4,873.36 ",,,0.00000001 BTC ,0.422 ETH ,25.407903 ETH ,1590343263,1590325549,2017-09-06,18:54:53.817,,,,,,
2017-09-06,18:57:24.690,Buy,ETHUSD,Limit,Maker,25.00 ,"($4,861.19)",($12.15),$0.02 ,,,0.00000001 BTC ,14.381788 ETH ,39.789691 ETH ,1590343648,1590325549,2017-09-06,18:54:53.817,,,,,,
2017-09-07,17:24:30.582,Debit,ETH,Withdrawal (ETH),,,,,$0.02 ,,,0.00000001 BTC ,(7.2345 ETH),32.555191 ETH ,,,,,,,2dc05aacd815daf2b33895028bbcca89e9302c4d69b5a6414b1c5b5547d9304d,,0x7976a66ffde55fc729ce8cbd8a7689bc0d155f11,
2017-09-08,20:41:59.463,Debit,ETH,Withdrawal (ETH),,,,,$0.02 ,,,0.00000001 BTC ,(30.0 ETH),2.555191 ETH ,,,,,,,4468a26a437127600ee8afef846c1883ffad432a17446c9e3018bc27c9fed9d9,,0x7976a66ffde55fc729ce8cbd8a7689bc0d155f11,
2017-09-09,15:06:44.536,Debit,ETH,Withdrawal (ETH),,,,,$0.02 ,,,0.00000001 BTC ,(0.05878 ETH),2.496411 ETH ,,,,,,,759227ca582f19d618d6241185e6f1f722ae6b8e1f95b21044fc299a44620c1a,,0x7976a66ffde55fc729ce8cbd8a7689bc0d155f11,
2017-11-09,16:18:34.305,Credit,USD,Deposit (Wire Transfer),,,"$2,000.00 ",,"$2,000.02 ",,,0.00000001 BTC ,,2.496411 ETH ,,,,,,,,,,
2017-11-12,06:51:58.754,Buy,BTCUSD,Limit,Taker,25.00 ,"($1,977.46)",($4.94),$17.61 ,0.36085084 BTC ,,0.36085085 BTC ,,2.496411 ETH ,2206915673,2206915671,2017-11-12,06:51:58.753,,,,,,
2017-11-15,04:36:18.506,Debit,BTC,Withdrawal (BTC),,,,,$17.61 ,(0.36085084 BTC),,0.00000001 BTC ,,2.496411 ETH ,,,,,,,c28c6a964f4dea214aef6356f360fd7cbe4997f4a54f059472495ec1c537b372,,1D7FHaze5ziHpBCMYGC9VUrmqMj66oWGuT,0
2017-11-15,04:40:04.928,Debit,ETH,Withdrawal (ETH),,,,,$17.61 ,,,0.00000001 BTC ,(2.496411 ETH),0.0 ETH ,,,,,,,1243b8a263f5c866073c6c877562db22f5822d087c3df83a7443397daaec7083,,0xa667449addf191c2539d49b0369a99c06aba6167,
2017-11-28,00:40:15.406,Buy,ETHUSD,Limit,Taker,25.00 ,($17.14),($0.04),$0.43 ,,,0.00000001 BTC ,0.036 ETH ,0.036 ETH ,2343837258,2343837256,2017-11-28,00:40:15.405,,,,,,
2017-11-28,00:41:19.044,Debit,ETH,Withdrawal (ETH),,,,,$0.43 ,,,0.00000001 BTC ,(0.036 ETH),0.0 ETH ,,,,,,,289bf2048cf0410b0e0474ca0dd8055c9cdfcbe66c42a78ab313ca32d3b2c9f1,,0x79d55aa1f5ef0472fa4a3bfee3bff8e00517e760,
2017-12-15,02:20:11.601,Credit,USD,Deposit (Instant ACH Transfer),,,$500.00 ,,$500.43 ,,,0.00000001 BTC ,,0.0 ETH ,,,,,,,,,,
2017-12-15,02:25:29.530,Buy,BTCUSD,Limit,Maker,25.00 ,($192.70),($0.48),$307.25 ,0.01110051 BTC ,,0.01110052 BTC ,,0.0 ETH ,2476596634,2476594273,2017-12-15,02:24:22.832,,,,,,
2017-12-15,02:25:29.643,Buy,BTCUSD,Limit,Maker,25.00 ,($305.53),($0.76),$0.96 ,0.01759949 BTC ,,0.02870001 BTC ,,0.0 ETH ,2476596648,2476594273,2017-12-15,02:24:22.832,,,,,,
2017-12-16,19:48:35.284,Credit,USD,Deposit (Instant ACH Transfer),,,$500.00 ,,$500.96 ,,,0.02870001 BTC ,,0.0 ETH ,,,,,,,,,,
2017-12-18,16:47:30.066,Buy,BTCUSD,Limit,Maker,25.00 ,($499.48),($1.25),$0.23 ,0.0267 BTC ,,0.05540001 BTC ,,0.0 ETH ,2497368506,2497280675,2017-12-18,16:26:17.681,,,,,,
2018-01-17,01:18:06.305,Debit,BTC,Withdrawal (BTC),,,,,$0.23 ,(0.0554 BTC),,0.00000001 BTC ,,0.0 ETH ,,,,,,,ebef1fb3752c712cf6be8d77ec407f8fa7c912e9f021ba8e4f3358d535036d4c,,1D7FHaze5ziHpBCMYGC9VUrmqMj66oWGuT,0
,,,,,,,Totals,($621.71),$0.23 ,,(0.00311708 BTC),0.00000001 BTC ,,0.0 ETH ,,,,,,,,,,
